"Topic 1","Topic 2","Topic 3","Topic 4","Topic 5","Topic 6","Topic 7","Topic 8","Topic 9","Topic 10","Topic 11","Topic 12","Topic 13","Topic 14","Topic 15","Topic 16","Topic 17","Topic 18","Topic 19","Topic 20","Topic 21","Topic 22","Topic 23","Topic 24","Topic 25","Topic 26","Topic 27","Topic 28","Topic 29","Topic 30","Topic 31","Topic 32","Topic 33","Topic 34","Topic 35","Topic 36"
"sistemas","almacén","operaciones","mecánica","administrador","orientación","cliente","ventas","comercial","excel","office","eléctricos","entrevista","desarrollo","obra","mantenimiento","sistemas","calidad","proyectos","supervisar","supervisor","seguridad","técnica","seguridad","facilidad","analista","proactivo","asistente","asistente","proveedores","jefe","mantenimiento","ventas","administración","sistemas","gestión"
"analista","inventarios","mantenimiento","eléctrica","administración","comunicación","atención","administración","comerciales","microsoft","computación","instalación","personas","personas","proyectos","electricidad","informática","procesos","gestión","controlar","ventas","ambiental","asesor","industrial","informática","administración","responsable","industrial","administración","seguimiento","industrial","planta","comercial","industrial","desarrollo","elaboración"
"programador","administración","office","control","sistemas","presión","servicio","servicio","marketing","word","informática","electricista","liderazgo","exterior","obras","electrónica","computación","control","procesos","coordinar","coordinador","gestión","productos","ocupacional","presión","industrial","presión","administración","documentos","información","administración","mecánico","ejecutivo","contabilidad","información","control"
"sql","productos","ms","supervisor","auxiliar","proactividad","orientación","código","productos","office","cobranza","sistemas","ventas","productos","autocad","mecánica","electrónica","gestión","sistemas","procesos","consumo","industrial","office","gestión","computación","contabilidad","dinámico","excel","gerencia","cliente","titulado","mecánica","industrial","economía","implementación","análisis"
"informática","industrial","windows","calidad","informática","liderazgo","comunicación","orientación","ventas","power","excel","instalaciones","comunicación","industriales","diseño","técnica","windows","iso","implementación","asegurar","masivo","sistemas","colocar","ambiental","comunicación","economía","comunicación","logística","elaboración","compra","especialización","preventivo","marketing","ventas","usuarios","reportes"
"server","almacenes","procedimientos","taller","ciencias","responsabilidad","atender","productos","desarrollo","point","cobranzas","eléctricas","office","sap","presupuestos","mecánico","comunicaciones","química","project","jefe","operaciones","capacitador","desarrollo","supervisor","proactiva","asesor","ordenado","compras","administrativo","coordinar","gerente","correctivo","administración","marketing","aplicaciones","seguimiento"
"programación","logística","tecnico","electrónica","computación","planificación","aprendizaje","comercial","desarrollar","ms","microsoft","mantenimiento","supervision","principales","arquitectura","industrial","operativos","industrial","pmi","calidad","industrial","especialista","solicitudes","normas","palabra","fidelización","liderazgo","operaciones","contabilidad","elaborar","gestión","máquinas","asesor","office","analista","indicadores"
"java","despacho","atención","revisar","docente","tolerancia","dinámicos","industrial","negocio","industrial","gestor","medición","industrial","consultora","colegiado","reparación","tecnico","análisis","control","operaciones","jefe","integrados","presentar","riesgos","responsable","financiero","responsabilidad","office","elaborar","entrega","maestría","sistemas","productos","ejecutivo","pruebas","industrial"
"visual","distribución","electrónico","flota","económicas","office","computación","desarrollar","estrategias","autocad","administración","contar","productividad","exportación","costos","maquinaria","configuración","laboratorio","informática","procedimientos","office","minas","financieras","iso","responsabilidad","finanzas","activo","coordinador","documentación","coordinación","sap","plantas","vendedor","ejecutivos","diseño","analista"
"oracle","control","licencia","técnica","administrativas","relaciones","informática","planificación","cliente","project","información","eléctrico","microsoft","consultoría","titulado","tecnico","office","industrias","cliente","elaborar","titulado","contar","personas","prevención","office","comercial","organizado","administrativo","seguimiento","reportes","psicología","repuestos","contar","comercial","ejecución","información"
