"Topic 1","Topic 2","Topic 3","Topic 4","Topic 5","Topic 6","Topic 7","Topic 8","Topic 9","Topic 10","Topic 11","Topic 12","Topic 13","Topic 14"
"instalacion","ventas","proyectos","tecnico","cliente","administracion","tecnico","gestion","creditos","cliente","asistente","seguridad","sistemas","calidad"
"personas","comercial","obra","sistemas","ventas","gestion","mantenimiento","procesos","contabilidad","atencion","administracion","gestion","desarrollo","produccion"
"productos","marketing","obras","informatica","atencion","jefe","mecanica","negocio","administracion","servicio","industrial","industrial","analista","control"
"contar","productos","construccion","electronica","administracion","control","mecanico","proyectos","economia","tecnico","excel","ocupacional","sql","almacen"
"desarrollo","industrial","costos","computacion","credito","procesos","electricista","informacion","evaluacion","productos","apoyo","ambiental","informatica","productos"
"calidad","cliente","elaboracion","instalacion","productos","industrial","electricos","sistemas","analista","calidad","elaboracion","iso","programador","industrial"
"sistemas","administracion","autocad","configuracion","tecnico","operaciones","electricidad","analisis","cobranza","tecnicos","seguimiento","normas","programacion","tecnico"
"consultor","comerciales","control","contar","comercial","supervisar","industrial","desarrollar","financiero","diseno","office","capacitacion","tecnico","inventarios"
"ventas","comunicacion","presupuestos","mantenimiento","servicio","controlar","contratacion","implementacion","industrial","control","compras","supervisor","server","planta"
"tecnico","ingles","ingles","contratacion","creditos","coordinar","preventivo","analista","microfinanzas","asistente","proveedores","sistemas","aplicaciones","jefe"
"comunicacion","ejecutivo","diseno","tecnicos","contabilidad","elaborar","electrico","seguimiento","gestionar","responsable","informacion","riesgos","java","contratacion"
"lider","tecnico","contratacion","servicio","operaciones","gestionar","sistemas","industrial","calidad","verificar","ingles","calidad","analisis","recepcion"
"contratacion","supervisor","ejecucion","comunicaciones","industrial","indicadores","tecnicos","cliente","incrementar","office","contratacion","contratacion","oracle","despacho"
"freelance","seguimiento","project","cliente","economia","procedimientos","correctivo","calidad","captacion","administracion","gestion","procedimientos","informacion","laboratorio"
"agricola","consumo","arquitectura","windows","contratacion","gerencia","electronica","desarrollo","financieras","computacion","reportes","minas","diseno","office"
"riego","jefe","jefe","comunicacion","tarjetas","cliente","instalaciones","asegurar","tecnico","personas","analisis","prevencion","computacion","analisis"
"auditoria","desarrollo","ms","electronico","tecnicos","calidad","planta","elaborar","estrategias","informatica","compra","higiene","proyectos","supervisor"
"academica","servicio","gestion","capacitacion","bancaria","organizacion","reparacion","necesidades","aprobacion","apoyo","administrativo","jefe","visual","producto"
"capacitacion","masivo","colegiado","hardware","lider","desarrollo","electricas","proponer","poner","asignacion","comunicacion","ambientales","contratacion","distribucion"
"ingles","office","office","usuarios","banca","administrador","electrica","politicas","practica","supervisor","cliente","implementacion","ingles","procesos"
