"Topic 1","Topic 2","Topic 3","Topic 4","Topic 5","Topic 6","Topic 7","Topic 8","Topic 9","Topic 10","Topic 11","Topic 12","Topic 13","Topic 14"
"calidad","ventas","proyectos","tecnico","ventas","almacen","mantenimiento","gestion","creditos","obra","administracion","seguridad","sistemas","produccion"
"procesos","comercial","construccion","sistemas","cliente","operaciones","tecnico","negocio","administracion","cliente","asistente","gestion","desarrollo","industrial"
"gestion","cliente","obras","informatica","administracion","industrial","mecanico","administracion","contabilidad","atencion","elaboracion","industrial","analista","planta"
"control","industrial","autocad","computacion","atencion","administracion","electricista","comercial","evaluacion","servicio","industrial","ocupacional","sql","calidad"
"iso","productos","elaboracion","electronica","supervisor","control","mecanica","industrial","economia","construccion","informacion","ambiental","informatica","control"
"desarrollo","comunicacion","diseno","instalacion","credito","inventarios","electricos","comerciales","analista","obras","apoyo","normas","programador","productos"
"auditoria","tecnico","gestion","configuracion","consumo","distribucion","electricidad","desarrollar","cobranza","calidad","excel","riesgos","programacion","jefe"
"procedimientos","marketing","ingles","tecnicos","productos","jefe","preventivo","marketing","microfinanzas","supervisor","seguimiento","capacitacion","server","contratacion"
"sistemas","administracion","costos","contar","operaciones","coordinar","industrial","politicas","industrial","tecnico","gestion","iso","tecnico","tecnico"
"normas","ingles","presupuestos","contratacion","comercial","controlar","contratacion","desarrollo","gestionar","control","control","supervisor","aplicaciones","laboratorio"
"organizacion","servicio","contratacion","mantenimiento","contabilidad","gestion","sistemas","ventas","calidad","supervisar","office","sistemas","analisis","supervisor"
"productos","ejecutivo","project","servicio","contratacion","despacho","electrico","seguimiento","captacion","productos","documentos","contratacion","informacion","procesos"
"contratacion","orientacion","control","comunicacion","masivo","almacenes","correctivo","cliente","financiero","revisar","administrativo","procedimientos","java","analisis"
"jefe","comerciales","jefe","windows","creditos","supervisar","tecnicos","procesos","practica","ejecucion","gerencia","prevencion","oracle","quimica"
"seguimiento","seguimiento","ejecucion","comunicaciones","industrial","sap","instalaciones","productos","aprobacion","verificar","reportes","higiene","diseno","ingles"
"ingles","office","ms","cliente","tecnico","compras","electronica","proponer","poner","asistente","contratacion","minas","proyectos","producto"
"aseguramiento","desarrollo","desarrollo","office","servicio","productos","instalacion","asegurar","financieras","tecnicos","cliente","implementacion","visual","office"
"implementacion","contratacion","titulado","electronico","office","asistente","reparacion","analista","estrategias","responsable","contabilidad","ambientales","computacion","lider"
"responsable","organizacion","arquitectura","presion","economia","excel","electricas","jefe","tecnico","aprendizaje","elaborar","jefe","contratacion","mecanica"
"comunicacion","asesor","mecanico","capacitacion","tarjetas","procesos","electrica","gestionar","incrementar","perforacion","proveedores","sst","procesos","agua"
