{
  "name": "root", 
  "children": [
    {
      "name": "Ingeniería", 
      "children": [
        {
          "name": "Industrial", 
          "size": 1523
        }, 
        {
          "name": "Sistemas", 
          "size": 741
        }, 
        {
          "name": "Informática", 
          "size": 615
        }, 
        {
          "name": "Eléctrica", 
          "size": 451
        }, 
        {
          "name": "Electrónica", 
          "size": 421
        }, 
        {
          "name": "Mecánica", 
          "size": 367
        }, 
        {
          "name": "Civil", 
          "size": 335
        }, 
        {
          "name": "Telecomunicaciones", 
          "size": 187
        }, 
        {
          "name": "Sanitaria", 
          "size": 157
        }, 
        {
          "name": "Arquitectura", 
          "size": 132
        }, 
        {
          "name": "Química", 
          "size": 129
        }, 
        {
          "name": "Minas", 
          "size": 127
        }, 
        {
          "name": "Ambiental", 
          "size": 88
        }, 
        {
          "name": "Industrias Alimentarias", 
          "size": 87
        }, 
        {
          "name": "Mecánica Eléctrica", 
          "size": 76
        }, 
        {
          "name": "Económica", 
          "size": 72
        }, 
        {
          "name": "Agronomía", 
          "size": 70
        }, 
        {
          "name": "Higiene y Seguridad Industrial", 
          "size": 67
        }, 
        {
          "name": "Metalúrgica", 
          "size": 43
        }, 
        {
          "name": "Agrícola", 
          "size": 35
        }, 
        {
          "name": "Geológica", 
          "size": 33
        }, 
        {
          "name": "Estadística", 
          "size": 31
        }, 
        {
          "name": "Mecatrónica", 
          "size": 28
        }, 
        {
          "name": "Pesquera", 
          "size": 19
        }, 
        {
          "name": "Textil", 
          "size": 17
        }, 
        {
          "name": "Petróleo", 
          "size": 12
        }, 
        {
          "name": "Mecánica de Fluidos", 
          "size": 11
        }, 
        {
          "name": "Zootecnia", 
          "size": 10
        }, 
        {
          "name": "Forestal", 
          "size": 8
        }, 
        {
          "name": "Petroquímica", 
          "size": 4
        }, 
        {
          "name": "Naval", 
          "size": 0
        }
      ]
    }
  ]
}