{
  "name": "root",
  "children": [
    {
      "name": "Ingeniería",
      "children": [
        {
          "name": "Industrial",
          "size": "39.87"
        },
        {
          "name": "Minas",
          "size": "25.21"
        },
        {
          "name": "Mecánica",
          "size": "24.13"
        },
        {
          "name": "Civil",
          "size": "18.28"
        },
        {
          "name": "Higiene y Seguridad Industrial",
          "size": "11.42"
        },
        {
          "name": "Ambiental",
          "size": "11.29"
        },
        {
          "name": "Eléctrica",
          "size": "10.76"
        },
        {
          "name": "Química",
          "size": "9.27"
        },
        {
          "name": "Metalúrgica",
          "size": "9.08"
        },
        {
          "name": "Geológica",
          "size": "8.61"
        },
        {
          "name": "Mecánica Eléctrica",
          "size": "6.70"
        },
        {
          "name": "Sistemas",
          "size": "4.85"
        },
        {
          "name": "Electrónica",
          "size": "4.19"
        },
        {
          "name": "Sanitaria",
          "size": "3.00"
        },
        {
          "name": "Informática",
          "size": "2.90"
        },
        {
          "name": "Mecatrónica",
          "size": "1.91"
        },
        {
          "name": "Telecomunicaciones",
          "size": "1.12"
        },
        {
          "name": "Económica",
          "size": "0.73"
        },
        {
          "name": "Petróleo",
          "size": "0.53"
        },
        {
          "name": "Mecánica de Fluidos",
          "size": "0.43"
        },
        {
          "name": "Petroquímica",
          "size": "0.43"
        },
        {
          "name": "Estadística",
          "size": "0.40"
        },
        {
          "name": "Forestal",
          "size": "0.36"
        },
        {
          "name": "Agrícola",
          "size": "0.30"
        },
        {
          "name": "Pesquera",
          "size": "0.30"
        },
        {
          "name": "Arquitectura",
          "size": "0.00"
        },
        {
          "name": "Industrias Alimentarias",
          "size": "0.00"
        },
        {
          "name": "Agronomía",
          "size": "0.00"
        },
        {
          "name": "Textil",
          "size": "0.00"
        },
        {
          "name": "Zootecnia",
          "size": "0.00"
        },
        {
          "name": "Naval",
          "size": "0.00"
        }
      ]
    }
  ]
}