{
  "publicidad": "Publicidad", 
  "higiene": "Higiene y Seguridad Industrial", 
  "industrial": "Industrial", 
  "traduccion": "Traducción e Interpretación Profesional", 
  "biologia": "Biología", 
  "administracion": "Administración", 
  "psicologia": "Psicología", 
  "ciencias_comunicacion": "Ciencias de la Comunicación", 
  "petroleo": "Petróleo", 
  "sistemas": "Sistemas", 
  "tecnico": "Carreras Técnicas", 
  "electrica": "Eléctrica", 
  "industrias_alimentarias": "Industrias Alimentarias", 
  "geologica": "Geológica", 
  "petroquimica": "Petroquímica", 
  "matematica": "Matemática", 
  "turismo": "Hotelería y Turismo", 
  "diseno_industrial": "Diseño Industrial", 
  "enfermeria": "Enfermería", 
  "agricola": "Agrícola", 
  "otros": "Otros", 
  "artes_escenicas": "Artes Escénicas", 
  "textil": "Textil", 
  "zootecnia": "Zootecnia", 
  "arquitectura": "Arquitectura", 
  "nutricion": "Nutrición", 
  "derecho": "Derecho", 
  "trabajo_social": "Trabajo Social", 
  "agronomia": "Agronomía", 
  "diseno_grafico": "Diseño Gráfico", 
  "electronica": "Electrónica", 
  "pintura": "Pintura", 
  "metalurgica": "Metalúrgica", 
  "geografia": "Geografía", 
  "bibliotecologia": "Bibliotecología", 
  "mecanica_electrica": "Mecánica Eléctrica", 
  "civil": "Civil", 
  "mecanica_fluidos": "Mecánica de Fluidos", 
  "audiovisual": "Comunicación Audiovisual", 
  "ciencias_computacion": "Ciencia de la Computación", 
  "veterinaria": "Veterinaria", 
  "metereologia": "Meteorología", 
  "medicina": "Medicina Humana", 
  "telecomunicaciones": "Telecomunicaciones", 
  "odontologia": "Odontología", 
  "filosofia": "Filosofía", 
  "pesquera": "Pesquera", 
  "minas": "Minas", 
  "genetica_biotecnologia": "Genética y Biotecnología", 
  "sociologia": "Sociología", 
  "arqueologia": "Arqueología", 
  "periodismo": "Periodismo", 
  "marketing": "Marketing", 
  "informatica": "Informática", 
  "forestal": "Forestal", 
  "fisica": "Física", 
  "escultura": "Escultura", 
  "historia": "Historia", 
  "tecnologia_medica": "Tecnología Médica", 
  "ambiental": "Ambiental", 
  "negocios_internacionales": "Negocios Internacionales", 
  "diseno_modas": "Diseño de Modas", 
  "mecatronica": "Mecatrónica", 
  "naval": "Naval", 
  "educacion": "Educación", 
  "economia": "Economía", 
  "diseno_interiores": "Diseño de Interiores", 
  "sanitaria": "Sanitaria", 
  "finanzas": "Finanzas", 
  "mecanica": "Mecánica", 
  "farmacia": "Farmacia y Bioquímica", 
  "estadistica": "Estadística", 
  "antropologia": "Antropología", 
  "contabilidad": "Contabilidad", 
  "obstetricia": "Obstetricia", 
  "economica": "Económica", 
  "quimica": "Química", 
  "microbiologia_parasitologia": "Microbiología y Parasitología", 
  "linguistica_literatura": "Literatura y Lingüística", 
  "organizacional": "Comunicación Organizacional"
}