,0 - 100,100 - 200,200 - 300,300 - 400,400 - 500,500 - 600,600 - 700,700 - 800,800 - 900,900 - 1000,1000 - 1100,1100 - 1200,1200 - 1300
Biología,40,47,14,3,3,0,0,0,1,0,0,0,0
Ciencia de la Computación,1,7,11,0,1,13,0,0,0,0,0,0,0
Física,41,18,11,2,1,0,0,0,1,0,0,0,0
Genética y Biotecnología,0,0,0,0,0,0,0,0,0,0,0,0,0
Matemática,27,20,6,2,1,0,1,0,0,0,0,0,0
Microbiología y Parasitología,10,17,0,3,0,0,0,0,0,0,0,0,0
Química,22,20,3,0,0,0,0,0,0,0,0,0,0
Administración,3584,6243,3247,742,192,87,44,8,2,2,3,2,0
Negocios Internacionales,166,366,142,70,22,3,1,0,1,0,0,0,0
Hotelería y Turismo,389,490,196,36,13,1,2,0,0,0,0,0,0
Contabilidad,2376,3074,1558,328,71,33,30,2,4,1,0,0,0
Economía,693,1571,1191,256,67,35,31,4,0,1,3,2,1
Finanzas,334,543,343,126,29,5,3,2,2,1,1,0,0
Antropología,14,17,17,1,0,0,0,0,0,0,0,0,0
Arqueología,3,2,2,0,1,0,0,0,0,0,0,0,0
Derecho,268,348,137,36,29,17,27,1,1,0,0,0,0
Geografía,6,5,2,3,0,0,0,0,0,0,0,0,0
Historia,10,9,0,0,0,0,0,0,0,0,0,0,0
Sociología,13,26,14,5,0,0,0,0,0,0,0,0,0
Trabajo Social,143,185,109,41,7,4,0,0,0,0,0,0,0
Comunicación Audiovisual,19,25,8,3,1,0,0,0,0,0,0,0,0
Ciencias de la Comunicación,345,752,397,59,10,7,0,0,1,0,0,0,0
Marketing,734,1658,1005,185,25,12,1,1,1,0,2,0,0
Comunicación Organizacional,1,5,5,3,1,0,0,0,0,0,0,0,0
Periodismo,28,99,23,1,2,1,0,1,0,1,1,0,0
Publicidad y Marketing,232,270,112,28,9,1,0,0,0,0,0,0,0
Ing. Agrícola,26,39,21,8,6,1,0,0,0,0,0,0,0
Agronomía,78,109,180,22,4,0,0,0,0,0,0,0,0
Ing. Ambiental,80,123,89,38,14,5,1,0,0,0,1,0,0
Ing. Civil,557,727,309,79,28,11,0,0,0,1,7,2,1
Diseño Gráfico,186,147,31,7,1,0,0,0,0,0,0,0,0
Ing. Económica,45,142,135,15,10,1,2,1,0,0,3,0,1
Ing. Eléctrica,398,616,308,88,16,9,4,3,0,0,0,0,0
Ing. Electrónica,294,560,308,101,29,8,6,2,0,0,0,0,0
Ing. Estadística,27,80,138,21,3,4,1,1,0,0,0,0,0
Ing. Forestal,14,24,27,2,0,0,0,0,0,0,0,0,0
Ing. Geológica,41,51,30,9,6,2,1,0,0,1,0,0,0
Ing. Higiene y Seguridad Industrial,38,126,88,16,8,2,0,0,0,0,0,0,0
Ing. Industrial,1597,3251,1829,551,152,62,13,5,1,2,3,2,0
Industrias Alimentarias,73,118,190,35,1,0,0,0,0,0,0,0,0
Ing. Informática,895,1156,649,156,35,33,1,1,0,0,0,0,0
Ing. Mecánica,453,720,361,139,41,13,4,4,1,0,0,0,0
Ing. Mecánica Eléctrica,101,161,92,57,12,1,0,0,0,0,0,0,0
Ing. Mecánica de Fluidos,11,32,7,4,5,0,4,0,0,0,0,0,0
Ing. Mecatrónica,29,84,36,21,4,0,2,2,0,0,0,0,0
Ing. Metalúrgica,35,69,53,37,12,2,0,1,0,0,0,0,0
Meteorología,0,3,0,0,0,0,0,0,0,0,0,0,0
Ing. de Minas,71,113,78,34,21,3,0,0,0,1,0,0,0
Ing. Naval,0,3,4,1,0,0,0,0,0,0,0,0,0
Ing. Pesquera,16,22,24,1,0,0,0,0,0,0,0,0,0
Ing. de Petróleo,5,9,10,5,1,1,0,0,0,0,0,0,0
Ing. Petroquímica,8,16,5,2,0,0,0,0,0,0,0,0,0
Ing. Química,105,251,122,48,23,4,3,1,0,0,0,0,0
Ing. Sanitaria,52,63,26,10,4,0,0,0,0,1,1,0,0
Ing. de Sistemas,688,1279,657,159,55,39,2,1,0,0,0,2,0
Ing. de Telecomunicaciones,85,222,110,42,20,7,0,0,0,0,0,0,0
Ing. Textil,17,47,18,6,3,0,0,0,0,0,0,0,0
Zootecnia,17,30,26,1,0,0,0,0,0,0,0,0,0
Arquitectura,160,224,85,30,12,2,0,0,0,0,6,1,0
Bibliotecología,18,32,12,1,0,0,0,0,0,0,0,0,0
Educación,438,274,94,26,9,3,0,0,0,0,1,2,1
Filosofía,0,4,10,0,14,0,0,0,0,0,0,0,0
Literatura y Lingüística,12,27,11,1,0,0,0,0,0,0,0,0,0
Traducción e Interpretación Profesional,16,26,9,1,1,0,0,0,0,0,0,0,0
Artes Escénicas,8,4,0,0,0,0,0,0,0,0,0,0,0
Diseño Industrial,6,6,3,0,0,0,0,0,0,0,0,0,0
Diseño de Interiores,28,69,15,0,0,0,0,0,0,0,0,0,0
Diseño de Modas,12,23,16,0,0,0,0,0,0,0,0,0,0
Escultura,1,1,0,0,0,0,0,0,0,0,0,0,0
Pintura,26,20,0,1,0,1,0,0,0,0,0,0,0
Farmacia y Bioquímica,190,290,76,10,5,0,2,0,0,0,0,0,0
Odontología,52,80,3,0,1,0,1,0,0,0,0,0,0
Psicología,552,666,220,80,18,5,1,1,0,0,0,0,0
Veterinaria,35,21,2,0,0,0,0,0,0,0,0,0,0
Enfermería,289,235,64,20,2,0,1,0,0,0,0,0,0
Medicina Humana,337,248,64,34,5,5,2,1,0,0,0,0,0
Nutrición,60,56,16,2,1,0,0,0,0,0,0,0,0
Obstetricia,34,11,1,3,1,0,0,0,0,0,0,0,0
Tecnología Médica,74,60,18,6,1,0,0,0,0,0,0,0,0
Carreras Técnicas,10038,11034,4617,1082,261,102,47,7,5,3,3,4,1
Otros,12225,6666,1683,280,39,9,4,0,1,1,0,0,0