\relax 
\citation{manpower}
\citation{educ1}
\citation{educ2}
\@writefile{toc}{\contentsline {section}{\numberline {1}Introduction}{\thepage }}
\citation{asuncion}
\citation{handbook}
\citation{lda}
\citation{ctm}
\citation{hdp}
\citation{htm}
\citation{dtm}
\citation{hmm_tm}
\citation{parallel_tm}
\citation{pnas}
\citation{etm}
\citation{sha:pereira}
\citation{mcdonald}
\citation{bvd99}
\citation{carreras}
\citation{bioformat}
\citation{bikel}
\citation{collins}
\citation{carreras}
\citation{carreras}
\citation{carreras}
\citation{miller}
\citation{liang}
\@writefile{toc}{\contentsline {section}{\numberline {2}Related work}{\thepage }}
\@writefile{toc}{\contentsline {section}{\numberline {3}Job ads corpus}{\thepage }}
\@writefile{toc}{\contentsline {section}{\numberline {4}Shallow Parsing}{\thepage }}
\newlabel{section:chunks}{{4}{\thepage }}
\@writefile{lot}{\contentsline {table}{\numberline {1}{\ignorespaces Defined chunks and presence in corpus}}{\thepage }}
\newlabel{table:chunks}{{1}{\thepage }}
\@writefile{toc}{\contentsline {subsection}{\numberline {4.1}Data preparation}{\thepage }}
\@writefile{toc}{\contentsline {subsection}{\numberline {4.2}Averaged Structured Perceptron}{\thepage }}
\citation{liang}
\citation{liang}
\citation{lda}
\citation{griffiths}
\citation{griffiths}
\citation{lda}
\citation{pnas}
\citation{griffiths}
\citation{asuncion}
\citation{pnas}
\@writefile{toc}{\contentsline {section}{\numberline {5}Topic modeling}{\thepage }}
\@writefile{toc}{\contentsline {subsection}{\numberline {5.1}Latent Dirichlet Allocation}{\thepage }}
\@writefile{toc}{\contentsline {subsection}{\numberline {5.2}Experiment configuration}{\thepage }}
\newlabel{section:setup}{{5.2}{\thepage }}
\@writefile{lot}{\contentsline {table}{\numberline {2}{\ignorespaces Mixed-membership models in the analysis}}{\thepage }}
\newlabel{table:models}{{2}{\thepage }}
\@writefile{lot}{\contentsline {table}{\numberline {3}{\ignorespaces Feature set sizes and chunkers' performance}}{\thepage }}
\newlabel{table:res_chunks}{{3}{\thepage }}
\@writefile{toc}{\contentsline {subsection}{\numberline {5.3}Dimensionality selection}{\thepage }}
\newlabel{section:dimsel}{{5.3}{\thepage }}
\@writefile{toc}{\contentsline {section}{\numberline {6}Experiments}{\thepage }}
\@writefile{toc}{\contentsline {subsection}{\numberline {6.1}Shallow Parsing}{\thepage }}
\@writefile{toc}{\contentsline {subsection}{\numberline {6.2}Topic modeling}{\thepage }}
\@writefile{toc}{\contentsline {subsubsection}{\numberline {6.2.1}Dimensionality}{\thepage }}
\newlabel{section:dimensionality}{{6.2.1}{\thepage }}
\citation{erosheva:mm}
\@writefile{lof}{\contentsline {figure}{\numberline {1}{\ignorespaces Average held-out perplexity as a function of the number of latent categories K for whole text models 1, 2 and 3 (top), and text chunks models 4, 5 and 6 (bottom).}}{\thepage }}
\newlabel{fig:dimsel}{{1}{\thepage }}
\@writefile{toc}{\contentsline {subsubsection}{\numberline {6.2.2}Qualitative and quantitative analysis of inferred categories}{\thepage }}
\@writefile{lof}{\contentsline {figure}{\numberline {2}{\ignorespaces Average held-out perplexity as a function of $\alpha $, for mixed-membership models using all the words from the ad (red) and using words from the extracted chunks (blue). Both models were fitted by using a number of latent categories set to 26.}}{\thepage }}
\newlabel{fig:alphasel}{{2}{\thepage }}
\@writefile{lof}{\contentsline {figure}{\numberline {3}{\ignorespaces Estimated average membership of engineering majors in the 26 latent categories for mixed-membership models 1-6 in Table 2\hbox {}.}}{\thepage }}
\newlabel{fig:majortopics}{{3}{\thepage }}
\@writefile{lof}{\contentsline {figure}{\numberline {4}{\ignorespaces Similarity matrices using Hellinger distance between discrete distributions (categories proportion over majors), for each of the six mixed-membership models in Table 2\hbox {}.}}{\thepage }}
\newlabel{fig:mmhell}{{4}{\thepage }}
\@writefile{toc}{\contentsline {section}{\numberline {7}Conclusions}{\thepage }}
\@writefile{lot}{\contentsline {table}{\numberline {4}{\ignorespaces Categories behaviour: joining of redundant categories}}{\thepage }}
\newlabel{table:case1}{{4}{\thepage }}
\@writefile{lot}{\contentsline {table}{\numberline {5}{\ignorespaces Categories behaviour: splitting in two or more detailed categories}}{\thepage }}
\newlabel{table:case2}{{5}{\thepage }}
\bibstyle{abbrv}
\bibdata{mapaper}
\bibcite{pnas}{1}
\bibcite{asuncion}{2}
\bibcite{bikel}{3}
\bibcite{htm}{4}
\bibcite{ctm}{5}
\bibcite{dtm}{6}
\bibcite{lda}{7}
\bibcite{handbook}{8}
\bibcite{bvd99}{9}
\bibcite{carreras}{10}
\bibcite{collins}{11}
\bibcite{erosheva:mm}{12}
\bibcite{griffiths}{13}
\bibcite{hmm_tm}{14}
\bibcite{liang}{15}
\bibcite{manpower}{16}
\bibcite{educ1}{17}
\bibcite{mcdonald}{18}
\bibcite{miller}{19}
\bibcite{etm}{20}
\bibcite{educ2}{21}
\@writefile{lot}{\contentsline {table}{\numberline {6}{\ignorespaces Categories behaviour: persistence of latent structure}}{\thepage }}
\newlabel{table:case3}{{6}{\thepage }}
\@writefile{toc}{\contentsline {section}{\numberline {8}References}{\thepage }}
\bibcite{bioformat}{22}
\bibcite{sha:pereira}{23}
\bibcite{parallel_tm}{24}
\bibcite{hdp}{25}
