w,v,u,score
discrete,products,manufacturing,0.2257
systems,of,particles,0.1510
bits,and,codes,0.1298
formulation,for,systems,0.1192
diffusivity,simple,models,0.1166
cam,process,plan,0.1129
cad,cam,process,0.1129
models,for,cell,0.1074
linear,lumped,parameter,0.1015
vibration,of,linear,0.0983
degree,of,freedom,0.0843
physiology,NUM,problem,0.0791
physiological,fluid,mechanics,0.0791
design,for,manufacturing,0.0727
forces,on,bodies,0.0726
systems,containing,rigid,0.0677
dynamics,of,systems,0.0677
containing,rigid,bodies,0.0677
de,mining,robot,0.0670
algebra,NUM,part,0.0655
part,type,systems,0.0621
conservation,of,energy,0.0610
foundations,of,bioengineering,0.0588
stress,and,strain,0.0588
probability,and,statistics,0.0561
varying,loads,motions,0.0550
slowly,varying,loads,0.0550
ships,and,offshore,0.0550
hydrostatics,and,structures,0.0550
translation,and,rotation,0.0540
diffusion,in,cells,0.0496
finite,element,methods,0.0488
finite,element,analysis,0.0488
motion,of,rigid,0.0487
advances,in,manufacturing,0.0486
vortex,induced,vibrations,0.0484
designing,and,building,0.0473
second,order,systems,0.0455
summer,shop,training,0.0453
servo,motor,control,0.0440
power,amplifier,design,0.0440
kits,for,prototype,0.0440
effects,of,aliasing,0.0440
easy,access,across,0.0440
dr,rich,kimball,0.0440
demonstrate,the,effects,0.0440
commutation,and,control,0.0440
brushless,motor,commutation,0.0440
bank,of,bnc,0.0440
analog,power,amplifier,0.0440
aliasing,and,quantization,0.0440
across,the,top,0.0440
stability,and,instability,0.0429
semi,infinite,bodies,0.0429
pendulum,on,cart,0.0429
modes,of,heat,0.0429
laminar,boundary,layers,0.0429
gray,body,networks,0.0429
analogy,to,heat,0.0429
machine,tools,fixtures,0.0405
large,scale,social,0.0395
mechanical,engineering,knowledge,0.0395
moment,diagrams,problem,0.0392
force,and,bending,0.0392
bending,moment,diagrams,0.0392
areas,in,phase,0.0392
state,space,design,0.0391
state,space,control,0.0391
space,control,design,0.0391
discrete,time,design,0.0391
discrete,time,control,0.0391
amp,pid,controller,0.0391
amp,feedback,circuits,0.0391
applications,of,basic,0.0388
systems,iii,plant,0.0375
systems,i,manufacturing,0.0375
molding,i,injection,0.0375
metal,deformation,manufacturing,0.0375
mems,moems,silicon,0.0375
manufacturing,lab,project,0.0375
deformation,manufacturing,cost,0.0375
control,i,quality,0.0375
cad,cam,design,0.0375
spring,mass,damper,0.0368
mass,damper,system,0.0368
involve,different,branches,0.0368
inertia,damper,system,0.0368
exposure,to,heat,0.0368
experiments,involve,different,0.0368
branches,of,mechanical,0.0368
analysis,of,solids,0.0366
macroscopic,and,microscopic,0.0364
forces,and,moments,0.0362
practice,problems,posted,0.0360
sales,and,marketing,0.0354
dynamics,of,continuous,0.0338
stage,c,system,0.0335
stage,b,prototype,0.0335
software,NUM,problem,0.0335
kinematics,NUM,problem,0.0335
c,system,integration,0.0335
b,prototype,implementation,0.0335
system,response,problem,0.0317
closed,loop,systems,0.0317
mechanics,NUM,problem,0.0316
control,and,integration,0.0316
control,and,scheduling,0.0310
implement,numerically,stable,0.0310
differentiation,and,integration,0.0310
levels,in,crystals,0.0306
classical,size,effects,0.0306
techniques,for,complex,0.0303
teaches,simple,reasoning,0.0303
removing,spurious,complexity,0.0303
physical,and,biological,0.0303
low,cost,experiments,0.0303
experiments,to,test,0.0303
divide,and,conquer,0.0303
discarding,actual,complexity,0.0303
dimensions,and,afterword,0.0303
curiosity,about,phenomena,0.0303
conservation,box,models,0.0303
bird,and,machine,0.0303
applications,are,drawn,0.0303
variety,of,machine,0.0299
stirling,engine,spin,0.0299
relating,to,mechanical,0.0299
project,oriented,relating,0.0299
programming,or,algorithmic,0.0299
ninth,annual,stirling,0.0299
matlab,tutorial,problem,0.0299
major,in,mechanical,0.0299
machine,tools,including,0.0299
lunch,at,noon,0.0299
lathe,instruction,given,0.0299
including,the,bandsaw,0.0299
iap,after,declaring,0.0299
given,on,matlab,0.0299
every,day,except,0.0299
declaring,the,major,0.0299
construction,completed,ninth,0.0299
completed,ninth,annual,0.0299
building,your,stirling,0.0299
attendance,is,mandatory,0.0299
conservation,of,momentum,0.0296
control,of,velocity,0.0295
supplemented,with,readings,0.0294
sciences,prof,subra,0.0294
science,prof,david,0.0294
research,and,educational,0.0294
readings,from,newspaper,0.0294
provide,additional,background,0.0294
produced,videos,provide,0.0294
patrick,s,doyle,0.0294
newspaper,and,magazine,0.0294
laurence,retman,young,0.0294
faculty,from,various,0.0294
educational,opportunities,specific,0.0294
describe,the,research,0.0294
computing,prof,drew,0.0294
civil,and,environmental,0.0294
bioengineering,specially,produced,0.0294
bioengineering,prof,douglas,0.0294
bioengineering,in,mechanical,0.0294
bioengineering,in,material,0.0294
bioengineering,in,environmental,0.0294
bioengineering,in,computer,0.0294
bioengineering,in,civil,0.0294
bioengineering,in,chemical,0.0294
bioengineering,in,aero,0.0294
basis,for,bioengineering,0.0294
astro,prof,laurence,0.0294
additional,background,information,0.0294
rankine,cycle,vs,0.0293
cycle,vs,pressure,0.0293
transfer,in,walls,0.0289
steady,state,flow,0.0289
state,flow,problem,0.0289
moist,air,mixtures,0.0289
liquid,and,vapor,0.0289
koch,biology,building,0.0289
human,comfort,problem,0.0289
heating,and,cooling,0.0289
digital,design,fabrication,0.0289
conductive,heat,transfer,0.0289
air,mixtures,problem,0.0289
newton,s,laws,0.0287
teradyne,business,plan,0.0283
project,progress,report,0.0283
pilkington,float,glass,0.0283
numerical,calculus,part,0.0281
nonlinear,problems,part,0.0281
differential,equations,part,0.0281
forces,on,surfaces,0.0277
control,volume,formulation,0.0277
filament,assembly,crosslinking,0.0276
understanding,the,design,0.0275
understanding,sea,keeping,0.0275
understanding,and,application,0.0275
trade,off,principles,0.0275
spiral,for,ships,0.0275
sea,keeping,characteristics,0.0275
principles,in,hydrodynamics,0.0275
mooring,line,design,0.0275
main,learning,objectives,0.0275
keeping,and,mooring,0.0275
familiar,with,general,0.0275
drift,loads,motions,0.0275
developing,effective,communication,0.0275
design,of,ships,0.0275
characteristics,and,implications,0.0275
architecture,and,marine,0.0275
project,ii,updates,0.0268
analysis,of,mirrors,0.0267
chemical,thermodynamics,part,0.0267
conservation,of,mass,0.0265
thus,the,increased,0.0256
speaking,assignments,culminate,0.0256
show,and,tell,0.0256
project,organization,skills,0.0256
process,that,requires,0.0256
information,sources,hands,0.0256
improve,with,practice,0.0256
hands,on,exercise,0.0256
feedback,produces,better,0.0256
encountered,in,researching,0.0256
difficult,to,obtain,0.0256
contribute,to,excellence,0.0256
communication,problems,encountered,0.0256
reversible,and,irreversible,0.0255
transport,project,proposal,0.0248
transport,first,draft,0.0248
symmetric,carrier,model,0.0248
state,symmetric,carrier,0.0248
space,clamp,project,0.0248
properties,of,cells,0.0248
osmosis,in,cells,0.0248
osmosis,and,carrier,0.0248
model,of,large,0.0248
laws,of,diffusion,0.0248
ion,transport,models,0.0248
hoff,s,law,0.0248
elec,classroom,project,0.0248
diffusion,and,osmosis,0.0248
continuity,and,diffusion,0.0248
clamp,project,report,0.0248
clamp,first,draft,0.0248
chemical,transport,project,0.0248
channels,multi,state,0.0248
channels,hh,oral,0.0248
carrier,mediated,transport,0.0248
fluorescence,microscope,construction,0.0244
dna,melting,curves,0.0244
atomic,force,microscope,0.0244
modeling,for,dynamic,0.0244
creating,cad,components,0.0243
creating,cad,assemblies,0.0243
waves,and,wave,0.0242
surface,gravity,waves,0.0242
structures,and,vehicles,0.0242
project,written,reports,0.0242
linear,free,surface,0.0242
forces,on,offshore,0.0242
energy,in,waves,0.0242
allembert,s,paradox,0.0242
stress,strain,temperature,0.0236
hands,on,laboratory,0.0236
moment,of,inertia,0.0228
approved,by,tas,0.0226
teams,show,parts,0.0226
apply,design,process,0.0226
routh,hurwitz,criterion,0.0222
systems,with,rigid,0.0214
systems,natural,modes,0.0214
systems,including,rigid,0.0214
rotation,of,rigid,0.0214
rolling,cylinder,inside,0.0214
rigid,bodies,linear,0.0214
rigid,bodies,combined,0.0214
rigid,bodies,actuators,0.0214
principles,for,systems,0.0214
presence,of,air,0.0214
plane,motion,kinematics,0.0214
plane,motion,dynamics,0.0214
neighbourhood,of,equilibrium,0.0214
motion,using,momentum,0.0214
kinematics,of,rigid,0.0214
including,rigid,bodies,0.0214
impulse,response,collisions,0.0214
forced,response,characteristics,0.0214
feedback,loop,strategies,0.0214
energy,of,rigid,0.0214
dynamics,of,rigid,0.0214
derivingequations,of,motion,0.0214
cylinder,inside,rollinghoop,0.0214
control,of,systems,0.0214
common,constraints,kinetic,0.0214
coefficient,of,restitution,0.0214
bodies,combined,translation,0.0214
automatic,self,balancing,0.0214
application,to,inverted,0.0214
motors,and,electronics,0.0214
center,of,mass,0.0213
business,and,technology,0.0213
fixed,axis,rotation,0.0208
wherein,students,conduct,0.0202
reinforced,via,hands,0.0202
principles,are,reinforced,0.0202
laboratory,experiences,wherein,0.0202
experiments,and,disassemble,0.0202
boundary,value,problems,0.0201
partition,functions,problem,0.0198
partial,molar,properties,0.0198
state,error,compensation,0.0197
modeling,and,transfer,0.0197
walled,pressure,vessels,0.0196
variables,that,evolve,0.0196
van,der,pol,0.0196
universality,quasiperiodicity,intermittency,0.0196
transmitted,by,slender,0.0196
transitions,to,chaos,0.0196
transformations,and,principal,0.0196
torsion,examples,problem,0.0196
torsion,and,twisting,0.0196
theorem,and,conservation,0.0196
systems,the,content,0.0196
stretching,and,folding,0.0196
stress,strain,relationships,0.0196
strange,attractors,lyaponov,0.0196
strange,attractors,dissipation,0.0196
strain,transformations,problem,0.0196
strain,temperature,relationships,0.0196
strain,and,multiaxial,0.0196
statically,indeterminate,beams,0.0196
stability,of,lorenz,0.0196
stability,maps,reduction,0.0196
space,damped,pendulum,0.0196
space,and,phase,0.0196
sensitivity,to,initial,0.0196
rossler,attractor,derivation,0.0196
relationships,and,static,0.0196
reduction,of,flows,0.0196
reduction,of,dimensionality,0.0196
reconstruction,of,phase,0.0196
quasiperiodicity,intermittency,illustrations,0.0196
pressure,vessels,problem,0.0196
portraits,fixed,points,0.0196
pol,equation,limit,0.0196
points,stability,liouville,0.0196
poincare,sections,floquet,0.0196
phenomena,that,may,0.0196
phase,space,damped,0.0196
phase,portraits,fixed,0.0196
pendulum,resonance,stability,0.0196
pendulum,phase,space,0.0196
nonlinear,pendulum,phase,0.0196
nonlinear,continuum,systems,0.0196
multiaxial,stress,strain,0.0196
moment,curvature,relationship,0.0196
models,of,dynamical,0.0196
methods,for,analyzing,0.0196
mechanics,of,deformable,0.0196
may,be,described,0.0196
matrices,and,stability,0.0196
material,properties,problem,0.0196
material,in,geosciences,0.0196
lyaponov,exponents,fractal,0.0196
lorenz,equations,henon,0.0196
lorenz,attractor,stability,0.0196
loading,and,material,0.0196
liouville,s,theorem,0.0196
linear,elasticity,material,0.0196
linear,and,nonlinear,0.0196
limit,cycles,forced,0.0196
interest,to,undergraduates,0.0196
initial,conditions,stretching,0.0196
indeterminate,trusses,problem,0.0196
indeterminate,beams,problem,0.0196
illustrations,from,experiments,0.0196
forced,pendulum,resonance,0.0196
force,stress,equilibrium,0.0196
force,deformation,relationships,0.0196
folding,rossler,attractor,0.0196
flows,to,maps,0.0196
fixed,points,stability,0.0196
finishing,up,static,0.0196
failure,of,materials,0.0196
exponents,fractal,dimension,0.0196
dynamics,and,chaos,0.0196
dimensionality,minimum,dimension,0.0196
dimension,of,deterministic,0.0196
deterministic,aperiodic,systems,0.0196
determinate,and,indeterminate,0.0196
derivation,of,lorenz,0.0196
cycles,forced,pendulum,0.0196
curvature,relationship,problem,0.0196
contraction,of,areas,0.0196
content,is,structured,0.0196
conservation,of,areas,0.0196
chaos,period,doubling,0.0196
chaos,in,dissipative,0.0196
attractors,lyaponov,exponents,0.0196
aperiodic,systems,sensitivity,0.0196
aperiodic,systems,poincare,0.0196
analysis,of,strange,0.0196
intro,and,organization,0.0195
amps,as,feedback,0.0195
actuators,and,transformers,0.0195
build,it,modules,0.0192
third,party,numerical,0.0187
programming,and,arduino,0.0187
index,matlab,arrays,0.0187
voice,coil,drivers,0.0184
via,laplace,transform,0.0184
transfer,line,snubbing,0.0184
transfer,line,dynamics,0.0184
transducers,and,transformers,0.0184
techniques,for,mechanical,0.0184
system,response,via,0.0184
system,pressure,surge,0.0184
system,modeling,techniques,0.0184
step,response,metrics,0.0184
state,space,models,0.0184
spring,damper,system,0.0184
pressure,in,nuclear,0.0184
pipe,clearing,fluid,0.0184
nuclear,containment,vessel,0.0184
modeling,voice,coil,0.0184
lorentz,type,motors,0.0184
listed,above,plus,0.0184
irrigation,system,pressure,0.0184
irradiation,sample,transfer,0.0184
illustrates,the,number,0.0184
heating,of,silicon,0.0184
heat,exchanger,tube,0.0184
exchanger,tube,vibrations,0.0184
damper,system,driven,0.0184
courtesy,of,ocw,0.0184
complete,laboratory,manual,0.0184
clearing,fluid,transients,0.0184
amps,and,circuits,0.0184
amplifiers,as,feedback,0.0184
affected,by,feedback,0.0184
measuring,dna,melting,0.0183
linear,momentum,principle,0.0183
stability,and,feedback,0.0180
specifications,of,transient,0.0180
rotational,mechanical,system,0.0180
provides,basic,design,0.0180
project,and,demo,0.0180
mechanical,system,problem,0.0180
matlab,and,flywheel,0.0180
includes,laboratory,experiments,0.0180
flywheel,steady,state,0.0180
electrical,elements,r,0.0180
effect,of,gain,0.0180
demo,to,instructors,0.0180
control,flywheel,modeling,0.0180
control,design,project,0.0180
test,i,cad,0.0179
project,presentation,contest,0.0179
hands,on,project,0.0179
components,and,systems,0.0179
clock,and,toaster,0.0179
check,engine,transmission,0.0179
car,wash,project,0.0179
cad,portion,project,0.0179
briggs,and,stratton,0.0179
undergraduate,and,graduate,0.0178
conversion,and,storage,0.0178
chemical,kinetics,part,0.0178
mass,and,momentum,0.0177
particles,and,rigid,0.0174
golay,nuclear,energy,0.0174
simulation,and,design,0.0171
design,for,uncertainty,0.0171
irreversible,processes,problem,0.0170
ocean,engineering,became,0.0169
department,of,ocean,0.0169
wind,and,heat,0.0169
trip,to,whoi,0.0169
testing,complete,rov,0.0169
speed,of,sound,0.0169
rov,and,visit,0.0169
ocean,seawater,properties,0.0169
nino,and,la,0.0169
mixing,and,stability,0.0169
mass,momentum,energy,0.0169
lagrangian,vs,eulerian,0.0169
integration,with,rov,0.0169
force,and,ekman,0.0169
deep,ocean,circulation,0.0169
complete,rov,system,0.0169
building,and,motors,0.0169
accuracy,of,measurements,0.0169
torque,control,problem,0.0168
strategy,for,de,0.0168
stage,d,testing,0.0168
software,and,sensor,0.0168
sensors,NUM,problem,0.0168
sensor,based,controls,0.0168
robotics,and,virtual,0.0168
refine,de,mining,0.0168
position,force,control,0.0168
non,holonomic,systems,0.0168
navigation,NUM,problem,0.0168
motion,NUM,problem,0.0168
implement,basic,sensor,0.0168
hybrid,position,force,0.0168
holonomic,systems,problem,0.0168
energy,method,problem,0.0168
end,effecter,design,0.0168
embedded,robot,controller,0.0168
effecter,design,problem,0.0168
dynamics,NUM,problem,0.0168
de,mining,task,0.0168
de,mining,operations,0.0168
control,components,problem,0.0168
computed,torque,control,0.0168
actuators,and,drives,0.0168
may,not,render,0.0159
courtesy,of,dava,0.0159
thevenin,and,norton,0.0159
stability,of,closed,0.0159
pole,zero,plots,0.0159
matlab,and,maple,0.0159
lti,system,properties,0.0159
laplace,transform,definition,0.0159
kirchoff,s,laws,0.0159
impedance,of,mechanical,0.0159
impedance,of,electrical,0.0159
higher,order,systems,0.0159
generalized,system,modeling,0.0159
electrical,components,problem,0.0159
effects,of,poles,0.0159
dimensional,mechanical,components,0.0159
components,as,thevenin,0.0159
block,diagram,algebra,0.0159
symposium,and,dinner,0.0158
saving,cardiovascular,technology,0.0158
myocardial,cells,problem,0.0158
modeling,the,intact,0.0158
life,saving,cardiovascular,0.0158
graduate,student,symposium,0.0158
electrophysiology,of,myocardial,0.0158
electrocardiography,and,arrhythmias,0.0158
discussion,of,results,0.0158
basis,of,electrocardiography,0.0158
high,temperature,deformation,0.0156
high,cycle,fatigue,0.0156
defect,free,fatigue,0.0156
buckling,and,vibration,0.0156
ways,to,analyze,0.0155
toyota,production,system,0.0155
systems,ii,mid,0.0155
scheduling,topics,include,0.0155
planning,and,scheduling,0.0155
periodic,review,inventory,0.0155
model,and,forecasting,0.0155
material,requirements,planning,0.0155
linear,and,dynamic,0.0155
inventory,and,queuing,0.0155
include,flow,planning,0.0155
flow,and,storage,0.0155
durations,of,events,0.0155
discrete,random,variable,0.0155
continuous,random,variable,0.0155
buffer,and,batch,0.0155
batch,size,tactics,0.0155
analyze,manufacturing,systems,0.0155
analysis,of,variance,0.0155
add,a,problem,0.0155
understand,the,propagation,0.0155
understand,the,linkage,0.0155
understand,the,implications,0.0155
tri,diagonal,systems,0.0155
tasks,of,computational,0.0155
stable,solution,algorithms,0.0155
stable,recursion,algorithms,0.0155
stable,and,accurate,0.0155
stability,and,convergence,0.0155
solving,linear,systems,0.0155
runge,kutta,methods,0.0155
representation,and,digital,0.0155
representation,and,arithmetic,0.0155
principles,of,digital,0.0155
perform,numerical,stability,0.0155
perform,error,analysis,0.0155
numerically,stable,recursion,0.0155
numerical,stability,analysis,0.0155
newton,ralphson,iteration,0.0155
linkage,between,accuracy,0.0155
least,square,approximation,0.0155
interpolation,for,numerical,0.0155
initial,value,problems,0.0155
including,number,representation,0.0155
implications,of,digital,0.0155
finite,difference,methods,0.0155
euler,and,runge,0.0155
efficient,and,stable,0.0155
digital,number,representation,0.0155
develop,stable,algorithms,0.0155
develop,and,implement,0.0155
cramer,s,rule,0.0155
convergence,of,iterative,0.0155
complex,numerical,algorithms,0.0155
arithmetic,for,computational,0.0155
analysis,for,arithmetic,0.0155
algorithms,for,solving,0.0155
algorithms,for,ordinary,0.0155
algorithms,for,finding,0.0155
algorithms,for,evaluating,0.0155
toy,product,design,0.0154
toy,design,project,0.0154
themed,toy,design,0.0154
sponsor,and,experienced,0.0154
pull,toy,completion,0.0154
public,service,center,0.0154
prototype,new,toys,0.0154
product,development,process,0.0154
product,design,process,0.0154
playsentations,to,toy,0.0154
play,and,entertainment,0.0154
narrative,and,games,0.0154
members,to,design,0.0154
industrial,design,drawing,0.0154
individual,sketch,model,0.0154
focus,on,designing,0.0154
elementary,school,children,0.0154
determining,customer,needs,0.0154
designing,for,play,0.0154
design,course,offered,0.0154
design,and,visual,0.0154
design,and,prototype,0.0154
completion,or,planning,0.0154
center,learning,design,0.0154
brainstorming,and,innovation,0.0154
waves,and,particles,0.0153
treatments,of,photons,0.0153
transport,and,thermoelectric,0.0153
transport,and,conversion,0.0153
transfer,by,waves,0.0153
states,and,statistical,0.0153
simulation,final,project,0.0153
scattering,and,heat,0.0153
rule,and,relaxation,0.0153
relaxation,time,approximation,0.0153
processes,from,nanoscale,0.0153
phonon,energy,levels,0.0153
phenomena,and,landauer,0.0153
nanotechnology,and,nanoscale,0.0153
nanoscale,transport,phenomena,0.0153
nano,and,microtechnology,0.0153
motion,and,forces,0.0153
molecules,as,energy,0.0153
molecular,dynamics,simulation,0.0153
macroscale,topics,include,0.0153
liouville,and,boltzmann,0.0153
laws,at,nanoscale,0.0153
intro,to,nanotechnology,0.0153
include,the,energy,0.0153
heat,transport,processes,0.0153
heat,generation,processes,0.0153
heat,and,plancks,0.0153
foundation,for,molecular,0.0153
forms,of,waves,0.0153
forces,in,liquids,0.0153
films,and,multilayers,0.0153
fermi,golden,rule,0.0153
energy,and,heat,0.0153
em,wave,propagation,0.0153
electronic,energy,levels,0.0153
electrical,double,layer,0.0153
effects,in,phase,0.0153
diode,and,photovoltaic,0.0153
dimensional,lattice,chain,0.0153
deviation,from,classical,0.0153
derivation,of,classical,0.0153
density,of,states,0.0153
crystal,and,crystal,0.0153
coupled,energy,transport,0.0153
continuously,to,macroscale,0.0153
bonding,and,electronic,0.0153
applications,in,nano,0.0153
bodies,in,planar,0.0151
electrochemical,energy,conversions,0.0147
vehicles,and,fuel,0.0147
testing,b,series,0.0147
small,underwater,vehicles,0.0147
resistance,and,propulsion,0.0147
repairable,systems,supplement,0.0147
reliability,and,availability,0.0147
relationships,for,gases,0.0147
propulsion,plant,design,0.0147
propulsion,of,small,0.0147
propeller,testing,b,0.0147
propeller,engine,matching,0.0147
project,requires,analysis,0.0147
prime,mover,thermodynamic,0.0147
pressure,with,reheat,0.0147
pressure,and,temperature,0.0147
practical,rankine,cycle,0.0147
power,and,propulsion,0.0147
open,brayton,cycle,0.0147
naval,ship,power,0.0147
mover,thermodynamic,cycles,0.0147
motors,and,generators,0.0147
investigates,thermodynamic,analyses,0.0147
integrated,electric,drive,0.0147
helical,gear,geometry,0.0147
graduate,students,complete,0.0147
gears,and,integrated,0.0147
evaluation,of,commercial,0.0147
electric,drive,battery,0.0147
economic,constraints,graduate,0.0147
dual,cycle,diesel,0.0147
drive,battery,operated,0.0147
diesel,or,catch,0.0147
design,using,kt,0.0147
design,for,given,0.0147
cycle,with,regeneration,0.0147
commercial,and,naval,0.0147
brayton,cycle,summary,0.0147
brayton,cycle,irreversible,0.0147
battery,operated,vehicles,0.0147
basic,dual,cycle,0.0147
analysis,of,propulsors,0.0147
analysis,of,alternatives,0.0147
analyses,of,rankine,0.0147
alternatives,in,propulsion,0.0147
air,independent,propulsion,0.0147
creep,and,stress,0.0147
winning,business,plan,0.0142
total,quality,management,0.0142
stages,of,growth,0.0142
roles,of,business,0.0142
property,and,licensing,0.0142
policy,and,practice,0.0142
planning,of,r,0.0142
marketing,derby,management,0.0142
designing,building,yachts,0.0142
commoditization,vs,differentiation,0.0142
choice,case,question,0.0142
business,planning,architecture,0.0142
addresses,business,planning,0.0142
silicon,based,solar,0.0141
micromorph,tandem,cells,0.0141
cross,cutting,themes,0.0141
commercial,and,emerging,0.0141
choices,and,manufacturing,0.0141
ideas,into,robust,0.0140
viscous,fluid,flows,0.0138
undergoing,constant,acceleration,0.0138
turbulent,pipe,flows,0.0138
tension,and,capillarity,0.0138
systems,and,viscous,0.0138
systems,and,control,0.0138
surface,tension,problem,0.0138
solving,skills,essential,0.0138
problem,solving,skills,0.0138
practice,of,fluid,0.0138
opportunity,to,demonstrate,0.0138
operator,notes,problem,0.0138
methods,of,fluid,0.0138
mechanics,these,outcomes,0.0138
mechanics,in,practical,0.0138
mechanical,engineering,program,0.0138
lift,and,drag,0.0138
good,engineering,practice,0.0138
goals,demand,greater,0.0138
formulate,the,models,0.0138
fluids,undergoing,constant,0.0138
flows,and,losses,0.0138
flow,through,pipes,0.0138
familiarity,and,ability,0.0138
euler,equations,vector,0.0138
essential,to,good,0.0138
drag,on,objects,0.0138
develop,the,problem,0.0138
design,fluid,systems,0.0138
demonstrate,a,familiarity,0.0138
demand,greater,breadth,0.0138
control,volume,analysis,0.0138
conservation,for,moving,0.0138
conservation,and,momentum,0.0138
career,goals,demand,0.0138
breadth,and,flexibility,0.0138
academic,and,career,0.0138
steady,state,diffusion,0.0133
form,of,maxwell,0.0133
parallel,axis,theorem,0.0128
phase,NUM,design,0.0128
opportunity,to,refine,0.0128
give,students,experience,0.0128
carving,half,models,0.0128
boat,design,technology,0.0128
instructor,scott,manalis,0.0122
dna,melting,experiment,0.0122
transfer,and,incompressible,0.0122
structures,and,fluids,0.0122
state,and,transient,0.0122
solids,and,structures,0.0122
solids,and,fluids,0.0122
shall,consider,solids,0.0122
program,we,shall,0.0122
principle,of,virtual,0.0122
ocean,and,aeronautical,0.0122
modeling,of,problems,0.0122
methods,in,adina,0.0122
methods,explained,physically,0.0122
keep,the,theoretical,0.0122
incompressible,fluid,flow,0.0122
heat,transfer,analysis,0.0122
generalized,eigenvalue,problem,0.0122
general,computer,program,0.0122
fluids,and,keep,0.0122
fluid,structure,interactions,0.0122
finite,element,formulation,0.0122
finite,element,computer,0.0122
explanation,of,gauss,0.0122
discussions,of,finite,0.0122
demonstration,on,finite,0.0122
check,the,results,0.0122
assess,the,accuracy,0.0122
analysis,of,problems,0.0122
analysis,of,heat,0.0122
motion,of,systems,0.0122
coordinates,and,forces,0.0122
tuesdays,and,thursdays,0.0121
mix,of,fabrication,0.0121
kit,and,contest,0.0121
involute,curve,demonstration,0.0121
introduce,new,material,0.0121
integration,of,design,0.0121
follow,a,pattern,0.0121
festivity,at,johnson,0.0121
fabrication,of,improved,0.0121
describing,the,deliverables,0.0121
demonstration,of,integrated,0.0121
demonstration,of,improved,0.0121
deliverables,and,expectations,0.0121
definition,and,design,0.0121
creating,cad,drawings,0.0121
contest,overview,explore,0.0121
components,NUM,design,0.0121
cleanup,and,recycling,0.0121
chains,cams,design,0.0121
car,and,preliminary,0.0121
cams,design,iteration,0.0121
call,or,enforce,0.0121
belts,chains,cams,0.0121
actuators,dc,motors,0.0121
global,climate,change,0.0116
current,energy,policy,0.0116
want,to,give,0.0113
visiting,company,representatives,0.0113
url,to,interviewers,0.0113
team,based,hands,0.0113
strategies,for,solving,0.0113
solving,the,problem,0.0113
ready,for,testing,0.0113
product,design,experience,0.0113
process,of,design,0.0113
principles,to,turn,0.0113
principles,and,appropriate,0.0113
post,prep,results,0.0113
peers,and,visiting,0.0113
page,and,make,0.0113
must,also,update,0.0113
modules,and,develop,0.0113
modify,the,design,0.0113
models,of,best,0.0113
model,created,post,0.0113
manufacturing,and,assembly,0.0113
make,a,professional,0.0113
maintain,a,high,0.0113
implementing,the,strategy,0.0113
identify,a,problem,0.0113
hands,on,product,0.0113
gurus,post,prep,0.0113
gurus,post,decision,0.0113
give,the,url,0.0113
generate,create,strategies,0.0113
emails,the,url,0.0113
draft,presentation,complete,0.0113
document,the,results,0.0113
development,plan,post,0.0113
detailed,development,plan,0.0113
degree,of,professional,0.0113
created,post,pictures,0.0113
components,and,manufacturing,0.0113
complete,the,detailed,0.0113
complete,detailed,development,0.0113
combine,creative,thinking,0.0113
basic,mechanical,components,0.0113
analysis,and,experiments,0.0113
yielded,a,design,0.0113
strategy,for,addressing,0.0113
solid,models,showing,0.0113
show,the,results,0.0113
several,different,color,0.0113
process,to,identify,0.0113
full,scale,layout,0.0113
create,part,drawings,0.0113
continue,to,manufacture,0.0113
addressing,a,large,0.0113
principles,of,linear,0.0112
thermodynamics,and,statistical,0.0112
freely,jointed,chain,0.0111
molecular,to,cellular,0.0110
cellular,to,tissue,0.0110
reflection,and,refraction,0.0107
laws,of,reflection,0.0107
entrance,and,exit,0.0107
basic,optical,systems,0.0107
wherein,students,model,0.0101
upon,extensive,application,0.0101
thermal,and,electrostatic,0.0101
system,models,m,0.0101
substantial,design,project,0.0101
stability,shaft,k,0.0101
spindle,errors,spindle,0.0101
sliding,element,bearings,0.0101
slide,errors,cross,0.0101
rolling,and,sliding,0.0101
reporting,tangible,laboratories,0.0101
report,cutting,smoke,0.0101
report,1st,draft,0.0101
real,world,application,0.0101
project,student,assessment,0.0101
project,report,outline,0.0101
project,report,cutting,0.0101
principles,these,principles,0.0101
modeling,and,analysis,0.0101
model,and,fabricate,0.0101
mechanical,engineering,principles,0.0101
materials,via,problems,0.0101
master,the,materials,0.0101
lathe,cutting,demo,0.0101
lathe,assessment,gantt,0.0101
joints,performance,estimates,0.0101
integration,lathe,assessment,0.0101
integration,and,best,0.0101
htms,and,matrices,0.0101
homogeneous,transfer,matrices,0.0101
gantt,schedule,m,0.0101
freedom,and,kinematics,0.0101
flexure,bearing,elastomechanics,0.0101
fatigue,shaft,exercise,0.0101
fabricate,and,characterize,0.0101
fabricate,a,mechanical,0.0101
etc,these,principles,0.0101
electrostatic,microactuators,rail,0.0101
elastomechanics,dynamics,m,0.0101
e,g,cost,0.0101
dynamics,and,damping,0.0101
drives,1st,system,0.0101
design,project,wherein,0.0101
demonstrations,and,assessment,0.0101
damping,cross,slide,0.0101
cutting,smoke,test,0.0101
clutches,and,brakes,0.0101
characterize,a,mechanical,0.0101
carriage,errors,lathe,0.0101
cams,and,mechanisms,0.0101
bolted,joints,performance,0.0101
belt,and,friction,0.0101
bearing,elastomechanics,dynamics,0.0101
assessment,lathe,cutting,0.0101
assessment,gantt,schedule,0.0101
application,students,master,0.0101
application,of,physics,0.0101
alignment,interfaces,bearing,0.0101
ability,to,synthesize,0.0101
wish,to,develop,0.0099
upper,level,biological,0.0099
understanding,the,physical,0.0099
tracks,for,mechanical,0.0099
titration,of,macromolecules,0.0099
thermodynamic,driving,forces,0.0099
systems,and,deals,0.0099
statistical,mechanics,necessary,0.0099
solvation,example,problems,0.0099
solid,liquid,gas,0.0099
serves,as,part,0.0099
relations,between,heat,0.0099
purpose,of,stat,0.0099
protein,macromolecule,adsorption,0.0099
properties,using,statistical,0.0099
properties,to,microscopic,0.0099
properties,of,biological,0.0099
properties,ii,problem,0.0099
properties,from,partition,0.0099
problems,include,protein,0.0099
probing,molecular,level,0.0099
prediction,of,thermodynamic,0.0099
polymer,chain,problem,0.0099
need,for,physical,0.0099
necessary,for,upper,0.0099
molecular,level,systems,0.0099
molecular,level,allows,0.0099
molecular,are,becoming,0.0099
model,for,diffusion,0.0099
microscopic,molecular,properties,0.0099
mechanics,it,includes,0.0099
mechanical,engineering,majors,0.0099
macroscopic,thermodynamic,properties,0.0099
listed,for,mechanical,0.0099
liquid,gas,equilibrium,0.0099
le,chateliers,principle,0.0099
law,of,increased,0.0099
law,and,entropy,0.0099
intensive,extensive,properties,0.0099
include,protein,structure,0.0099
helmholtz,free,energy,0.0099
gibbs,free,energy,0.0099
equilibrium,temperature,problem,0.0099
energy,and,entropy,0.0099
develop,a,molecular,0.0099
denaturation,of,proteins,0.0099
definitions,of,thermodynamic,0.0099
definition,of,equilibrium,0.0099
cycle,and,inequality,0.0099
connection,of,macroscopic,0.0099
chemistry,of,biological,0.0099
chemical,and,electrochemical,0.0099
chain,ii,problem,0.0099
boltzmann,distribution,law,0.0099
biological,engineering,major,0.0099
bioengineering,and,nanotechnology,0.0099
becoming,prevalent,understanding,0.0099
adsorption,at,interfaces,0.0099
models,of,mechanical,0.0099
well,as,related,0.0098
treatment,of,classical,0.0098
transient,response,compensation,0.0098
transient,and,steady,0.0098
titration,of,polyelectrolytes,0.0098
thermodynamics,of,dna,0.0098
thermo,and,boltzmann,0.0098
taught,in,spring,0.0098
syllabus,was,taught,0.0098
syllabus,to,begin,0.0098
syllabus,is,slightly,0.0098
structure,and,interactions,0.0098
statistical,thermodynamics,approach,0.0098
state,space,representation,0.0098
state,error,analysis,0.0098
stability,and,steady,0.0098
solving,the,state,0.0098
solve,practical,problems,0.0098
significantly,different,emphases,0.0098
sequences,to,oligonucleotides,0.0098
separation,of,complex,0.0098
self,assembly,problem,0.0098
rotational,mechanical,transfer,0.0098
required,to,solve,0.0098
providing,a,foundation,0.0098
provide,a,fortuitous,0.0098
proportional,integral,control,0.0098
proportional,derivative,control,0.0098
problems,in,nanotechnology,0.0098
problems,in,biochemical,0.0098
pressure,and,phase,0.0098
polymer,NUM,rubber,0.0098
polymer,NUM,freely,0.0098
polymer,NUM,chain,0.0098
overlap,with,parts,0.0098
oligonucleotides,on,microarray,0.0098
occupation,of,states,0.0098
nonlinearities,and,linearization,0.0098
nonideal,solutions,problem,0.0098
nanotechnology,and,polymer,0.0098
monte,carlo,model,0.0098
mixtures,of,biomolecules,0.0098
minimum,time,problem,0.0098
mechanical,system,transfer,0.0098
lead,to,assembly,0.0098
lead,lag,compensators,0.0098
joule,and,joule,0.0098
jointed,chain,problem,0.0098
include,the,appropriate,0.0098
grain,monte,carlo,0.0098
forces,for,self,0.0098
factors,to,cells,0.0098
evolved,to,become,0.0098
equilibrium,constant,problem,0.0098
electrolytes,at,interfaces,0.0098
electrolyte,solutions,problem,0.0098
electro,mechanical,system,0.0098
electrical,and,electro,0.0098
dna,hybridization,problem,0.0098
diverging,into,significantly,0.0098
developed,a,common,0.0098
design,project,problem,0.0098
design,of,transient,0.0098
dc,motor,transfer,0.0098
controllability,and,observability,0.0098
control,of,position,0.0098
control,notes,problem,0.0098
concludes,with,chemical,0.0098
coarse,grain,monte,0.0098
classical,thermodynamics,required,0.0098
classical,thermodynamics,provide,0.0098
characterization,of,dc,0.0098
boltzmann,distribution,problem,0.0098
boltzmann,and,clausius,0.0098
biomolecules,for,atomic,0.0098
biological,engineering,thus,0.0098
binding,of,growth,0.0098
begin,with,classical,0.0098
become,the,foundational,0.0098
atomic,analysis,many,0.0098
assembly,of,cell,0.0098
annealing,of,cdna,0.0098
analysis,of,feedback,0.0098
aim,of,providing,0.0098
various,manufacturing,disciplines,0.0094
quality,and,flexibility,0.0094
process,planning,cad,0.0094
planning,cad,cam,0.0094
micro,nano,manufacturing,0.0094
include,process,physics,0.0094
flexibility,topics,include,0.0094
disciplines,for,determining,0.0094
disciplines,and,practices,0.0094
determining,manufacturing,rate,0.0094
design,and,operation,0.0094
design,and,automation,0.0094
cutting,ii,machine,0.0094
validated,and,informed,0.0094
understanding,of,elementary,0.0094
typically,rather,short,0.0094
test,codes,thoroughly,0.0094
subsequent,computational,treatment,0.0094
sparse,matrix,operations,0.0094
scripts,and,validated,0.0094
relevant,to,mechanical,0.0094
recommendation,some,indication,0.0094
programs,with,confidence,0.0094
problems,by,computational,0.0094
prediction,or,recommendation,0.0094
party,numerical,routines,0.0094
party,numerical,programs,0.0094
numerical,methods,relevant,0.0094
monte,carlo,methods,0.0094
mechanical,engineering,problems,0.0094
matrix,vector,operations,0.0094
matrices,and,least,0.0094
matlab,sparse,matrix,0.0094
matlab,sparse,backslash,0.0094
matlab,or,third,0.0094
matlab,matrix,vector,0.0094
matlab,architecture,environment,0.0094
mathematical,numerical,routines,0.0094
mathematical,form,appropriate,0.0094
implicationsdue,to,numerical,0.0094
however,the,latter,0.0094
hoc,matlab,scripts,0.0094
double,index,matlab,0.0094
create,meaningful,test,0.0094
confirm,correct,implementation,0.0094
compare,to,alternatives,0.0094
commitment,to,always,0.0094
combination,of,ad,0.0094
choose,an,appropriate,0.0094
canon,of,numerical,0.0094
calls,to,matlab,0.0094
basic,matlab,architecture,0.0094
attitudes,and,professional,0.0094
associated,engineering,implicationsdue,0.0094
appropriate,numerical,approach,0.0094
appropriate,for,subsequent,0.0094
appropriate,computational,metrics,0.0094
approaches,and,numerical,0.0094
approach,or,method,0.0094
anonymous,functions,matlab,0.0094
always,test,codes,0.0094
algebra,NUM,coda,0.0094
ad,hoc,matlab,0.0094
ability,to,solve,0.0094
ability,to,formulate,0.0094
ability,to,create,0.0094
visual,and,verbal,0.0089
updates,recitation,implementation,0.0089
turbines,and,jet,0.0089
turbine,lab,cryo,0.0089
transmissions,mcs,ps,0.0089
transmissions,design,intent,0.0089
transfer,energy,compliant,0.0089
tractor,transmissions,mcs,0.0089
tractor,transmissions,design,0.0089
things,are,made,0.0089
test,i,analytic,0.0089
talk,tour,automotive,0.0089
systems,large,system,0.0089
systems,gears,trains,0.0089
systems,analysis,drill,0.0089
store,and,transfer,0.0089
solving,nebulous,problems,0.0089
software,interface,manufacturing,0.0089
service,learning,service,0.0089
screws,tape,player,0.0089
resume,and,job,0.0089
research,automotive,manufacturing,0.0089
racing,and,fsae,0.0089
provide,practical,hands,0.0089
project,recitations,project,0.0089
project,ii,design,0.0089
project,i,cad,0.0089
practical,and,theoretical,0.0089
power,plants,catapult,0.0089
player,and,lego,0.0089
plants,catapult,design,0.0089
multiplicity,of,machines,0.0089
motor,and,disk,0.0089
mechanical,engineers,perform,0.0089
mechanical,engineering,skills,0.0089
mechanical,engineering,curriculum,0.0089
mechanical,engineering,cad,0.0089
manufacturing,scavenger,hunt,0.0089
manufacturing,research,automotive,0.0089
manufacturing,processes,cad,0.0089
manufacturing,engineering,cad,0.0089
manufacturing,camera,discussion,0.0089
machines,work,intro,0.0089
machines,that,store,0.0089
machines,i,x,0.0089
machines,are,manufactured,0.0089
machines,are,designed,0.0089
like,a,mechanical,0.0089
lego,gear,box,0.0089
large,systems,large,0.0089
large,system,design,0.0089
kick,off,project,0.0089
intro,to,manufacturing,0.0089
interface,manufacturing,scavenger,0.0089
intent,sewing,machine,0.0089
intent,pump,assembly,0.0089
intent,basics,design,0.0089
help,sessions,test,0.0089
gear,box,tractor,0.0089
finish,cad,tutorial,0.0089
extrusion,manufacturing,processes,0.0089
enter,the,matrix,0.0089
energy,labs,alarm,0.0089
electro,mechanical,machines,0.0089
drive,sewing,machine,0.0089
disk,drive,sewing,0.0089
discussion,project,planning,0.0089
designed,and,manufactured,0.0089
design,manufacturing,research,0.0089
design,intent,sewing,0.0089
design,intent,basics,0.0089
design,intent,advanced,0.0089
design,engine,transmission,0.0089
design,contest,alarm,0.0089
design,consulting,design,0.0089
design,consulting,briggs,0.0089
design,and,large,0.0089
department,of,mechanical,0.0089
dcpm,motors,motor,0.0089
dampers,fcs,ps,0.0089
cryo,lab,turbines,0.0089
contest,alarm,clock,0.0089
consulting,design,consulting,0.0089
consultations,final,preparations,0.0089
common,to,mechanical,0.0089
cogeneration,gas,turbine,0.0089
catapult,design,contest,0.0089
box,tractor,transmissions,0.0089
bio,engineering,bio,0.0089
basics,design,intent,0.0089
basic,physics,briggs,0.0089
basic,analysis,modeling,0.0089
automotive,manufacturing,research,0.0089
automotive,manufacturing,manufacturing,0.0089
automotive,design,manufacturing,0.0089
assembly,tractor,transmissions,0.0089
advanced,concepts,design,0.0089
within,the,soe,0.0089
within,a,generic,0.0089
view,of,energy,0.0089
versions,that,share,0.0089
utilizing,fossil,fuels,0.0089
utilization,we,intend,0.0089
utilization,of,knowledge,0.0089
utilization,and,storage,0.0089
thermodynamics,and,kinetics,0.0089
technology,and,economy,0.0089
systems,utilizing,fossil,0.0089
systems,for,hybrid,0.0089
systems,and,determine,0.0089
system,s,analysis,0.0089
supercritical,and,combined,0.0089
stress,the,unifying,0.0089
storage,i,thermodynamics,0.0089
storage,by,introducing,0.0089
several,departments,within,0.0089
several,alternative,systems,0.0089
serves,both,undergraduate,0.0089
production,of,energy,0.0089
processes,material,includes,0.0089
process,and,system,0.0089
principles,which,approach,0.0089
principles,of,energy,0.0089
power,plants,project,0.0089
power,conversion,efficiency,0.0089
plants,to,microscale,0.0089
phenomena,in,energy,0.0089
participate,as,instructors,0.0089
paradigm,in,energy,0.0089
nuclear,power,plants,0.0089
modalities,the,interdisciplinary,0.0089
material,includes,chemical,0.0089
large,scale,power,0.0089
knowledge,to,maximize,0.0089
kinetics,in,homogeneous,0.0089
involving,renewable,sources,0.0089
introducing,the,common,0.0089
intended,to,educate,0.0089
intend,to,stress,0.0089
integration,of,heterogeneous,0.0089
indirect,energy,conversion,0.0089
indirect,and,direct,0.0089
including,electrochemical,cells,0.0089
includes,chemical,thermodynamics,0.0089
impact,performance,applications,0.0089
hydrogen,for,vehicles,0.0089
homogeneous,and,heterogeneous,0.0089
high,power,conversion,0.0089
heterogeneous,energy,systems,0.0089
fuel,cell,project,0.0089
framework,that,allows,0.0089
forms,of,traditional,0.0089
form,very,large,0.0089
flow,and,transport,0.0089
flexibility,and,extend,0.0089
faculty,from,several,0.0089
extend,the,performance,0.0089
expertise,and,backgrounds,0.0089
experimental,and,computational,0.0089
energy,conversion,involving,0.0089
energy,and,propulsion,0.0089
encompassing,also,future,0.0089
electromagnetic,and,kinetic,0.0089
efficiency,for,advanced,0.0089
educate,future,leaders,0.0089
direct,energy,conversion,0.0089
direct,conversion,systems,0.0089
direct,and,indirect,0.0089
design,and,optimization,0.0089
demonstrate,the,approach,0.0089
cycles,for,nuclear,0.0089
cycles,examples,form,0.0089
critical,flow,processes,0.0089
conversion,involving,renewable,0.0089
conversion,in,thermochemical,0.0089
conversion,and,utilization,0.0089
constrained,by,disciplinary,0.0089
coal,and,nuclear,0.0089
chemistry,of,energy,0.0089
broad,energy,area,0.0089
boundaries,or,limited,0.0089
backgrounds,will,participate,0.0089
approach,is,compatible,0.0089
applications,to,systems,0.0089
analyze,several,alternative,0.0089
analysis,of,direct,0.0089
advanced,energy,conversion,0.0089
vessels,in,seas,0.0085
varieties,of,optimization,0.0085
transform,and,recognize,0.0085
test,the,system,0.0085
system,to,life,0.0085
system,for,operation,0.0085
synthesize,a,physical,0.0085
successes,and,failures,0.0085
signals,and,control,0.0085
short,term,statistics,0.0085
series,and,vice,0.0085
satisfy,given,operational,0.0085
recognize,common,transforms,0.0085
prototype,random,environment,0.0085
programming,assign,milestone,0.0085
procedure,to,satisfy,0.0085
probability,and,random,0.0085
presence,of,uncertainty,0.0085
physics,of,underwater,0.0085
perform,engineering,analysis,0.0085
perform,an,iterative,0.0085
monte,carlo,techniques,0.0085
modify,linear,system,0.0085
milestone,presentation,slides,0.0085
methods,for,design,0.0085
long,and,short,0.0085
linear,time,invariant,0.0085
large,and,extreme,0.0085
justify,critical,design,0.0085
iterative,design,procedure,0.0085
interpret,physical,data,0.0085
inform,and,justify,0.0085
infer,the,design,0.0085
impact,of,large,0.0085
identify,time,constant,0.0085
given,time,series,0.0085
given,random,environment,0.0085
given,operational,requirements,0.0085
gears,and,bearings,0.0085
dynamic,and,linear,0.0085
discrete,time,signals,0.0085
data,to,characterize,0.0085
critical,design,decisions,0.0085
convolution,of,signals,0.0085
connection,with,uncertainty,0.0085
compute,the,fourier,0.0085
compute,the,convolution,0.0085
calculate,the,spectrum,0.0085
calculate,its,statistics,0.0085
bring,the,system,0.0085
apply,the,principles,0.0085
apply,linear,systems,0.0085
analysis,to,inform,0.0085
van,der,waals,0.0084
tissue,or,organ,0.0084
range,of,length,0.0084
methods,of,continuum,0.0084
mechanics,to,biomechanical,0.0084
intended,for,undergraduate,0.0084
develops,and,applies,0.0084
applies,scaling,laws,0.0084
waterjet,machining,center,0.0083
abrasive,waterjet,machining,0.0083
system,to,initial,0.0080
rate,of,change,0.0080
question,and,answer,0.0080
woods,hole,oceanographic,0.0080
white,s,research,0.0080
water,proofing,fluid,0.0080
visualization,and,communication,0.0080
underwater,exploration,dr,0.0080
thrust,and,efficiency,0.0080
thinking,topics,include,0.0080
teams,to,focus,0.0080
teams,complete,space,0.0080
taste,so,great,0.0080
specialized,learning,modules,0.0080
space,robotics,laboratory,0.0080
space,grant,consortium,0.0080
space,earth,ocean,0.0080
space,and,earth,0.0080
solidworks,repository,development,0.0080
satisfy,the,pace,0.0080
robots,and,bomb,0.0080
required,to,complete,0.0080
rather,than,classic,0.0080
provides,an,exciting,0.0080
proofing,fluid,effects,0.0080
promoting,your,ideas,0.0080
project,based,active,0.0080
professional,engineers,certification,0.0080
pressure,and,water,0.0080
power,vs,thrust,0.0080
planning,for,eva,0.0080
pass,one,ci,0.0080
optional,boston,harbor,0.0080
n,t,taste,0.0080
modules,enable,teams,0.0080
modes,of,thinking,0.0080
massachusetts,space,grant,0.0080
laboratory,for,electromagnetic,0.0080
inspired,design,biomimetic,0.0080
immersion,and,investigation,0.0080
hydrostatic,pressure,effects,0.0080
hole,oceanographic,institution,0.0080
harbor,day,trip,0.0080
hands,on,design,0.0080
goals,of,fostering,0.0080
forces,hydrostatic,pressure,0.0080
focus,on,knowledge,0.0080
exploration,with,instrumentation,0.0080
exploration,dr,white,0.0080
exploration,based,hands,0.0080
exploration,adventure,part,0.0080
excitement,and,creativity,0.0080
eva,and,geology,0.0080
electronics,and,water,0.0080
electromagnetic,and,electronic,0.0080
electrical,engineering,computer,0.0080
effects,and,forces,0.0080
effects,and,archimedes,0.0080
earth,ocean,exploration,0.0080
dr,sheri,white,0.0080
design,massachusetts,space,0.0080
design,biomimetic,robotics,0.0080
complete,their,projects,0.0080
complete,space,earth,0.0080
communicating,engineering,design,0.0080
combination,of,project,0.0080
choosing,your,major,0.0080
choice,of,majors,0.0080
bio,inspired,design,0.0080
basic,design,analysis,0.0080
asme,ethics,code,0.0080
alexander,h,design,0.0080
aerospace,engineering,design,0.0080
aeronautics,and,astronautics,0.0080
active,and,experiential,0.0080
written,laboratory,reports,0.0078
variety,of,sources,0.0078
uniaxial,elastic,plastic,0.0078
tolerant,fatigue,design,0.0078
tip,stress,intensity,0.0078
temperature,deformation,mechanisms,0.0078
team,based,oral,0.0078
stress,intensity,factors,0.0078
stress,and,equilibrium,0.0078
strain,amplitude,fatigue,0.0078
states,of,elastic,0.0078
sources,a,handout,0.0078
small,lab,teams,0.0078
small,experimental,projects,0.0078
respective,lab,instructors,0.0078
regarding,written,laboratory,0.0078
read,the,handout,0.0078
quantifying,mechanical,performance,0.0078
puts,course,material,0.0078
project,vary,broadly,0.0078
project,mode,exploration,0.0078
principles,for,material,0.0078
practice,in,experimentally,0.0078
policies,regarding,written,0.0078
plus,a,multiple,0.0078
plasticity,and,creep,0.0078
plastic,beam,bending,0.0078
performance,of,structures,0.0078
next,scheduled,laboratory,0.0078
mode,of,focused,0.0078
mechanisms,of,elasticity,0.0078
materials,for,particular,0.0078
materials,and,structures,0.0078
low,cycle,fatigue,0.0078
list,of,possible,0.0078
linear,thermo,elasticity,0.0078
linear,elastic,fracture,0.0078
limits,to,elasticity,0.0078
laboratory,session,policies,0.0078
laboratory,experience,consists,0.0078
instructors,are,encouraged,0.0078
instructor,for,grading,0.0078
indices,of,merit,0.0078
independent,experimental,investigations,0.0078
ideal,shear,strength,0.0078
ideal,cleavage,strength,0.0078
handout,with,background,0.0078
given,laboratory,module,0.0078
fatigue,crack,propagation,0.0078
exploration,of,mechanical,0.0078
experimentally,quantifying,mechanical,0.0078
elasticity,of,composite,0.0078
elasticity,and,viscoelasticity,0.0078
elasticity,and,solid,0.0078
elastic,plastic,beam,0.0078
elastic,fracture,mechanics,0.0078
effects,in,high,0.0078
displacement,and,strain,0.0078
determining,material,properties,0.0078
design,and,maintenance,0.0078
defect,tolerant,fatigue,0.0078
critical,stress,intensity,0.0078
crack,tip,stress,0.0078
coupled,with,small,0.0078
conduct,independent,experimental,0.0078
conditions,and,boundary,0.0078
concentration,and,cracks,0.0078
completing,a,given,0.0078
comments,and,observations,0.0078
bring,a,calculator,0.0078
axial,yield,condition,0.0078
applications,of,limit,0.0078
applications,of,lefm,0.0078
amplitude,fatigue,life,0.0078
linear,multi,degree,0.0076
dynamics,and,vibrations,0.0076
displacements,and,virtual,0.0076
yachts,designing,building,0.0071
vs,differentiation,sul,0.0071
venture,capital,along,0.0071
vascular,insights,clarivein,0.0071
understanding,of,accounting,0.0071
towards,the,development,0.0071
technology,based,enterprise,0.0071
successful,business,growth,0.0071
statements,and,perform,0.0071
skills,and,team,0.0071
research,is,required,0.0071
required,while,founding,0.0071
report,project,progress,0.0071
raise,venture,capital,0.0071
r,d,strategic,0.0071
progress,report,project,0.0071
progress,report,distributed,0.0071
printer,case,hp,0.0071
principles,to,develop,0.0071
prelude,case,distributed,0.0071
practices,the,focus,0.0071
planning,for,successful,0.0071
planning,and,management,0.0071
plan,i,zipcar,0.0071
plan,derby,management,0.0071
perform,ratio,analyses,0.0071
part,NUM,distributed,0.0071
omniport,assignment,distributed,0.0071
obtain,an,understanding,0.0071
marketing,i,hubspot,0.0071
management,of,technology,0.0071
management,of,innovation,0.0071
lobster,case,prelude,0.0071
kind,of,research,0.0071
john,vascular,insights,0.0071
jack,the,roles,0.0071
ideas,about,sales,0.0071
hubspot,case,derby,0.0071
houston,case,omniport,0.0071
growth,derby,management,0.0071
glass,case,pilkington,0.0071
glass,assignment,distributed,0.0071
founding,a,company,0.0071
financials,iii,financials,0.0071
financials,ii,financials,0.0071
financials,i,financials,0.0071
financial,iii,project,0.0071
financial,ii,problem,0.0071
financial,i,problem,0.0071
exposure,to,management,0.0071
ethics,assignment,distributed,0.0071
entrepreneur,can,raise,0.0071
differentiation,sul,part,0.0071
development,of,individual,0.0071
development,of,business,0.0071
developed,and,written,0.0071
details,of,clarivein,0.0071
design,a,business,0.0071
construct,financial,statements,0.0071
communicate,concepts,effectively,0.0071
carry,out,risk,0.0071
business,plan,distributed,0.0071
business,plan,derby,0.0071
business,growth,derby,0.0071
building,yachts,distributed,0.0071
building,yachts,designing,0.0071
best,management,practices,0.0071
apply,concepts,towards,0.0071
analysis,i,ratio,0.0071
analysis,group,distributed,0.0071
analyses,for,developing,0.0071
along,with,ideas,0.0071
addresses,what,kind,0.0071
well,as,pre,0.0071
various,cross,cutting,0.0071
trip,to,solar,0.0071
trip,to,fraunhofer,0.0071
trillion,dollar,energy,0.0071
trans,electron,dev,0.0071
towards,widespread,substitution,0.0071
themes,in,pv,0.0071
technologies,we,examine,0.0071
technologies,are,currently,0.0071
technologies,and,various,0.0071
team,formation,organized,0.0071
suggestions,for,additional,0.0071
substitution,of,fossil,0.0071
sources,to,cap,0.0071
solar,panel,installation,0.0071
solar,cells,convert,0.0071
solar,cell,technologies,0.0071
solar,cell,performance,0.0071
solar,cell,contact,0.0071
solar,cell,characterization,0.0071
several,hundred,gigawatts,0.0071
scrutinize,what,limits,0.0071
risk,and,potential,0.0071
r,d,investment,0.0071
product,explain,deliverables,0.0071
pre,commercial,technologies,0.0071
practice,we,scrutinize,0.0071
potential,of,existing,0.0071
potential,and,drawbacks,0.0071
political,towards,widespread,0.0071
photovoltaic,technology,evolution,0.0071
performance,and,cost,0.0071
outside,of,normal,0.0071
necessity,to,develop,0.0071
must,be,generated,0.0071
measurement,and,theoretical,0.0071
major,hurdles,technological,0.0071
low,carbon,sources,0.0071
low,carbon,energy,0.0071
limits,solar,cell,0.0071
light,into,electricity,0.0071
life,cycle,analysis,0.0071
levels,deemed,lower,0.0071
large,economic,opportunity,0.0071
laboratory,sessions,explore,0.0071
knowledge,towards,developing,0.0071
k,solar,cell,0.0071
john,wiley,sons,0.0071
innovation,in,pv,0.0071
include,photovoltaic,technology,0.0071
ieee,trans,electron,0.0071
handbook,of,photovoltaic,0.0071
gigawatts,of,power,0.0071
generated,from,low,0.0071
feedback,and,suggestions,0.0071
familiar,with,commercial,0.0071
explain,deliverables,encourage,0.0071
existing,and,emerging,0.0071
examine,the,potential,0.0071
evaluate,the,risk,0.0071
equally,large,economic,0.0071
energy,sources,represents,0.0071
emerging,solar,cell,0.0071
emerging,photovoltaic,technologies,0.0071
drawbacks,of,currently,0.0071
dollar,energy,market,0.0071
device,fundamentals,reading,0.0071
develop,low,carbon,0.0071
deliverables,encourage,feedback,0.0071
deemed,lower,risk,0.0071
currently,manufactured,technologies,0.0071
current,scientific,consensus,0.0071
context,of,markets,0.0071
consensus,the,necessity,0.0071
concentrations,at,levels,0.0071
commercial,technologies,hands,0.0071
cells,convert,light,0.0071
cells,are,manufactured,0.0071
cells,are,evaluated,0.0071
cell,contact,resistance,0.0071
carbon,energy,sources,0.0071
cap,atmospheric,co2,0.0071
atmospheric,co2,concentrations,0.0071
apply,this,knowledge,0.0071
absorption,and,optical,0.0071
viscous,dominated,flows,0.0066
viscous,and,inertial,0.0066
understanding,cell,surface,0.0066
transport,NUM,electrical,0.0066
transport,NUM,diffusion,0.0066
table,below,provides,0.0066
solving,the,convection,0.0066
solving,NUM,poisson,0.0066
significance,of,debye,0.0066
separation,of,variables,0.0066
sense,fluid,flow,0.0066
rely,on,separation,0.0066
relaxation,in,aqueous,0.0066
receptor,ligand,models,0.0066
quasi,electrostatic,approximation,0.0066
problem,of,colloid,0.0066
pressure,driven,flow,0.0066
phenomena,in,cells,0.0066
monopoles,and,dipoles,0.0066
mobility,of,various,0.0066
mechanics,how,cells,0.0066
measuring,rate,constants,0.0066
manipulation,of,cells,0.0066
magnitude,of,b,0.0066
lorentz,force,law,0.0066
law,of,viscosity,0.0066
justification,of,eqs,0.0066
inter,debye,layer,0.0066
importance,of,convection,0.0066
forces,and,viscosity,0.0066
flows,with,viscous,0.0066
fick,and,newton,0.0066
external,viscous,flows,0.0066
electroneutrality,and,charge,0.0066
electric,and,magnetic,0.0066
dna,binding,proteins,0.0066
diffusion,limited,reactions,0.0066
diffusion,based,analysis,0.0066
derivation,of,debye,0.0066
der,waals,forces,0.0066
debye,layer,interaction,0.0066
curl,and,divergence,0.0066
coordinate,will,rely,0.0066
convection,and,diffusion,0.0066
complexity,of,fluid,0.0066
coefficient,of,viscosity,0.0066
characteristics,of,electroosmotic,0.0066
cellular,fluid,mechanics,0.0066
cells,sense,fluid,0.0066
cell,surface,binding,0.0066
c,m,factor,0.0066
basis,for,viscosity,0.0066
applications,of,electroosmotic,0.0066
analysis,of,dna,0.0066
analogy,to,understanding,0.0066
wheelchair,and,stove,0.0064
suprio,das,reaction,0.0064
statement,design,specs,0.0064
speaker,ben,linder,0.0064
shawn,reaction,piece,0.0064
refined,problem,definition,0.0064
problem,statement,design,0.0064
problem,definition,specs,0.0064
least,one,person,0.0064
kiwia,reaction,piece,0.0064
generation,concept,evaluation,0.0064
embodied,energy,evaluation,0.0064
design,for,usability,0.0064
design,for,production,0.0064
das,reaction,piece,0.0064
bernard,kiwia,reaction,0.0064
yet,another,opportunity,0.0064
wood,influences,shape,0.0064
well,as,allowing,0.0064
weaknesses,of,different,0.0064
understanding,how,early,0.0064
understand,how,features,0.0064
type,of,boat,0.0064
translating,that,shape,0.0064
translated,into,something,0.0064
thoughtfulness,and,awareness,0.0064
thought,process,involved,0.0064
techniques,for,drafting,0.0064
system,of,lifting,0.0064
system,has,many,0.0064
strength,and,weaknesses,0.0064
step,of,process,0.0064
step,influences,outcome,0.0064
skeptical,and,critical,0.0064
shortcomings,of,cad,0.0064
shapes,off,models,0.0064
shape,their,creating,0.0064
sailor,designer,builder,0.0064
rule,of,thumb,0.0064
room,and,extemporizing,0.0064
requirements,are,attendance,0.0064
replacing,whole,molding,0.0064
refined,each,step,0.0064
refine,the,shape,0.0064
recognized,and,interpretable,0.0064
readily,built,form,0.0064
re,think,design,0.0064
process,of,lofting,0.0064
process,of,developing,0.0064
process,of,carving,0.0064
process,is,iterative,0.0064
process,in,developing,0.0064
process,how,thoughtfulness,0.0064
process,at,every,0.0064
power,of,boat,0.0064
people,to,bring,0.0064
participants,will,go,0.0064
opportunity,to,re,0.0064
opened,up,hull,0.0064
onto,the,blocks,0.0064
older,design,method,0.0064
museum,hart,nautical,0.0064
morning,lectures,every,0.0064
molding,and,rule,0.0064
modeller,always,remain,0.0064
model,is,translated,0.0064
model,designing,techniques,0.0064
model,design,process,0.0064
model,design,methods,0.0064
model,by,eye,0.0064
model,a,readily,0.0064
mind,as,computational,0.0064
methods,of,analyzing,0.0064
methods,can,limit,0.0064
method,to,explore,0.0064
method,to,challenge,0.0064
method,on,form,0.0064
method,informs,idea,0.0064
lunch,advise,people,0.0064
look,at,form,0.0064
lofting,yet,another,0.0064
limitations,of,ideas,0.0064
limit,and,enable,0.0064
jig,to,pull,0.0064
involved,in,designing,0.0064
intuition,to,consider,0.0064
intuition,and,boat,0.0064
ideas,for,design,0.0064
ideas,are,refined,0.0064
idea,of,essention,0.0064
hull,design,development,0.0064
history,of,boat,0.0064
form,and,consider,0.0064
finish,lines,plans,0.0064
explore,an,idea,0.0064
experience,sailor,designer,0.0064
experience,in,understanding,0.0064
expanding,other,views,0.0064
exert,great,influence,0.0064
evolution,of,boat,0.0064
every,step,influences,0.0064
early,design,techniques,0.0064
early,boat,design,0.0064
drawn,lines,plans,0.0064
drafting,lines,plans,0.0064
discussion,of,thought,0.0064
discussion,of,strength,0.0064
discussion,of,iterative,0.0064
discussion,of,difference,0.0064
discussion,in,plans,0.0064
discussion,in,model,0.0064
different,sheer,shapes,0.0064
different,design,technologies,0.0064
difference,to,computer,0.0064
development,once,adopted,0.0064
developed,into,building,0.0064
develop,their,ideas,0.0064
designs,in,cad,0.0064
designer,to,exert,0.0064
designer,builder,could,0.0064
design,by,intuition,0.0064
demonstrate,carving,techniques,0.0064
creating,lines,plan,0.0064
create,a,readily,0.0064
consider,the,hull,0.0064
carving,and,finishing,0.0064
cad,technologies,live,0.0064
cad,as,well,0.0064
builder,could,look,0.0064
boats,using,intuition,0.0064
boat,design,techniques,0.0064
boat,design,systems,0.0064
boat,by,carving,0.0064
blocks,of,wood,0.0064
beyond,simple,esthetic,0.0064
begin,developing,essential,0.0064
bad,for,asymmetic,0.0064
awareness,of,process,0.0064
attendance,and,participation,0.0064
assumptions,and,develop,0.0064
around,the,room,0.0064
arc,of,boat,0.0064
analysis,of,hull,0.0064
always,remain,skeptical,0.0064
allowed,for,scientific,0.0064
advantages,and,shortcomings,0.0064
storage,and,loss,0.0061
regulation,of,cellular,0.0061
properties,of,tissues,0.0061
life,at,low,0.0061
electromechanical,and,physicochemical,0.0061
underpinnings,in,measurement,0.0061
types,of,measurements,0.0061
turn,the,knobs,0.0061
thevenin,s,theorem,0.0061
theorem,and,thermal,0.0061
test,perfect,match,0.0061
techniques,and,instruments,0.0061
teaches,the,principles,0.0061
systems,to,make,0.0061
support,the,experiments,0.0061
scratch,going,beyond,0.0061
scheduling,lab,orientation,0.0061
scanning,probe,microscopy,0.0061
rules,and,circuit,0.0061
resolution,in,microscopy,0.0061
provide,the,broader,0.0061
processing,with,matlab,0.0061
principles,that,support,0.0061
principles,and,practices,0.0061
practices,of,making,0.0061
power,spectral,density,0.0061
pmt,and,photon,0.0061
piece,of,apparatus,0.0061
photodiode,readout,circuit,0.0061
organized,into,modules,0.0061
optics,for,dna,0.0061
optics,and,optical,0.0061
modern,research,requires,0.0061
mismatch,dna,strands,0.0061
microscope,are,build,0.0061
microrheology,and,particle,0.0061
melting,lab,apparatus,0.0061
melting,curves,apparatus,0.0061
measurements,using,advanced,0.0061
measurements,that,modern,0.0061
making,quantitative,measurements,0.0061
make,the,types,0.0061
lock,in,amplification,0.0061
light,and,fluorescence,0.0061
laboratory,that,teaches,0.0061
k,and,deltag,0.0061
interference,and,diffraction,0.0061
impedance,and,loading,0.0061
going,beyond,simply,0.0061
fluorescence,optical,microscopy,0.0061
fluctuations,of,microcantilevers,0.0061
experiments,topics,include,0.0061
experiments,in,fall,0.0061
experiment,and,optical,0.0061
employs,a,broad,0.0061
electronics,for,measuring,0.0061
electronics,for,dna,0.0061
electro,mechanical,probes,0.0061
effectively,students,must,0.0061
discipline,must,develop,0.0061
develop,a,strong,0.0061
designed,the,approach,0.0061
content,is,organized,0.0061
construction,and,experiments,0.0061
confidence,to,turn,0.0061
complete,dna,melting,0.0061
chemical,equilibrium,k,0.0061
calibrate,fluorescence,signal,0.0061
build,photodiode,readout,0.0061
boltzmann,s,constant,0.0061
black,s,formula,0.0061
biological,engineering,employs,0.0061
best,by,building,0.0061
application,of,statistics,0.0061
analysis,to,experimental,0.0061
alignment,and,calibration,0.0061
advanced,fluorescence,microscopy,0.0061
uncover,a,system,0.0061
systems,wilberforce,pendulum,0.0061
system,s,equilibrium,0.0061
stability,analyses,lastly,0.0061
sample,exam,question,0.0061
practice,numerical,methods,0.0061
points,and,perform,0.0061
perform,linear,stability,0.0061
motion,for,systems,0.0061
momentum,and,conservation,0.0061
methods,for,solving,0.0061
mechanical,systems,throughout,0.0061
matlab,to,practice,0.0061
linear,stability,analyses,0.0061
lagrange,s,formulation,0.0061
kinematics,instant,centers,0.0061
internal,and,external,0.0061
interface,and,matrix,0.0061
inertia,and,problem,0.0061
freedom,systems,wilberforce,0.0061
forces,and,torques,0.0061
energy,principle,problem,0.0061
derivations,of,lagrange,0.0061
cylinder,with,hole,0.0061
cylinder,and,rocker,0.0061
collisions,and,problem,0.0061
centers,and,problem,0.0061
center,of,rotation,0.0061
cartesian,and,polar,0.0061
alembert,s,principle,0.0061
wind,system,dynamics,0.0058
wind,cape,wind,0.0058
undergraduate,students,enroll,0.0058
transportation,in,developing,0.0058
transfer,and,conversion,0.0058
thermodynamics,and,efficiency,0.0058
technology,system,proposals,0.0058
technologies,in,context,0.0058
technologies,and,fuel,0.0058
systems,in,sub,0.0058
systems,dynamics,sustainable,0.0058
systems,division,wind,0.0058
systems,division,current,0.0058
systems,analysis,methodologies,0.0058
system,and,requirements,0.0058
sustainable,manner,instructors,0.0058
sustainability,and,global,0.0058
sub,saharan,africa,0.0058
specific,energy,technologies,0.0058
sciences,geothermal,energy,0.0058
sciences,carbon,management,0.0058
school,of,management,0.0058
school,of,government,0.0058
requirements,for,success,0.0058
renewable,and,conventional,0.0058
regional,and,global,0.0058
pseg,electricity,generation,0.0058
prospects,for,change,0.0058
progress,on,international,0.0058
producing,liquid,fuels,0.0058
probabilistic,risk,analysis,0.0058
practices,in,different,0.0058
practices,and,alternatives,0.0058
power,and,proliferation,0.0058
potential,future,energy,0.0058
planetary,sciences,geothermal,0.0058
planetary,sciences,carbon,0.0058
physics,engineering,systems,0.0058
photovoltaics,and,thermal,0.0058
options,for,electricity,0.0058
options,for,africa,0.0058
offshore,wind,projects,0.0058
mechanical,engineering,lifecycle,0.0058
limitation,policy,options,0.0058
limitation,options,critique,0.0058
international,climate,negotiations,0.0058
international,climate,change,0.0058
harvard,kennedy,school,0.0058
green,fossil,energy,0.0058
graduate,students,enroll,0.0058
global,energy,needs,0.0058
future,energy,systems,0.0058
future,energy,source,0.0058
fuel,economy,policy,0.0058
framework,to,aid,0.0058
feasibility,assessment,methods,0.0058
factor,and,prospects,0.0058
expansion,of,civilian,0.0058
examine,various,renewable,0.0058
evaluation,and,depletion,0.0058
evaluation,and,analysis,0.0058
environmental,goals,undergraduate,0.0058
environment,in,latin,0.0058
enroll,in,sustainable,0.0058
energy,technology,system,0.0058
energy,production,technologies,0.0058
energy,policy,critique,0.0058
energy,in,context,0.0058
energy,and,sustainability,0.0058
energy,and,offshore,0.0058
energy,and,graduate,0.0058
end,use,technologies,0.0058
end,use,practices,0.0058
electricity,generation,options,0.0058
electrical,systems,dynamics,0.0058
electrical,energy,storage,0.0058
electric,power,system,0.0058
electric,power,sector,0.0058
electric,power,grid,0.0058
efforts,to,abate,0.0058
economic,feasibility,assessment,0.0058
dynamics,sustainable,energy,0.0058
division,wind,power,0.0058
division,current,energy,0.0058
disposal,and,yucca,0.0058
discussion,of,sustainability,0.0058
current,and,potential,0.0058
corporate,and,international,0.0058
copenhagen,to,cancun,0.0058
conventional,energy,production,0.0058
climate,change,policy,0.0058
civilian,nuclear,power,0.0058
challenges,and,options,0.0058
challenges,and,opportunities,0.0058
carbon,management,options,0.0058
carbon,limitation,policy,0.0058
carbon,limitation,options,0.0058
capturing,solar,energy,0.0058
cape,wind,energy,0.0058
cape,wind,cape,0.0058
buildings,in,developing,0.0058
basics,and,current,0.0058
barriers,to,entry,0.0058
approaches,to,electrical,0.0058
analysis,of,energy,0.0058
analysis,of,biomass,0.0058
aid,in,evaluation,0.0058
abate,global,climate,0.0058
web,based,peer,0.0056
waterjet,path,planning,0.0056
waterjet,cutter,teams,0.0056
waterjet,cutter,path,0.0056
waterjet,cut,tile,0.0056
waterjet,as,previously,0.0056
update,website,readings,0.0056
understanding,visual,language,0.0056
tutorial,and,complete,0.0056
trying,to,say,0.0056
trip,to,shep,0.0056
training,with,john,0.0056
tracing,paper,trials,0.0056
tiles,and,support,0.0056
tiles,and,preparing,0.0056
tiles,and,assemble,0.0056
tile,s,design,0.0056
tile,research,design,0.0056
tile,designs,self,0.0056
tile,and,wood,0.0056
think,both,critically,0.0056
teams,to,come,0.0056
teams,show,tile,0.0056
teams,present,support,0.0056
sure,the,tiles,0.0056
support,structure,update,0.0056
support,structure,design,0.0056
strength,of,materials,0.0056
strategy,to,address,0.0056
strategy,for,effective,0.0056
strategies,for,tile,0.0056
status,of,tiles,0.0056
solid,modeling,self,0.0056
showing,different,possible,0.0056
show,tile,parts,0.0056
show,several,different,0.0056
shep,brown,associates,0.0056
shading,and,rendering,0.0056
schemes,with,different,0.0056
scheduled,with,john,0.0056
schedule,and,discusses,0.0056
respond,to,tragedies,0.0056
resort,to,countermeasures,0.0056
research,into,visual,0.0056
reflect,its,larger,0.0056
readings,on,materials,0.0056
readings,for,next,0.0056
readings,begin,discussion,0.0056
q,a,problem,0.0056
project,to,gain,0.0056
process,to,large,0.0056
process,to,develop,0.0056
prevent,human,tragedies,0.0056
press,materials,etc,0.0056
prep,design,process,0.0056
preferences,and,relevance,0.0056
possible,color,combinations,0.0056
plates,on,elastic,0.0056
personally,of,interest,0.0056
path,planning,create,0.0056
part,design,waterjet,0.0056
non,binding,spur,0.0056
necessary,countermeasures,create,0.0056
museum,of,fine,0.0056
models,showing,different,0.0056
modeling,self,tutorial,0.0056
model,show,several,0.0056
minutes,to,initially,0.0056
mid,term,project,0.0056
method,of,enlarging,0.0056
message,they,would,0.0056
means,of,expression,0.0056
materials,in,preparation,0.0056
materials,and,packaging,0.0056
manufacturing,and,materials,0.0056
make,their,inlays,0.0056
maintain,high,ethical,0.0056
look,the,way,0.0056
location,for,installation,0.0056
like,to,convey,0.0056
letters,are,parts,0.0056
larger,communities,aspirations,0.0056
large,scale,problems,0.0056
language,the,design,0.0056
inlays,class,visit,0.0056
inlay,research,strategies,0.0056
implementing,necessary,countermeasures,0.0056
illumination,sources,update,0.0056
hobby,shop,complete,0.0056
high,ethical,standards,0.0056
help,us,respond,0.0056
help,prevent,human,0.0056
harvard,sackler,museum,0.0056
hands,on,experience,0.0056
frame,members,update,0.0056
formulated,to,address,0.0056
fact,from,emotion,0.0056
express,its,age,0.0056
exhibition,apply,design,0.0056
exhibition,and,wrap,0.0056
exhibiting,an,original,0.0056
examination,and,explorations,0.0056
evolving,final,designs,0.0056
etc,complete,readings,0.0056
enlarging,and,detailing,0.0056
emotion,using,reciprocity,0.0056
drawings,for,support,0.0056
drawings,for,manufacture,0.0056
difrancesco,and,schedule,0.0056
different,possible,color,0.0056
different,illumination,sources,0.0056
different,color,schemes,0.0056
development,of,ideas,0.0056
detailed,part,design,0.0056
designs,self,guided,0.0056
designs,and,begin,0.0056
designing,the,support,0.0056
designing,the,showing,0.0056
designing,an,inlaid,0.0056
designed,to,help,0.0056
design,waterjet,path,0.0056
design,process,develop,0.0056
design,and,interaction,0.0056
describe,what,message,0.0056
cutting,on,waterjet,0.0056
cutter,teams,self,0.0056
cutter,path,planning,0.0056
critiquing,of,total,0.0056
critiquing,and,comparing,0.0056
critically,and,visually,0.0056
creation,of,design,0.0056
creating,vs,compromising,0.0056
create,initial,team,0.0056
create,a,detailed,0.0056
countermeasures,when,risk,0.0056
countermeasures,to,risks,0.0056
countermeasures,create,part,0.0056
content,using,library,0.0056
completing,their,tiles,0.0056
complete,your,design,0.0056
complete,simple,planned,0.0056
complete,risk,analysis,0.0056
complete,inlay,cutting,0.0056
comparing,design,research,0.0056
color,and,illumination,0.0056
christo,s,running,0.0056
changes,as,needed,0.0056
brown,associates,complete,0.0056
begin,support,structure,0.0056
begin,implementing,necessary,0.0056
begin,detailed,part,0.0056
becomes,too,great,0.0056
beams,and,plates,0.0056
assembly,of,tiles,0.0056
assemble,the,tile,0.0056
aspirations,and,beliefs,0.0056
artist,was,trying,0.0056
applying,prep,design,0.0056
analysis,and,begin,0.0056
alternative,to,violence,0.0056
advanced,shop,techniques,0.0056
accompanying,frame,members,0.0056
waves,hecht,ch,0.0053
transforms,and,theorems,0.0053
tracing,with,mirrors,0.0053
temporal,and,spatial,0.0053
telescope,with,finite,0.0053
talbot,effect,goodman,0.0053
space,bandwidth,product,0.0053
relationship,between,na,0.0053
refraction,hecht,ch,0.0053
real,and,virtual,0.0053
ray,transfer,matrices,0.0053
quadratic,and,axial,0.0053
poynting,s,vector,0.0053
polarization,on,high,0.0053
points,and,planes,0.0053
phase,pupil,masks,0.0053
perfect,on,axis,0.0053
part,on,mirrors,0.0053
otf,and,modulation,0.0053
optics,and,hamiltonian,0.0053
optical,design,demo,0.0053
na,optical,systems,0.0053
michelson,and,mach,0.0053
mach,zehnder,interferometers,0.0053
history,of,optics,0.0053
high,na,optical,0.0053
gradient,index,optics,0.0053
fourier,transforming,properties,0.0053
formulation,of,ray,0.0053
focus,and,depth,0.0053
flux,and,poynting,0.0053
electromagnetic,energy,flux,0.0053
effects,of,polarization,0.0053
depth,of,focus,0.0053
defocused,optical,systems,0.0053
deconvolution,and,tikhonov,0.0053
comparison,of,coherent,0.0053
coherent,and,incoherent,0.0053
cascade,of,fourier,0.0053
analogies,between,hamiltonian,0.0053
amplitude,and,phase,0.0053
advanced,spatial,filtering,0.0053
watch,notation,systems,0.0053
vibration,isolation,system,0.0053
system,to,harmonic,0.0053
rotating,rigid,bodies,0.0053
rotating,mass,shaker,0.0053
newton,s,3rd,0.0053
finding,generalized,forces,0.0053
discussion,of,problem,0.0053
different,notation,systems,0.0053
approach,to,finding,0.0053
static,and,dynamic,0.0050
workers,and,even,0.0032
well,without,input,0.0032
water,jet,cutting,0.0032
variety,of,technologies,0.0032
variety,of,experiences,0.0032
unlike,other,sector,0.0032
underserved,communities,unlike,0.0032
turn,out,well,0.0032
technologies,with,underserved,0.0032
teams,to,gain,0.0032
teams,give,short,0.0032
teams,are,encouraged,0.0032
team,of,undergraduate,0.0032
teaches,a,different,0.0032
strong,fabrication,skills,0.0032
strong,community,partners,0.0032
speakers,sarah,bird,0.0032
solving,and,critical,0.0032
skills,to,communicate,0.0032
skills,and,interest,0.0032
skills,and,backgrounds,0.0032
show,their,latest,0.0032
short,presentations,pitches,0.0032
shellers,and,charcoal,0.0032
sheet,metal,fabrication,0.0032
see,the,mini,0.0032
sealers,each,project,0.0032
rough,prototypes,models,0.0032
represented,considerations,include,0.0032
representation,of,information,0.0032
relevant,to,prototyping,0.0032
relevant,to,product,0.0032
relate,to,design,0.0032
recognize,the,potential,0.0032
real,world,context,0.0032
range,of,experiences,0.0032
questions,and,feedback,0.0032
prototyping,the,design,0.0032
prototyping,skills,relevant,0.0032
prototyping,and,manufacturing,0.0032
prototypes,models,please,0.0032
projects,this,aspect,0.0032
projects,students,choose,0.0032
projects,may,address,0.0032
projects,in,collaboration,0.0032
project,skills,taught,0.0032
project,by,applying,0.0032
project,based,training,0.0032
progress,on,within,0.0032
progress,and,show,0.0032
professionals,in,development,0.0032
process,with,biweekly,0.0032
practice,creative,design,0.0032
powered,heat,sealers,0.0032
polak,shawn,frayne,0.0032
pitches,and,hands,0.0032
perspectives,from,design,0.0032
person,with,strong,0.0032
partners,or,identified,0.0032
partner,when,applicable,0.0032
panel,of,consultants,0.0032
often,proposed,directly,0.0032
necessary,language,skills,0.0032
near,the,end,0.0032
n,a,spring,0.0032
museum,presentations,reading,0.0032
modules,are,hands,0.0032
models,please,see,0.0032
mini,projects,help,0.0032
mini,project,teams,0.0032
mentor,ralph,hotchkiss,0.0032
may,have,limited,0.0032
may,address,challenges,0.0032
make,good,progress,0.0032
level,of,comfort,0.0032
knowledge,and,experience,0.0032
know,and,bond,0.0032
iterations,as,possible,0.0032
instructors,from,different,0.0032
input,from,people,0.0032
increase,their,level,0.0032
include,making,sure,0.0032
important,for,teams,0.0032
impact,our,world,0.0032
ideas,competition,proposals,0.0032
ide,drip,irrigation,0.0032
help,the,team,0.0032
help,students,gain,0.0032
held,corn,shellers,0.0032
hands,on,prototyping,0.0032
hands,on,opportunities,0.0032
hands,on,fabrication,0.0032
hands,on,demonstrations,0.0032
hand,held,corn,0.0032
guided,design,process,0.0032
greater,boston,community,0.0032
getting,to,know,0.0032
get,very,far,0.0032
gain,more,familiarity,0.0032
gain,a,variety,0.0032
focused,on,dissemination,0.0032
fellowships,to,travel,0.0032
feedback,and,guide,0.0032
facing,the,challenges,0.0032
fabrication,and,prototyping,0.0032
exposed,to,many,0.0032
experts,in,relevant,0.0032
experts,from,industry,0.0032
experts,and,professionals,0.0032
experiences,and,perspectives,0.0032
event,is,open,0.0032
equipment,in,project,0.0032
entire,design,cycle,0.0032
energy,evaluation,nb,0.0032
encouraged,to,try,0.0032
encouraged,to,coordinate,0.0032
drip,irrigation,kit,0.0032
directly,by,community,0.0032
difficult,to,get,0.0032
development,and,design,0.0032
developed,to,impact,0.0032
develop,problem,solving,0.0032
design,projects,may,0.0032
design,in,developing,0.0032
design,for,development,0.0032
critical,thinking,skills,0.0032
creative,design,process,0.0032
continue,their,project,0.0032
considerations,include,making,0.0032
connected,to,strong,0.0032
computer,aided,design,0.0032
competition,final,entries,0.0032
community,student,teams,0.0032
community,partner,throughout,0.0032
comfort,and,confidence,0.0032
collaboration,with,community,0.0032
choose,which,module,0.0032
choose,to,continue,0.0032
charcoal,powered,heat,0.0032
challenges,in,health,0.0032
challenges,being,addressed,0.0032
challenges,are,often,0.0032
built,rough,prototypes,0.0032
bringing,a,diverse,0.0032
break,field,trips,0.0032
bird,and,gwyn,0.0032
backgrounds,represented,considerations,0.0032
audience,and,see,0.0032
asked,to,apply,0.0032
areas,where,teams,0.0032
applying,for,summer,0.0032
apply,the,material,0.0032
applicable,in,areas,0.0032
tile,projects,whose,0.0031
standard,NUM,marble,0.0031
projects,will,help,0.0031
process,by,creating,0.0031
peer,review,evaluation,0.0031
model,and,manufacture,0.0031
members,that,create,0.0031
make,a,small,0.0031
digital,solid,models,0.0031
deep,significant,meaning,0.0031
creating,inlaid,tiles,0.0031
center,from,digital,0.0031
build,their,tile,0.0031
worm,like,chain,0.0031
within,the,cell,0.0031
visualizing,actin,diffusion,0.0031
viscoelastic,behavior,comparison,0.0031
viscoelastic,and,poroelastic,0.0031
velocity,curves,muscle,0.0031
understanding,of,mechano,0.0031
types,of,attachment,0.0031
tissues,in,health,0.0031
tissue,level,deformation,0.0031
thermodynamics,and,elementary,0.0031
synthesis,and,secretion,0.0031
structure,of,extracellular,0.0031
structure,of,ecm,0.0031
stress,strain,constitutive,0.0031
stress,strain,characteristics,0.0031
strain,constitutive,relations,0.0031
stiffness,and,role,0.0031
statistics,of,random,0.0031
statistical,or,classical,0.0031
soft,connective,tissues,0.0031
secretion,of,ecm,0.0031
ruler,of,molecular,0.0031
role,of,transmembrane,0.0031
role,of,fluid,0.0031
role,of,electrical,0.0031
resulting,macroscopic,tissue,0.0031
relevant,to,corneal,0.0031
relations,for,tissues,0.0031
relation,between,nano,0.0031
relation,between,molecular,0.0031
relation,between,macroscopic,0.0031
relating,to,physical,0.0031
real,measurements,applications,0.0031
pushing,and,pulling,0.0031
pulling,on,molecules,0.0031
properties,of,connective,0.0031
potentials,and,electroosmosis,0.0031
post,translational,modifications,0.0031
poro,viscoelastic,bahavior,0.0031
polymerization,polymerization,force,0.0031
polymerization,force,persistent,0.0031
polymerization,based,motility,0.0031
plate,patch,clamp,0.0031
physical,force,molecular,0.0031
phenomena,in,determining,0.0031
persistent,chain,model,0.0031
patch,clamp,experiments,0.0031
passive,and,active,0.0031
origins,of,elastic,0.0031
optical,trap,calibrations,0.0031
optical,and,magnetic,0.0031
nano,molecular,constituents,0.0031
motors,a,closer,0.0031
motility,simple,models,0.0031
molecules,of,interest,0.0031
molecule,level,optical,0.0031
molecular,to,macro,0.0031
molecular,level,forces,0.0031
molecular,forces,thermal,0.0031
molecular,electromechanical,forces,0.0031
molecular,and,macromolecular,0.0031
models,to,real,0.0031
models,for,muscle,0.0031
models,for,ce,0.0031
model,and,cooperativity,0.0031
methods,of,visualizing,0.0031
methods,macroscopic,rheology,0.0031
metabolic,and,biosynthetic,0.0031
membrane,cortex,vesicles,0.0031
mechano,signal,transduction,0.0031
mechanisms,of,force,0.0031
mechanics,of,biomembranes,0.0031
mechanics,in,vivo,0.0031
measures,of,deformation,0.0031
measurements,of,mechanical,0.0031
measurements,and,biological,0.0031
measurement,of,cell,0.0031
measure,of,rigidity,0.0031
macroscopic,tissue,deformation,0.0031
macromolecules,and,resulting,0.0031
low,reynolds,number,0.0031
lipids,and,molecular,0.0031
linked,gels,compared,0.0031
like,chain,model,0.0031
levels,of,transcription,0.0031
law,and,hydraulic,0.0031
landscapes,and,kinetics,0.0031
kt,as,ruler,0.0031
kramers,eyring,rate,0.0031
kinesin,a,closer,0.0031
isotropic,cross,linked,0.0031
ions,during,tissue,0.0031
intro,to,fluorescence,0.0031
intro,to,afm,0.0031
intracellular,signaling,relating,0.0031
interactions,in,tissue,0.0031
interactions,between,charged,0.0031
integration,from,molecular,0.0031
hydrogen,bonding,etc,0.0031
hookean,constitutive,law,0.0031
health,and,disease,0.0031
formation,and,dissolution,0.0031
forces,thermal,forces,0.0031
forces,on,chemical,0.0031
forces,extreme,extension,0.0031
forces,and,deformations,0.0031
forces,and,brownian,0.0031
force,velocity,curves,0.0031
force,transduction,mechanotransduction,0.0031
force,persistent,chain,0.0031
force,molecular,mechanisms,0.0031
fluid,matrix,interactions,0.0031
fjc,and,modeling,0.0031
filament,assembly,crosslinki,0.0031
filament,assembly,crosslin,0.0031
filament,assembly,crossl,0.0031
filament,assembly,cros,0.0031
filament,assembly,cr,0.0031
feedback,between,molecular,0.0031
experiments,membrane,cortex,0.0031
experimental,methods,passive,0.0031
experimental,methods,macroscopic,0.0031
estimates,and,distribution,0.0031
equilibrium,kramers,eyring,0.0031
elementary,statistical,mechanics,0.0031
electrical,and,osmotic,0.0031
elastic,plate,patch,0.0031
elastic,forces,extreme,0.0031
effects,of,mechanical,0.0031
effect,of,forces,0.0031
dynamic,moduli,revisited,0.0031
dynamic,cell,processes,0.0031
distribution,of,stresses,0.0031
dissolution,of,bonds,0.0031
diffusivity,simple,mod,0.0031
diffusivity,simple,m,0.0031
diffusion,and,polymerization,0.0031
different,cell,types,0.0031
determining,tissue,biomechanical,0.0031
deformations,on,cell,0.0031
deformation,and,electrokinetic,0.0031
deformation,and,cell,0.0031
darcy,s,law,0.0031
cytoskeleton,and,cortex,0.0031
curves,muscle,energetics,0.0031
crosslinking,and,disassembly,0.0031
crosslinking,and,disassemb,0.0031
crosslinking,and,disasse,0.0031
crosslinking,and,disas,0.0031
crosslinking,and,dis,0.0031
cross,linked,gels,0.0031
cross,bridge,dynamics,0.0031
coordinates,and,chemical,0.0031
cooperativity,the,worm,0.0031
convection,of,ions,0.0031
contracting,muscle,hill,0.0031
continuum,and,microstructural,0.0031
constituents,and,macroscopic,0.0031
composition,and,nanomolecular,0.0031
comparison,of,models,0.0031
compared,to,fibrous,0.0031
clamp,experiments,membrane,0.0031
chemical,equilibrium,kramers,0.0031
charged,ecm,molecules,0.0031
characteristics,of,tissue,0.0031
characteristics,of,contracting,0.0031
cell,matrix,deformations,0.0031
cell,and,tissue,0.0031
calibrations,and,measurement,0.0031
brownian,motion,life,0.0031
bridge,dynamics,models,0.0031
biosynthetic,responses,current,0.0031
biomechanics,to,molecular,0.0031
biomechanical,scaling,kamm,0.0031
biomechanical,behavior,fluid,0.0031
biology,in,addition,0.0031
biological,motors,lang,0.0031
background,in,either,0.0031
attachment,to,neighboring,0.0031
arthritis,and,joint,0.0031
advantages,and,limitations,0.0031
active,and,passive,0.0031
activation,cross,bridge,0.0031
williams,on,kinematics,0.0027
wheel,on,moving,0.0027
water,in,container,0.0027
w,polar,coordinates,0.0027
vibration,of,long,0.0027
vibration,of,continuous,0.0027
vibration,of,beams,0.0027
vibration,by,mode,0.0027
vibration,and,intro,0.0027
vibrating,string,demonstration,0.0027
velocity,and,acceleration,0.0027
vector,not,aligned,0.0027
vector,in,cylindrical,0.0027
upon,the,center,0.0027
transferfunction,with,strobe,0.0027
transfer,function,vibration,0.0027
torques,using,dh,0.0027
torque,angular,momentum,0.0027
torque,about,moving,0.0027
ton,dynamic,absorber,0.0027
tipping,box,problem,0.0027
tension,with,demonstration,0.0027
tangential,and,normal,0.0027
systems,and,matrix,0.0027
system,strobe,light,0.0027
system,please,watch,0.0027
system,in,general,0.0027
strobe,light,demo,0.0027
strings,and,beams,0.0027
string,under,tension,0.0027
string,to,initial,0.0027
string,to,harmonic,0.0027
string,direct,method,0.0027
steady,state,linear,0.0027
static,equilibrium,position,0.0027
state,linear,system,0.0027
stalls,with,demonstrations,0.0027
spring,mass,dashpot,0.0027
spool,and,string,0.0027
source,h,ft,0.0027
sliding,on,rod,0.0027
shaker,and,effect,0.0027
rotation,about,moving,0.0027
rotation,about,fixed,0.0027
rotating,ref,frames,0.0027
rotating,mass,demo,0.0027
rotating,coordinate,system,0.0027
rigid,body,rotation,0.0027
reducing,problem,vibration,0.0027
recap,and,application,0.0027
real,NUM,dof,0.0027
ratios,from,measured,0.0027
questions,intro,showing,0.0027
question,discussion,spool,0.0027
pulling,the,string,0.0027
pull,string,direct,0.0027
puck,by,lagrange,0.0027
products,of,inertia,0.0027
problems,with,rotational,0.0027
problem,with,moving,0.0027
problem,solving,methods,0.0027
problem,alternative,form,0.0027
practice,finding,eom,0.0027
polar,and,cylindrical,0.0027
personal,research,area,0.0027
pendulum,to,initial,0.0027
pendulum,by,lagrange,0.0027
particle,with,respect,0.0027
particle,in,circular,0.0027
notation,systems,interrelate,0.0027
notation,system,please,0.0027
normal,and,tangential,0.0027
n,dof,system,0.0027
muddy,card,discussion,0.0027
moving,reference,point,0.0027
moving,reference,frames,0.0027
motion,with,respect,0.0027
motion,w,polar,0.0027
motion,using,newton,0.0027
motion,of,rotating,0.0027
motion,of,particles,0.0027
motion,of,center,0.0027
motion,in,moving,0.0027
motion,hx,y,0.0027
motion,for,rigid,0.0027
motion,and,determination,0.0027
motion,and,degrees,0.0027
motion,about,center,0.0027
momentum,of,rigid,0.0027
momentum,for,rigid,0.0027
momentum,and,torque,0.0027
momentum,and,rotating,0.0027
momentum,and,motion,0.0027
momentum,and,impulse,0.0027
moments,and,products,0.0027
moment,at,center,0.0027
modeling,in,dynamics,0.0027
model,modal,damping,0.0027
mode,superposition,analysis,0.0027
modal,initial,conditions,0.0027
modal,expansion,theorem,0.0027
modal,damping,ratios,0.0027
mitigate,problem,vibration,0.0027
methods,for,rotating,0.0027
method,of,modal,0.0027
method,for,assembling,0.0027
means,of,transfer,0.0027
meaning,of,phase,0.0027
matrix,eigenvalue,problems,0.0027
mass,hockey,puck,0.0027
mass,demo,related,0.0027
mass,dashpot,system,0.0027
mass,and,stiffness,0.0027
machine,and,falling,0.0027
linear,system,modeling,0.0027
linear,multi,dof,0.0027
light,and,vibrating,0.0027
laws,of,motion,0.0027
laws,and,describing,0.0027
lagrange,equations,continued,0.0027
kinematics,using,reference,0.0027
kinematics,of,particles,0.0027
isolation,system,strobe,0.0027
isolation,system,design,0.0027
intro,to,mode,0.0027
intro,showing,problems,0.0027
internal,structural,torques,0.0027
internal,rotating,mass,0.0027
inertial,reference,frames,0.0027
inertia,of,rigid,0.0027
independent,and,holonomic,0.0027
incline,with,water,0.0027
importance,of,inertial,0.0027
hx,y,transfer,0.0027
hx,f,transfer,0.0027
history,of,dynamics,0.0027
h,ft,fo,0.0027
h,a,alternative,0.0027
gravity,on,torque,0.0027
generalized,coordinate,definitions,0.0027
general,and,expressed,0.0027
ft,fo,transferfunction,0.0027
frames,and,vectors,0.0027
formula,for,computing,0.0027
formula,for,complex,0.0027
form,of,velocity,0.0027
form,of,eulers,0.0027
forces,and,rotating,0.0027
force,momentum,formulation,0.0027
flow,induced,vibration,0.0027
fitting,of,damping,0.0027
finding,the,modes,0.0027
fictitious,force,discussion,0.0027
fictitious,centrifugal,force,0.0027
external,and,internal,0.0027
expressed,in,polar,0.0027
excitation,by,means,0.0027
euler,s,formula,0.0027
equals,the,change,0.0027
eoms,and,dofs,0.0027
eom,using,lagrange,0.0027
eom,for,atwoods,0.0027
elevator,cable,breaks,0.0027
effect,of,gravity,0.0027
dynamic,imbalance,definitions,0.0027
dt,angular,momentum,0.0027
dt,and,torques,0.0027
dp,dt,tension,0.0027
done,in,polar,0.0027
dof,systems,intro,0.0027
dof,mechanical,model,0.0027
dispersion,in,wave,0.0027
discussion,of,helicopter,0.0027
diagrams,and,fictitious,0.0027
determination,of,modal,0.0027
determination,of,damping,0.0027
describing,the,motion,0.0027
describing,the,kinematics,0.0027
demonstration,of,wave,0.0027
demonstration,of,modes,0.0027
demo,of,cart,0.0027
definition,of,normal,0.0027
definition,of,moment,0.0027
definition,of,center,0.0027
dealing,with,damping,0.0027
damping,to,model,0.0027
damping,in,modal,0.0027
damping,and,experimental,0.0027
coriolis,force,done,0.0027
conditions,using,modal,0.0027
condensing,many,forces,0.0027
computation,of,izz,0.0027
complex,rotational,problems,0.0027
complex,number,approach,0.0027
complete,fictitious,force,0.0027
circular,motion,w,0.0027
change,of,linear,0.0027
change,in,kinetic,0.0027
center,of,percussion,0.0027
cart,on,incline,0.0027
cart,and,pendulum,0.0027
box,problem,alternative,0.0027
body,on,rollers,0.0027
beams,in,fluid,0.0027
axis,through,center,0.0027
axis,of,rotation,0.0027
axis,of,ratation,0.0027
axes,and,symmetry,0.0027
atwood,s,machine,0.0027
assembling,the,stiffness,0.0027
application,to,rigid,0.0027
applicable,physical,laws,0.0027
analysis,by,mode,0.0027
action,and,reaction,0.0027
acting,only,upon,0.0027
acceleration,in,rotating,0.0027
absorber,to,mitigate,0.0027
able,to,evaluate,0.0027
3rd,law,recap,0.0027
3rd,law,action,0.0027
