w,v,u,score
sistemas,de,control,0.2380
velocidades,y,aceleraciones,0.1159
grados,de,libertad,0.1034
presentacion,NUM,monografia,0.0893
sistemas,de,tuberias,0.0877
acondicionamiento,de,aire,0.0820
cantidad,de,movimiento,0.0735
transferencia,de,calor,0.0713
demostracion,del,ensayo,0.0710
analisis,de,estabilidad,0.0701
camara,de,combustion,0.0657
neumaticos,y,electroneumaticos,0.0643
diseno,de,circuitos,0.0643
impacto,ambiental,innovacion,0.0630
energia,e,impacto,0.0630
ambiental,innovacion,tecnologica,0.0630
elementos,de,maquinas,0.0620
maquinas,para,realizar,0.0608
ejes,de,referencia,0.0592
cinetica,de,cuerpo,0.0592
cinematica,de,cuerpo,0.0592
ahorro,de,energia,0.0590
amortiguados,bajo,excitacion,0.0572
proceso,de,combustion,0.0569
ley,de,hooke,0.0558
motores,de,combustion,0.0557
diseno,de,sistemas,0.0552
instrumentacion,y,automatizacion,0.0540
innovacion,tecnologica,instrumentacion,0.0540
calculo,y,diseno,0.0540
rotores,de,flujo,0.0538
efectividad,de,sistemas,0.0530
intercambiadores,de,calor,0.0528
transferencia,de,energia,0.0524
dispositivos,para,realizar,0.0507
determinacion,de,fuerzas,0.0505
turbina,a,gas,0.0496
resistencia,al,avance,0.0488
circuitos,de,neumatica,0.0482
asistida,con,plc,0.0482
mezcla,de,gases,0.0478
metodos,de,calculo,0.0476
metodo,del,agma,0.0474
freno,de,zapata,0.0474
compresion,de,vapor,0.0469
turbinas,a,vapor,0.0462
sistema,de,refrigeracion,0.0460
seguridad,e,higiene,0.0457
circuitos,de,mando,0.0455
grado,de,reaccion,0.0455
gases,de,combustion,0.0453
tecnologias,para,transformar,0.0450
metodologia,de,calculo,0.0450
analisis,de,sistemas,0.0445
factores,que,influyen,0.0441
capa,limite,laminar,0.0439
distribucion,de,aire,0.0434
esfuerzos,y,deformaciones,0.0434
evaluacion,del,proyecto,0.0426
sistemas,no,lineales,0.0426
respuesta,en,frecuencia,0.0426
matrices,de,rigidez,0.0423
analisis,de,sensibilidad,0.0417
cilindricos,de,dientes,0.0411
transistor,de,union,0.0411
programacion,y,ejecucion,0.0409
sistemas,de,proteccion,0.0407
sistema,de,proteccion,0.0407
dispositivos,y,maquinas,0.0406
sistemas,de,alabes,0.0404
cinematica,del,flujo,0.0404
transmision,de,potencia,0.0401
modelo,de,transporte,0.0401
investigacion,de,operaciones,0.0401
referencia,en,traslacion,0.0395
cinematica,de,particula,0.0395
conservacion,de,cantidad,0.0391
momentos,de,inercia,0.0390
turbina,de,vapor,0.0389
resistencia,de,materiales,0.0388
simples,por,metodos,0.0386
determinacion,de,velocidades,0.0386
materiales,dimensiones,normalizadas,0.0380
fajas,en,v,0.0380
flexion,y,corte,0.0378
rodamientos,de,rodillos,0.0375
turbinas,de,gas,0.0369
turbina,de,flujo,0.0369
flujo,de,vapor,0.0369
fuentes,de,poder,0.0366
limite,de,fatiga,0.0365
indicadores,de,desempeno,0.0363
materiales,de,fabricacion,0.0360
puesta,en,marcha,0.0360
campanas,de,extraccion,0.0356
instrumentos,de,medicion,0.0351
refrigeracion,por,compresion,0.0351
ciclo,de,refrigeracion,0.0351
calculo,de,cargas,0.0351
medicion,de,potencia,0.0349
momento,de,inercia,0.0349
circuitos,trifasicos,balanceados,0.0348
circuitos,acoplados,magneticamente,0.0348
tornillo,sin,fin,0.0345
producto,a,producir,0.0344
presentacion,de,servicios,0.0344
inversion,y,financiamiento,0.0344
procedimiento,y,planteamiento,0.0341
exposicion,del,procedimiento,0.0341
potencia,y,velocidad,0.0340
medicion,de,temperatura,0.0340
medicion,de,presion,0.0340
medicion,de,flujos,0.0340
combustion,y,agua,0.0340
analisis,de,gases,0.0340
factor,de,seguridad,0.0339
control,de,calidad,0.0337
modelamiento,de,sistemas,0.0334
control,mediante,programacion,0.0334
leva,de,disco,0.0333
disco,con,seguidor,0.0333
sistemas,de,recubrimientos,0.0332
procesos,de,corrosion,0.0332
implicancias,tecnicas,economicas,0.0332
diseno,de,controladores,0.0330
coeficientes,de,error,0.0330
sometidas,a,cargas,0.0328
olas,de,gravedad,0.0325
dimensional,y,modelado,0.0325
paso,a,paso,0.0321
operacion,de,componentes,0.0321
metodo,de,karnaugh,0.0321
identificacion,y,operacion,0.0321
hidraulicos,y,electrohidraulicos,0.0321
configuracion,y,programacion,0.0321
circuitos,de,electroneumatica,0.0321
acciones,de,control,0.0319
politicas,de,mantenimiento,0.0318
planeamiento,del,mantenimiento,0.0318
departamento,de,mantenimiento,0.0318
control,del,mantenimiento,0.0318
fin,rueda,dentada,0.0316
capacidad,de,carga,0.0316
fuente,de,vida,0.0312
procesos,de,manufactura,0.0308
efecto,de,campo,0.0308
termodinamico,con,suministro,0.0307
materiales,de,aporte,0.0305
ejecucion,de,cordones,0.0305
recepcion,de,informes,0.0304
maquinas,y,dispositivos,0.0304
ensayos,mecanicos,demostracion,0.0304
ensayo,de,traccion,0.0304
ensayo,de,fatiga,0.0304
automatizacion,de,sistemas,0.0303
ram,jet,subsonico,0.0301
metodo,simplex,dual,0.0301
transformacion,y,aprovechamiento,0.0300
tecnologias,para,aprovechar,0.0300
fototermicas,y,fotovoltaicas,0.0300
diseno,y,seleccion,0.0300
sistema,de,tuberias,0.0300
generador,de,vapor,0.0299
proyecto,de,investigacion,0.0298
falla,en,materiales,0.0296
esfuerzos,de,fatiga,0.0296
concentracion,de,esfuerzos,0.0296
seleccion,de,componentes,0.0292
trifasico,de,induccion,0.0291
planos,de,alta,0.0290
triaxial,de,esfuerzos,0.0289
esfuerzos,en,planos,0.0289
distribucion,de,esfuerzos,0.0289
diagramas,de,distribucion,0.0289
deformacion,en,vigas,0.0289
viscoso,movimiento,sub,0.0286
vibraciones,mecanicas,modelos,0.0286
vibraciones,con,excitacion,0.0286
sub,amortiguado,movimiento,0.0286
sistemas,no,amortiguados,0.0286
sistemas,con,multiples,0.0286
simple,movimiento,armonico,0.0286
respuesta,impulsiva,respuesta,0.0286
respuesta,forzada,generalizada,0.0286
predictivo,usando,analisis,0.0286
pendulo,simple,movimiento,0.0286
movimiento,sub,amortiguado,0.0286
movimiento,sobre,amortiguado,0.0286
