token,score
flujo,0.3178
control,0.2954
circuito,0.2950
mantenimiento,0.2672
energia,0.2523
analisis,0.2482
vapor,0.2456
combustion,0.2292
material,0.2229
calculo,0.2225
proteccion,0.2139
metodo,0.2139
proceso,0.2129
corrosion,0.2073
esfuerzo,0.2053
turbina,0.2042
aire,0.1953
turbomaquina,0.1861
tecnologia,0.1776
calor,0.1764
soldadura,0.1712
gas,0.1646
proyecto,0.1573
maquina,0.1552
eficiencia,0.1509
ley,0.1507
desarrollo,0.1497
potencia,0.1482
engranaje,0.1413
transferencia,0.1413
desarrollar,0.1376
programacion,0.1372
movimiento,0.1359
cuerpo,0.1318
determinacion,0.1277
neumatico,0.1271
rigido,0.1252
turbina,0.1238
calidad,0.1232
tuberia,0.1230
lubricante,0.1157
agua,0.1148
viga,0.1142
motore,0.1141
fuerza,0.1136
ensayo,0.1134
norma,0.1129
curva,0.1107
iso,0.1103
motor,0.1101
gas,0.1094
refrigeracion,0.1093
sesion,0.1055
evaluacion,0.1051
torsion,0.1049
resistencia,0.1024
fatiga,0.0991
plano,0.0982
bomba,0.0982
medicion,0.0977
diagrama,0.0976
deformacion,0.0973
flexion,0.0943
cinematica,0.0938
corte,0.0936
seguridad,0.0935
modelo,0.0933
dispositivos,0.0932
dc,0.0930
compresion,0.0911
modelos,0.0906
automatizacion,0.0904
parametros,0.0903
ejes,0.0901
axial,0.0901
limite,0.0895
instrumentacion,0.0885
simplex,0.0878
presentacion,0.0873
velocidad,0.0869
operacion,0.0866
descripcion,0.0864
aleacion,0.0854
distribucion,0.0851
lubricacion,0.0849
plc,0.0847
planta,0.0837
conservacion,0.0837
fabricacion,0.0836
fundicion,0.0833
arranque,0.0829
impacto,0.0823
inercia,0.0815
rodamiento,0.0812
vibracion,0.0808
diagrama,0.0807
operacion,0.0804
aceleracion,0.0788
organizacion,0.0774
senales,0.0774