"Topic 1","Topic 2","Topic 3","Topic 4","Topic 5","Topic 6","Topic 7","Topic 8","Topic 9","Topic 10","Topic 11","Topic 12","Topic 13","Topic 14","Topic 15","Topic 16","Topic 17","Topic 18"
"tecnico","seguridad","sistemas","creditos","cliente","mantenimiento","tecnico","tecnico","administracion","jefe","calidad","proyectos","tecnico","ventas","excel","presion","almacen","gestion"
"operaciones","industrial","desarrollo","contabilidad","atencion","tecnico","desarrollo","sistemas","contabilidad","supervisar","produccion","obra","instalacion","comercial","apoyo","comunicacion","industrial","procesos"
"mantenimiento","ocupacional","analista","economia","servicio","mecanica","titulo","informatica","asistente","coordinar","control","construccion","contar","productos","industrial","orientacion","administracion","proyectos"
"operacion","gestion","sql","evaluacion","tecnico","mecanico","formacion","computacion","documentos","controlar","planta","obras","sistemas","marketing","elaboracion","responsabilidad","compras","administracion"
"red","ambiental","programacion","administracion","tecnicos","industrial","mina","configuracion","documentacion","gestion","industrial","autocad","mantenimiento","cliente","asistente","contratacion","proveedores","informacion"
"office","iso","programador","analista","capacitacion","electricidad","capacitacion","electronica","industrial","procedimientos","productos","elaboracion","electronica","industrial","office","proactivo","control","industrial"
"energia","capacitacion","informatica","industrial","administracion","electricista","mineria","windows","administrativo","elaborar","procesos","diseno","tecnicos","comerciales","word","responsable","productos","analisis"
"procedimientos","riesgos","java","gestionar","computacion","electricos","contratacion","usuarios","credito","calidad","analisis","ejecucion","electronico","administracion","microsoft","ingles","inventarios","control"
"cliente","normas","server","financiero","lider","preventivo","computacion","mantenimiento","office","asegurar","supervisor","presupuestos","electricos","ejecutivo","reportes","organizacion","distribucion","sistemas"
"elementos","sistemas","aplicaciones","cobranza","ventas","industriales","personas","servicio","cliente","supervisor","laboratorio","contratacion","electricista","seguimiento","analisis","liderazgo","asistente","analista"
"atencion","contratacion","analisis","microfinanzas","informatica","reparacion","docente","comunicaciones","gerencia","operaciones","quimica","colegiado","instalaciones","consumo","gestion","habilidades","compra","implementacion"
"ejecucion","supervisor","oracle","lider","productos","electrico","ingles","cliente","contratacion","procesos","contratacion","arquitectura","cableado","masivo","power","proactividad","despacho","desarrollo"
"ms","higiene","diseno","financieras","comunicacion","maquinas","direccion","hardware","registro","cliente","producto","supervision","contratacion","desarrollar","point","office","almacenes","elaboracion"
"servicio","ambientales","proyectos","calidad","orientacion","correctivo","documentado","instalacion","creditos","normas","jefe","costos","medicion","supervisor","ingles","iniciativa","ordenes","ingles"
"personas","prevencion","tecnico","incrementar","office","planta","institucion","tecnicos","cobranzas","seguimiento","gestion","control","puesta","ingles","administracion","facilidad","recepcion","negocio"
"lider","proteccion","informacion","estrategias","necesidades","contratacion","jefe","servidores","cuentas","garantizar","industrias","titulado","instrumentos","contar","informacion","relaciones","contratacion","auditoria"
"administrativos","sst","visual","captacion","contratacion","electronica","mineras","comunicacion","operaciones","establecidos","lider","project","electricas","asesor","supervision","tolerancia","seguimiento","organizacion"
"flota","minas","computacion","asesor","sistemas","electrica","mecanica","contratacion","seguimiento","control","agroindustrial","mecanico","electricidad","desarrollo","indicadores","compromiso","mercaderia","especializacion"
"licencia","implementacion","tecnologia","aprobacion","calidad","tecnicos","academica","informacion","informacion","acciones","desarrollo","ms","marcha","producto","practicas","tecnico","coordinar","jefe"
"comerciales","integrados","implementacion","practica","incorporar","maquinaria","titulado","operativos","economia","planificar","bpm","electrica","tableros","estrategias","comunicacion","planificacion","excel","seguimiento"
