jefe	nc	B-JOB
de	sp	O
recepción	nc	B-AREA
iquitos	np	B-LUG

funciones	nc	O
:	fd	O

requerimientos	nc	O
:	fd	O

universitario	nc	O
bachillerato	nc	O
en	sp	O
administración	np	B-CARR
.	fp	O

experiencia	nc	O
:	fd	O

en	sp	O
el	det	O
área	nc	O
de	sp	O
hotelería	np	B-AREA
/	fh	O
turismo	np	B-AREA
/	fh	O
restaurantes	np	B-AREA
con	sp	O
5	z	O
años	nc	O
de	sp	O
experiencia	nc	O
.	fp	O

inglés	nc	B-REQ
fluido	adj	O

experiencia	nc	O
no	rn	O
menor	adj	O
a	sp	O
cinco	z	O
años	nc	O

