asesor	nc	B-JOB
inmobiliario	adj	I-JOB

funciones	nc	O
:	fd	O

requerimientos	nc	O
:	fd	O

técnico	nc	B-REQ
en	sp	O
ventas	nc	B-AREA
.	fp	O

experiencia	nc	O
:	fd	O

en	sp	O
el	det	O
área	nc	O
de	sp	O
atención	nc	B-AREA
al	sp	I-AREA
cliente	nc	I-AREA
con	sp	O
1	z	O
año	nc	O
de	sp	O
experiencia	nc	O
.	fp	O

experiencia	nc	O
:	fd	O

en	sp	O
el	det	O
área	nc	O
de	sp	O
ventas	nc	B-AREA
con	sp	O
1	z	O
año	nc	O
de	sp	O
experiencia	nc	O
.	fp	O

