asistente	nc	B-JOB
contable	adj	I-JOB

funciones	nc	O
:	fd	O

requerimientos	nc	O
:	fd	O

técnico	nc	B-REQ
en	sp	O
contabilidad	nc	B-CARR
.	fp	O

experiencia	nc	O
:	fd	O

en	sp	O
el	det	O
área	nc	O
de	sp	O
contabilidad	nc	B-AREA
con	sp	O
6	z	O
meses	nc	O
de	sp	O
experiencia	nc	O
.	fp	O

telf	nc	O
.	fp	O
4272608	z	B-MISC

