This is BibTeX, Version 0.99d (TeX Live 2015/Arch Linux)
Capacity: max_strings=35307, hash_size=35307, hash_prime=30011
The top-level auxiliary file: acl2016.aux
The style file: acl2016.bst
Database file #1: acl2016.bib
You've used 34 entries,
            2490 wiz_defined-function locations,
            750 strings with 10930 characters,
and the built_in function-call counts, 15789 in all, are:
= -- 1597
> -- 673
< -- 17
+ -- 227
- -- 224
* -- 1111
:= -- 2425
add.period$ -- 142
call.type$ -- 34
change.case$ -- 242
chr.to.int$ -- 34
cite$ -- 34
duplicate$ -- 722
empty$ -- 1255
format.name$ -- 267
if$ -- 3444
int.to.chr$ -- 1
int.to.str$ -- 0
missing$ -- 33
newline$ -- 207
num.names$ -- 108
pop$ -- 320
preamble$ -- 1
purify$ -- 276
quote$ -- 0
skip$ -- 557
stack$ -- 0
substring$ -- 703
swap$ -- 222
text.length$ -- 17
text.prefix$ -- 0
top$ -- 0
type$ -- 272
warning$ -- 0
while$ -- 108
width$ -- 38
write$ -- 478
