\relax 
\citation{lda}
\citation{etm,ctm,dtm,hdp,htm}
\citation{chang}
\citation{Newman:2010,Musat:2011,Mimno:2011,Stevens:2012,Aletras:2013,Lau:2014}
\citation{chang}
\citation{Newman:2010}
\citation{Lau:2014}
\citation{Mimno:2011}
\citation{Musat:2011,Aletras:2013}
\citation{Roder:2015}
\citation{Paul:2010,Reisinger:2010,Hall:2012}
\citation{Yang:2015,Nguyen:2015}
\citation{lda}
\citation{asuncion}
\citation{handbook}
\citation{Mimno:2011}
\citation{pnas}
\citation{etm}
\citation{Sha:2003,Mcdonald:2005}
\citation{bvd99}
\citation{bioformat}
\citation{carreras}
\citation{bikel}
\citation{collins}
\newlabel{section_data}{{3}{2}}
\newlabel{section_shapar}{{4}{2}}
\citation{carreras,miller,liang}
\citation{lda}
\providecommand*\caption@xref[2]{\@setref\relax\@undefined{#1}}
\newlabel{table:chunks}{{1}{3}}
\newlabel{fig:tagging}{{1}{3}}
\citation{griffiths}
\citation{griffiths}
\citation{lda}
\citation{topicmodelsR}
\citation{lda}
\citation{gibbs_cpp}
\citation{Mimno:2011}
\citation{chang,Mimno:2011,Aletras:2013,Lau:2014}
\citation{Roder:2015}
\citation{Mimno:2011}
\citation{Roder:2015}
\citation{pnas}
\citation{griffiths}
\citation{asuncion}
\citation{pnas}
\newlabel{table:models}{{2}{4}}
\newlabel{section:setup}{{5.3}{4}}
\newlabel{section:dimsel}{{5.4}{4}}
\newlabel{table:res_chunks}{{3}{5}}
\newlabel{section:dimensionality}{{6.2.1}{5}}
\newlabel{fig:dimsel_perp}{{2}{5}}
\citation{erosheva:mm}
\newlabel{fig:dimsel_coh}{{3}{6}}
\newlabel{fig:increase_coh}{{4}{6}}
\bibdata{acl2016}
\bibcite{pnas}{\citename {Airoldi \bgroup et al.\egroup }2010}
\bibcite{Aletras:2013}{\citename {Aletras and Stevenson}2013}
\newlabel{fig:major_vs_topic}{{5}{7}}
\newlabel{table:case1}{{4}{7}}
\newlabel{table:case2}{{5}{7}}
\newlabel{table:case3}{{6}{7}}
\bibcite{asuncion}{\citename {Asuncion \bgroup et al.\egroup }2009}
\bibcite{bikel}{\citename {Bikel \bgroup et al.\egroup }1999}
\bibcite{ctm}{\citename {Blei and Lafferty}2005}
\bibcite{dtm}{\citename {Blei and Lafferty}2006}
\bibcite{lda}{\citename {Blei \bgroup et al.\egroup }2003}
\bibcite{htm}{\citename {Blei \bgroup et al.\egroup }2007}
\bibcite{handbook}{\citename {Boyd-Graber \bgroup et al.\egroup }2014}
\bibcite{bvd99}{\citename {Buchholz \bgroup et al.\egroup }1999}
\bibcite{carreras}{\citename {Carreras \bgroup et al.\egroup }2002}
\bibcite{chang}{\citename {Chang \bgroup et al.\egroup }2009}
\bibcite{collins}{\citename {Collins}2002}
\bibcite{griffiths}{\citename {Griffiths and Steyvers}2004}
\bibcite{topicmodelsR}{\citename {Gr\"un and Hornik}2011}
\bibcite{Hall:2012}{\citename {Hall \bgroup et al.\egroup }2012}
\bibcite{Lau:2014}{\citename {Lau \bgroup et al.\egroup }2014}
\bibcite{liang}{\citename {Liang and Collins}2005}
\bibcite{Mcdonald:2005}{\citename {McDonald \bgroup et al.\egroup }2005}
\bibcite{miller}{\citename {Miller \bgroup et al.\egroup }2004}
\bibcite{Mimno:2011}{\citename {Mimno \bgroup et al.\egroup }2011}
\bibcite{Musat:2011}{\citename {Musat \bgroup et al.\egroup }2011}
\bibcite{etm}{\citename {Newman \bgroup et al.\egroup }2006}
\bibcite{Newman:2010}{\citename {Newman \bgroup et al.\egroup }2010}
\bibcite{Nguyen:2015}{\citename {Nguyen \bgroup et al.\egroup }2015}
\bibcite{Paul:2010}{\citename {Paul and Girju}2010}
\bibcite{gibbs_cpp}{\citename {Phan \bgroup et al.\egroup }2008}
\bibcite{bioformat}{\citename {Ramshaw and Marcus}1995}
\bibcite{Reisinger:2010}{\citename {Reisinger \bgroup et al.\egroup }2010}
\bibcite{Roder:2015}{\citename {R\"{o}der \bgroup et al.\egroup }2015}
\bibcite{Sha:2003}{\citename {Sha and Pereira}2003}
\bibcite{Stevens:2012}{\citename {Stevens \bgroup et al.\egroup }2012}
\bibcite{hdp}{\citename {Teh \bgroup et al.\egroup }2006}
\bibcite{Yang:2015}{\citename {Yang \bgroup et al.\egroup }2015}
\bibstyle{acl2016}
