v,u,score
normas,iso,7
impacto,ambiental,5
combustion,interna,5
circuito,equivalente,5
potencia,indicada,4
gas,natural,4
esfuerzo,cortante,4
aire,comprimido,4
vibracion,libre,3
ventilacion,industrial,3
vapor,sobrecalentado,3
uniones,soldadas,3
turbinas,hidraulicas,3
termica,balance,3
t,s,3
sistemas,neumaticos,3
poder,calorifico,3
metodo,grafico,3
maquina,termica,3
maquina,refrigeradora,3
instalaciones,industriales,3
inercia,radio,3
fuerza,cortante,3
flujo,interno,3
esfuerzo,normal,3
engranajes,cilindricos,3
eficiencia,volumetrica,3
dientes,rectos,3
corriente,alterna,3
consideraciones,generales,3
componentes,principales,3
ciclos,termodinamicos,3
cargas,estaticas,3
capa,limite,3
balance,termico,3
analisis,dimensional,3
volumetrica,real,2
vigas,curvas,2
vibracion,forzada,2
vapor,ciclo,2
uniones,uniones,2
uniones,empernadas,2
uniones,atornilladas,2
tuberias,tuberias,2
trifasicos,balanceados,2
transmisiones,flexibles,2
tecnologias,modernas,2
soldadura,cordones,2
sistemas,interconectados,2
sistemas,hidraulicos,2
sistemas,balanceados,2
servicio,esfuerzo,2
seguridad,industrial,2
seguridad,factor,2
rueda,dentada,2
routh,hurwitz,2
respuesta,transitoria,2
resortes,generalidades,2
resena,historica,2
relaciones,aire,2
rc,circuitos,2
procesos,politropicos,2
procesos,industriales,2
presion,constante,2
plantas,termicas,2
planos,p,2
planos,fuerzas,2
perfiles,estructurales,2
perdidas,internas,2
p,v,2
operativos,sistema,2
onda,completa,2
norma,ansi,2
nociones,basicas,2
necesario,desarrollas,2
movimiento,relativo,2
motor,dc,2
momento,flector,2
modelos,lineales,2
mejora,continua,2
materiales,ii,2
maquina,reciprocante,2
mantenimiento,preventivo,2
mantenimiento,predictivo,2
mantenimiento,mantenimiento,2
manometro,diferencial,2
limite,laminar,2
iv,ondas,2
iso,normas,2
inductancia,mutua,2
indicada,potencia,2
higiene,industrial,2
h,s,2
grupos,electrogenos,2
generalidades,materiales,2
friccion,seca,2
frecuencias,naturales,2
frecuencia,diagramas,2
foco,termico,2
flujo,turbulento,2
flujo,laminar,2
flujo,externo,2
flujo,compresible,2
flujo,axial,2
flexibles,generalidades,2
fajas,planas,2
externas,balance,2
exponente,politropico,2
evaluacion,financiera,2
evaluacion,economica,2
estructura,basica,2
estacionario,coeficientes,2
esfuerzos,permisibles,2
engranajes,engranajes,2
engranajes,conicos,2
energias,renovables,2
energia,interna,2
energia,almacenada,2
eficiencia,termica,2
eficiencia,energetica,2
eficiencia,adiabatica,2
diversos,factores,2
diseno,esfuerzos,2
diesel,procesos,2
dientes,helicoidales,2
desplazamiento,positivo,2
cuerpo,rigido,2
corrosion,electroquimica,2
corriente,continua,2
controladores,logicos,2
continuidad,teorema,2
consideraciones,basicas,2
compresores,centrifugos,2
compresores,analisis,2
compresor,eficiencia,2
combustion,energia,2
coeficiente,global,2
circuitos,trifasicos,2
circuitos,transitorios,2
circuitos,rectificadores,2
circuitos,acoplados,2
circuito,abierto,2
ciclo,termico,2
ciclo,otto,2
ciclo,diesel,2
ciclo,combinado,2
cargas,excentricas,2
cargas,distribuidas,2
cargadas,simetricamente,2
carga,axial,2
calor,transferido,2
calidad,revision,2
bombas,hidraulicas,2
basicas,sistemas,2
balanceo,estatico,2
balance,energetico,2
axial,grado,2
atornilladas,generalidades,2
armaduras,planas,2
armaduras,espaciales,2
amortiguamiento,viscoso,2
aire,combustible,2
aire,acondicionado,2
acoplamientos,generalidades,2
acoplados,magneticamente,2
acabado,superficial,2
zener,fotodiodos,1
zapatas,aislados,1
zapata,pivotante,1
zapata,interior,1
zapata,exterior,1
young,carga,1
wohler,factores,1
winkler,bach,1
williams,equipo,1
vs,relacion,1
von,karman,1
volumetrico,laminacion,1
volumetrica,convencional,1
volumetrica,conveccion,1
volumen,muerto,1
volumen,constante,1
voltaje,real,1
voltaje,polarizacion,1
voltaje,generado,1
voltaje,constante,1
voltaje,alterno,1
volantes,generalidades,1
volantes,balanceo,1
visualizacion,grafica,1
visual,guia,1
viscoso,vibracion,1
viscoso,turbulento,1
viscoso,movimiento,1
viscoso,laminar,1
viscosidad,presion,1
viscosidad,indice,1
viscosa,lubricacion,1
violaciones,frecuentes,1
vigilancia,medica,1
vigas,torsion,1
vigas,relacion,1
vigas,metodos,1
vigas,hiperestaticas,1
vigas,continuas,1
vidrio,fibra,1
verticidad,flujo,1
vertical,efectos,1
vertical,diagrama,1
vertical,condensacion,1
venturi,placa,1
ventilador,centrifugo,1
ventilacion,centrifugo,1
venenosas,sistemicos,1
velocidad,maquinas,1
velocidad,curvas,1
velocidad,critica,1
velocidad,cordal,1
velocidad,campos,1
velocidad,angular,1
vehicular,equipos,1
vectoriales,lineas,1
vectores,arbitrarios,1
vector,movimiento,1
vector,carga,1
vatimetros,modelos,1
vatimetros,circuitos,1
vaso,cerrado,1
varios,sitios,1
varios,grados,1
varias,secuencias,1
variables,localizacion,1
variables,exposicion,1
variable,saliente,1
variable,pc2,1
variable,negativa,1
variable,elementos,1
vapores,condensables,1
vapor,temperatura,1
vapor,sistemas,1
vapor,reid,1
vapor,perdidas,1
vapor,multiples,1
vapor,flujo,1
vapor,factor,1
vapor,eficiencia,1
vapor,distribucion,1
vapor,dimensionamiento,1
vapor,componentes,1
vapor,cogeneracion,1
vapor,camara,1
vapor,calentadores,1
vapor,caldero,1
vapor,analisis,1
valorizaciones,economicas,1
valorizacion,economica,1
valores,picos,1
valores,particulares,1
valores,limites,1
valores,instantaneos,1
valores,c,1
valor,presente,1
valor,planificado,1
valor,ganado,1
valor,futuro,1
valor,eficaz,1
valor,economico,1
valor,analisis,1
vacio,prueba,1
vacio,flujo,1
v,i,1
v,generalidades,1
v,especiales,1
v,c,1
v,analisis,1
utilizacion,mundial,1
usos,soportes,1
usos,nucleares,1
urbanos,ubicacion,1
universal,densimetro,1
unitarios,estimar,1
uniones,sometidas,1
uniones,roscadas,1
uniones,remachadas,1
union,p,1
union,metal,1
union,circuitos,1
union,bipolar,1
uniformes,procesos,1
uniformemente,distribuidas,1
uniforme,corrosion,1
unidimensionales,asociados,1
unidimensionales,armaduras,1
umbrales,limites,1
ultraligeras,generalidades,1
ubicacion,verificacion,1
u,oxidacion,1
turbulento,ductos,1
turbulenta,combustion,1
turbulencia,correlaciones,1
turborreactor,turbofan,1
turbomaquinas,transferencia,1
turbomaquinas,rotores,1
turbomaquinas,nomenclatura,1
turbomaquinas,i,1
turbomaquinas,hidraulicas,1
turbomaquinas,eficiencia,1
turbomaquinas,curvas,1
turbomaquinas,cavitacion,1
turbomaquinas,analisis,1
turbomaquinas,altura,1
turbojet,balance,1
turbohelice,turbojet,1
turbohelice,intensificacion,1
turbinas,eolicas,1
turbina,rendimiento,1
turbina,refrigerada,1
turbina,pelton,1
turbina,libre,1
turbina,francis,1
turbina,eficiencia,1
turbina,curvas,1
turbina,ciclo,1
turbina,camara,1
tungsteno,galvanoplastia,1
tubos,termicos,1
tuberias,velocidades,1
tuberias,valvulas,1
tuberias,turbinas,1
tuberias,soportes,1
tuberias,planos,1
tuberias,engranajes,1
tuberia,diseno,1
tuberia,comercial,1
trompos,simetricos,1
trifasicos,desbalanceados,1
tribologia,medida,1
triangulo,secuencias,1
trayectorias,cinematicas,1
trayectoria,fases,1
tratamientos,termicos,1
tratamientos,superficiales,1
tratamiento,ahorro,1
traslacion,rotacion,1
traslacion,pura,1
traslacion,ejes,1
traslacion,angulos,1
transversal,factores,1
transportes,neumaticos,1
transporte,diseno,1
transportadores,sistemas,1
transmiten,potencia,1
transmisiones,rigidas,1
transmision,automotriz,1
transitorios,rc,1
transitorio,respuesta,1
transitoria,perturbaciones,1
transito,reduccion,1
transistor,funcionamiento,1
transistor,bjt,1
transformadores,trifasicos,1
transformadores,arranque,1
transformador,monofasico,1
transformaciones,energeticas,1
transferido,diagrama,1
transferencia,unidimensional,1
transferencia,teorema,1
transferencia,moldeo,1
transferencia,convectiva,1
trafico,distribucion,1
traccion,unidimensional,1
traccion,simple,1
tpm,evolucion,1
tpm,contaminacion,1
tpm,actividades,1
totales,evaluar,1
total,sistema,1
torsion,flexion,1
torsion,combinados,1
torque,requerido,1
torque,desarrollado,1
torno,horizontal,1
tornillos,uniones,1
tornillo,sinfin,1
torneado,taladradora,1
torneado,operaciones,1
toque,descarga,1
topologica,analisis,1
topograficos,velocidad,1
topograficos,relaciones,1
toman,gobiernos,1
tolerancias,tolerancias,1
tolerancias,iso,1
tolerancias,geometricas,1
tolerancias,geometicas,1
tolerancias,estadisticas,1
tolerancia,proyectada,1
tolerancia,diferencia,1
toberas,carcaza,1
tobera,turbohelice,1
tobera,supersonica,1
tobera,subsonica,1
tobera,propulsiva,1
tiro,natural,1
timers,on,1
tierra,temporal,1
tierra,responsabilidad,1
tierra,preocupan,1
tierra,permanente,1
tierra,mision,1
thomson,grafico,1
termoformado,colado,1
termodinamicos,combustibles,1
termodinamicos,ciclo,1
termodinamico,elementos,1
termodinamicas,relacion,1
termodinamicas,razon,1
termodinamicas,generales,1
termodinamica,ii,1
termodinamica,i,1
termodinamica,entropia,1
termodinamica,calidad,1
termocupla,bimetalico,1
terminologia,especializada,1
terminales,valvulas,1
terminales,circuitos,1
termicos,esfuerzos,1
termico,indicadores,1
termico,fuente,1
termico,determinacion,1
termico,consideraciones,1
termico,condiciones,1
termicas,dimensionamiento,1
termica,mejoramiento,1
termica,intensidad,1
termica,foco,1
termica,eficiencia,1
termica,aislamiento,1
teratogenos,vias,1
teoremas,relacionados,1
teorema,teorema,1
teorema,pi,1
teorema,lame,1
tensiones,trifasicas,1
tensiones,comparaciones,1
tension,tension,1
tension,normal,1
tension,inducida,1
tension,frecuencia,1
tension,externa,1
tension,corrosion,1
tension,constante,1
tension,alterna,1
tendencias,futuras,1
temporizadores,procedimiento,1
temporal,servidumbre,1
temperaturas,metodo,1
temperatura,vs,1
temperatura,medicion,1
temperatura,maxima,1
temperatura,diferencias,1
temperatura,desigualdad,1
tecnologicos,descripcion,1
tecnologica,instrumentacion,1
tecnologica,hornos,1
tecnologica,equipos,1
tecnologias,tecnologias,1
taylor,geometria,1
tasa,real,1
tasa,pasiva,1
tasa,activa,1
tanques,pulmon,1
tangenciales,metodo,1
tamano,pequeno,1
tacometro,electronico,1
tabular,formato,1
tablero,simplex,1
t,v,1
t,temperatura,1
t,p,1
sustancias,toxicas,1
sustancia,simple,1
sustancia,pura,1
sustancia,curva,1
superposicion,teoremas,1
superposicion,modal,1
superficies,sumergidas,1
superficies,rerradiantes,1
superficies,radiacion,1
superficies,negras,1
superficies,intercambio,1
superficies,grises,1
superficies,fundamentos,1
superficies,extendidas,1
superficie,termodinamica,1
superficie,segregaciones,1
superficie,calentada,1
superficial,tolerancia,1
superficial,indicaciones,1
suministro,mixto,1
suministro,codigo,1
suministro,calidad,1
suministrador,facultades,1
sumidero,maquina,1
sumergidos,empuje,1
sumergidas,planas,1
sumergidas,flotacion,1
sumergidas,curvas,1
sumatoria,momento,1
sujetadores,roscados,1
suelos,cimentacion,1
sucesos,actividades,1
succion,npsh,1
subestandar,requisitos,1
sub,superficiales,1
sub,sector,1
sub,comites,1
sub,amortiguado,1
stokes,velocidad,1
stokes,ejercicios,1
stick,out,1
steiner,momentos,1
stefan,boltzmann,1
soplo,magnetico,1
soplado,moldeo,1
sonoras,decibeles,1
solidificacion,diseno,1
soldadura,peligros,1
soldadura,oxigas,1
soldadura,oxiacetilenica,1
soldadura,i,1
soldadura,gtaw,1
soldadura,fuerte,1
soldadura,factores,1
soldadura,electrodos,1
soldadura,blanda,1
soldadura,aleaciones,1
soldadas,uniones,1
soldadas,sometidas,1
soldadas,sistemas,1
soldadas,procedimientos,1
soderberg,factor,1
soderberg,cordones,1
social,tratados,1
social,proyectos,1
sobremedidas,perdida,1
slit,siso,1
situacion,actual,1
sistemicos,depresores,1
sistemas,unidireccionales,1
sistemas,unidimensionales,1
sistemas,trifasicos,1
sistemas,suministro,1
sistemas,slit,1
sistemas,sistemas,1
sistemas,relaimentacion,1
sistemas,realimentados,1
sistemas,principales,1
sistemas,oleohidraulicos,1
sistemas,monofasicos,1
sistemas,lineales,1
sistemas,kamban,1
sistemas,expertos,1
sistemas,evaluacion,1
sistemas,especiales,1
sistemas,equivalentes,1
sistemas,eolicos,1
sistemas,electronicos,1
sistemas,electrohidraulicos,1
sistemas,eficiencia,1
sistemas,efectividad,1
sistemas,dinamicos,1
sistemas,construccion,1
sistemas,confiabilidad,1
sistemas,colectores,1
sistemas,bidimensionales,1
sistemas,bi,1
sistemas,auxiliares,1
sistemas,automatizados,1
sistemas,amortiguados,1
sistemas,aditivos,1
sistema,variables,1
sistema,polifasico,1
sistema,pendulo,1
sistema,informativo,1
sistema,inercial,1
sistema,flujo,1
sistema,financiero,1
sistema,economicamente,1
sistema,dual,1
sistema,convencional,1
sistema,cableados,1
sistema,by,1
sistema,analisis,1
sistema,ampliacion,1
sistema,alterno,1
sistema,alimentador,1
siso,respuesta,1
siso,modelamiento,1
siso,metodos,1
sinusoidal,corriente,1
sintonizacion,cojinetes,1
sincronos,dispositivos,1
simultaneas,salto,1
simultanea,eleccion,1
simplex,restriccion,1
simplex,primal,1
simplex,dual,1
simples,esfuerzos,1
simple,valor,1
simple,real,1
simple,movimiento,1
simple,interes,1
simple,efecto,1
simple,compresible,1
simetricas,entidades,1
simbolos,notas,1
simbolos,iso,1
simbolos,indicaciones,1
simbolos,basicos,1
simbologia,sistemas,1
simbologia,iso,1
simbologia,isa,1
simbologia,general,1
simbologia,ansi,1
signos,variable,1
sierras,bandas,1
shunt,flujo,1
severidad,calculo,1
set,point,1
servicios,diagramacion,1
servicio,comercial,1
servicio,automotriz,1
sensor,digital,1
sensitividad,respuesta,1
senales,electronicas,1
senales,eleccion,1
senales,discretas,1
senales,dicretas,1
senales,analogas,1
senal,configuraciones,1
senal,circuitos,1
semiesfericos,calculo,1
semiconductores,semiconductores,1
semiconductores,intrinsecos,1
semiconductores,extrinsecos,1
selectiva,corrosion,1
seleccion,pasadores,1
seleccion,ejercicios,1
seleccion,disenos,1
seleccion,aluminio,1
seguridad,transmision,1
seguridad,sistema,1
seguridad,secuencia,1
seguridad,inventarios,1
seguridad,espacios,1
seguridad,equipos,1
seguridad,defenza,1
seguir,dinamica,1
seguimiento,analisis,1
seguidor,plano,1
seguidor,excentrico,1
seguidor,basculante,1
segregaciones,anisotropia,1
secuencias,simultaneas,1
secuencias,secuencias,1
secuenciales,industriales,1
secos,calculos,1
seccion,variable,1
seccion,rectangular,1
seccion,ejercicios,1
seccion,cuadrada,1
seccion,corte,1
seccion,constante,1
seccion,anular,1
seca,u,1
seca,friccion,1
saw,fuentes,1
saturacion,adiabatica,1
sankey,balance,1
salud,funcion,1
salud,capacitacion,1
salto,condicional,1
salidas,programacion,1
saldos,negativos,1
s,valor,1
s,temperaturas,1
s,r,1
s,diagrama,1
rutas,criticas,1
ruinas,arqueologicas,1
ruidos,medicion,1
ruido,radiaciones,1
ruido,industrial,1
ruido,controlos,1
ruido,balance,1
ruedas,lubricacion,1
rpm,constante,1
rozamiento,superficial,1
rozamiento,seco,1
rotulo,escalas,1
rotoricas,puesta,1
rotores,radiales,1
rotores,axiales,1
rotor,requisitos,1
rotor,libre,1
rotor,conexion,1
rotor,bloqueado,1
rotodinamicas,curvas,1
rotaciones,desbalanceadas,1
rotacional,termoformado,1
rotacion,pura,1
rotacion,matriz,1
rotacion,ejes,1
rostro,proteccion,1
roscas,designacion,1
roscados,remolques,1
roscadas,sistema,1
rosca,cuadrada,1
rodillos,semiesfericos,1
rodillos,generalidades,1
rodillos,conicos,1
rodillos,cilindricos,1
rodillo,leva,1
rodamientos,rodamientos,1
rodamiento,capacidad,1
rodadura,pura,1
rociadores,automaticos,1
ritz,galerkin,1
rigido,trompos,1
rigido,conservacion,1
rigidez,vector,1
rigidez,uniones,1
rigidez,esfuerzos,1
rigidas,engranajes,1
riesgos,oficina,1
riesgos,enfoque,1
riesgos,control,1
riesgos,analisis,1
riesgo,potencial,1
reynolds,vertedero,1
reynolds,teorema,1
revoluciones,nq,1
revision,gerencial,1
revision,continua,1
reversibles,diagramas,1
reversible,flujo,1
reversibilidad,factores,1
reversa,balanceo,1
retorno,rapido,1
retentive,timer,1
restrictivas,tolerancia,1
restriccion,completa,1
respuesta,temporal,1
respuesta,impulsiva,1
respuesta,forzada,1
responsabilidad,universal,1
responsabilidad,compartida,1
respiratoria,entrada,1
resortes,helicoidales,1
resorte,resortes,1
resonancia,vibracion,1
resonancia,frecuencia,1
resolucion,ministerial,1
resistivos,conexion,1
resistiva,pura,1
resistencias,estatoricas,1
resistencia,rotoricas,1
residuos,peligrosos,1
rerradiantes,radiacion,1
requiere,desarrollar,1
requiere,demostrar,1
requerido,funcion,1
representaciones,graficas,1
representacion,grafica,1
representacion,fasorial,1
representacion,alternativa,1
reposicion,dispositivos,1
reportar,condiciones,1
reparacion,directa,1
rentabilidad,financiera,1
rendimiento,relativo,1
rendimiento,interno,1
rendimiento,economico,1
rendimiento,contaminacion,1
rendimiento,absoluto,1
remoto,sintonizacion,1
remolques,metodos,1
reluctancia,magnetica,1
reles,realizacion,1
reles,instantaneos,1
reles,direccionales,1
reles,diferenciales,1
relativo,determinacion,1
relativas,limite,1
relativa,punto,1
relaciones,termodinamicas,1
relaciones,ral,1
relaciones,interdepartamentales,1
relacionados,algoritmos,1
relacion,q,1
relacion,funcional,1
relacion,estequiometrica,1
regulatorias,ambientales,1
regulares,entidades,1
regulados,clientes,1
regulacion,v,1
regulacion,diagrama,1
registros,analisis,1
regiones,deformadas,1
regen,comandos,1
refuerzos,bulones,1
refrigerantes,principales,1
refrigerante,ciclo,1
refrigeradora,coeficiente,1
refrigeracion,sistema,1
refrigeracion,refrigerantes,1
refrigeracion,operacion,1
refrigeracion,industrial,1
refrigeracion,balance,1
redondeos,biseles,1
redaccion,consideraciones,1
red,interna,1
red,externa,1
recursos,variacion,1
recursos,planificacion,1
recursos,naturales,1
recursos,accesibles,1
recurso,curva,1
recubrimientos,protectores,1
recubrimientos,organicos,1
recubrimientos,metalicos,1
recubrimientos,electrolitico,1
rectos,calculo,1
rectificadores,circuitos,1
recorridos,diagrama,1
reciprocantes,frecuencia,1
reciprocante,parametros,1
recierre,automatico,1
recalentamiento,analisis,1
realizar,ensayos,1
realimentacion,influencia,1
reales,modelos,1
real,fuentes,1
real,dc,1
real,combustion,1
real,analisis,1
reactiva,instrumentacion,1
reacciones,anodicas,1
reaccion,entalpia,1
reaccion,diseno,1
reaccion,calor,1
rc,analisis,1
razonable,seguridad,1
ratio,lazos,1
rapido,aceleracion,1
rankine,parametros,1
ramas,independientes,1
rama,rl,1
rama,resistiva,1
rama,inductiva,1
rama,capacitiva,1
ram,jet,1
ral,desarrollo,1
raices,diseno,1
radio,critico,1
radiales,efectos,1
radial,rotores,1
radial,grado,1
radiaciones,electromagneticas,1
radiacion,volumetrica,1
radiacion,termica,1
radiacion,ley,1
r,s,1
q,t,1
purificadores,ruido,1
pura,velocidades,1
pura,sustancia,1
pura,rotacion,1
pura,rama,1
pura,punto,1
pura,comportandose,1
pura,alrededor,1
puntos,muertos,1
puntos,coincidentes,1
puntos,circuitos,1
puntos,auxilares,1
punto,triple,1
punto,orientado,1
punto,critico,1
puntaje,carga,1
pulvimetalurgia,descripcion,1
pulverizado,sistema,1
puede,cuidar,1
publico,obligaciones,1
publica,tendencias,1
psicologico,enfoque,1
pruebas,pruebas,1
prueba,violaciones,1
proyectos,viables,1
proyectos,inflacion,1
proyectos,hitos,1
proyectos,herramientas,1
proyectos,fracasos,1
proyectos,fases,1
proyectos,factores,1
proyectos,descomposicion,1
proyectos,ciclo,1
proyectos,ambientales,1
proyecto,requiere,1
proyecto,preliminar,1
proyecto,planos,1
proyecto,lay,1
proyecto,definitivo,1
proyecto,d,1
proyectada,condicion,1
proyecciones,ortogonales,1
proyeccion,sistemas,1
proyeccion,lineas,1
proyeccion,iso,1
proximidad,grafico,1
protectores,polarizacion,1
proteccion,respiratoria,1
proteccion,personal,1
proteccion,modificando,1
proteccion,anodica,1
proteccion,ambiental,1
propulsiva,turborreactor,1
propulsion,aerea,1
propuesta,agenda,1
proporcionalidad,seleccion,1
promedio,ponderado,1
progresivo,acotado,1
programacion,normalizados,1
programacion,lineal,1
programacion,funciones,1
programacion,evaluacion,1
programacion,estructurada,1
profundidades,presentacion,1
productos,sobremedidas,1
productos,secos,1
productos,lesivos,1
productos,combustion,1
productos,ceramicos,1
producto,tension,1
producto,proceso,1
producto,perdida,1
producto,lay,1
producto,extrusion,1
producto,diagrama,1
producto,capacidad,1
productivos,diseno,1
productivo,total,1
productividad,descomposicion,1
produccion,perdida,1
produccion,maquinado,1
produccion,existentes,1
produccion,automatizacion,1
procesos,tolerancias,1
procesos,termodinamicos,1
procesos,tecnologicos,1
procesos,secuenciales,1
procesos,reversibles,1
procesos,representacion,1
procesos,productivos,1
procesos,eficiencia,1
procesos,asimilables,1
proceso,saw,1
proceso,lineal,1
proceso,lay,1
proceso,isoentopico,1
proceso,intermitente,1
proceso,gtaw,1
proceso,gmaw,1
proceso,fcaw,1
proceso,energia,1
proceso,controlado,1
procedimientos,documentados,1
principales,usos,1
principales,latones,1
principales,instrumentos,1
principales,direccionamiento,1
principales,aleaciones,1
primal,dual,1
previstos,revision,1
prevision,inventarios,1
preventivo,diagramas,1
presupuestos,efectividad,1
presupuestos,cronograma,1
presupuestal,centros,1
prestamo,bancario,1
presiones,multiples,1
presion,temperatura,1
presion,optima,1
presion,medicion,1
presion,fundicion,1
presion,fuerzas,1
presente,valor,1
presente,neto,1
prensas,esmeriladoras,1
premisa,requiere,1
prematuro,proceso,1
preliminar,optimo,1
predictivo,industrial,1
predictivo,fundamentos,1
prediccion,analitica,1
predeterminados,tablas,1
precision,error,1
precio,investigacion,1
precedencia,tasa,1
precalentadores,aire,1
pre,tratamiento,1
pre,factibilidad,1
potencial,galvanico,1
potencial,elastica,1
potencia,suministrada,1
potencia,real,1
potencia,isotermica,1
potencia,hidraulica,1
potencia,efectiva,1
potencia,diagramas,1
potencia,conexion,1
potencia,cambio,1
potencia,aerodinamica,1
potencia,activa,1
post,optimo,1
posibilidades,tecnologicas,1
polvos,procesos,1
polvos,polimeros,1
polvos,obtencion,1
polvos,metalicos,1
polos,colector,1
politropicos,exponente,1
politropica,procesos,1
politropia,procesos,1
politica,operacional,1
polimeros,materiales,1
polimerizacion,procesos,1
polimerizacion,metodos,1
polilineas,edicion,1
polilineas,division,1
polilineas,construccion,1
poligonos,regulares,1
polifasico,sistemas,1
poleas,seleccion,1
poleas,maquinas,1
polarizacion,proteccion,1
polarizacion,inversa,1
polarizacion,fija,1
polarizacion,electroquimica,1
polarizacion,directa,1
polar,compleja,1
point,local,1
poder,hacer,1
plc,comparacion,1
plazo,ponderacion,1
plazo,incluyendo,1
plazo,analisis,1
plataformas,abiertas,1
plasticos,clases,1
plasticidad,energia,1
planteados,analisis,1
plantas,potencia,1
plantas,industriales,1
plantas,frigorificas,1
plantas,arreglos,1
plantacion,financiera,1
planta,vapor,1
planta,sistema,1
planta,relacion,1
planta,organizacion,1
planta,lay,1
planta,factor,1
planta,determinacion,1
planta,contratacion,1
planta,comisionamiento,1
planta,balance,1
planos,termodinamicas,1
planos,simples,1
planos,inclinados,1
planos,guias,1
planos,esquematicos,1
planos,dibujo,1
plano,traslacion,1
plano,h,1
plano,general,1
plano,ejes,1
plano,centrado,1
plano,basculante,1
plano,balanceo,1
plano,analisis,1
plank,ley,1
planificacion,presupuestal,1
planificacion,holguras,1
planificacion,estrategica,1
planificacion,actividades,1
planeamiento,estrategico,1
planeadas,sistema,1
planas,tejidas,1
planas,flexion,1
planas,determinacion,1
plana,capa,1
placas,termicas,1
placas,planas,1
placas,delgadas,1
placas,circulares,1
pistola,metodos,1
pintado,requerimientos,1
pinon,interferencia,1
pilling,bedwort,1
piezas,fundidas,1
piezas,construidas,1
piedra,artificial,1
pid,estimacion,1
pid,control,1
picaduras,corrosion,1
pgc,sgc,1
peso,muerto,1
perturbaciones,sensitividad,1
perturbaciones,calidad,1
pert,estadistico,1
pert,diferencia,1
pert,cpm,1
pert,analisis,1
persona,recorrido,1
persona,efectos,1
perno,carga,1
permitan,disenar,1
permisibles,medidas,1
permisibles,capacidad,1
permeabilidad,magnetica,1
permanente,unidimensional,1
permanente,generador,1
permanente,conexion,1
perfomance,reversibilidad,1
perdido,relaciones,1
perdidas,totales,1
perdidas,indirectas,1
perdidas,externas,1
perdidas,directas,1
perdidas,comites,1
percusion,centro,1
peralte,efectivo,1
pequeno,estandarizacion,1
pequena,senal,1
pensky,martens,1
pendulo,simple,1
pendulo,invertido,1
peligrosos,control,1
pelicular,vs,1
pelicular,ebullicion,1
pelicula,delgada,1
pedido,calculo,1
pc,plc,1
pass,sistema,1
paso,tension,1
pasillos,escaleras,1
pasadores,uniones,1
pasadores,representacion,1
pasadores,designacion,1
particulas,metalicas,1
particulas,dinamica,1
particulas,contaminantes,1
particulas,compuestos,1
particulares,diagrama,1
particula,ley,1
particula,gases,1
partes,iguales,1
partes,criticas,1
parque,automotor,1
parametros,operaciones,1
parametros,indicados,1
parametros,efectivos,1
parametros,basicos,1
paralelo,usos,1
paralelo,parametros,1
paralelo,impedancia,1
paralelo,excitados,1
paralelo,ensayo,1
paralelo,acotado,1
paralelas,entidades,1
pappus,guldinus,1
panorama,general,1
paletas,eleccion,1
palanqueo,total,1
palanqueo,operativo,1
palanqueo,financiero,1
pago,metodos,1
pacto,global,1
p,t,1
p,n,1
p,densidad,1
oxigeno,combustion,1
oxigas,gases,1
oxidos,oxidos,1
oxidacion,grado,1
oxidacion,directa,1
oxidacion,corrosion,1
oxi,acetileno,1
over,haull,1
otto,procesos,1
otto,ciclo,1
osmosis,inversa,1
oscurecimiento,global,1
osciloscopio,digital,1
osciloscopio,circuitos,1
oscilacion,determinacion,1
orsat,procedimiento,1
origen,lineas,1
origen,distribucion,1
orificio,tanque,1
orientacion,tolerancias,1
organizaciones,empresariales,1
organizacion,estructural,1
organizacion,beneficiada,1
organismos,reguladores,1
organismo,supervisor,1
organigramas,reportes,1
organicos,generalidades,1
organicas,sinteticas,1
organicas,naturales,1
organica,reacciones,1
ordinarios,hierros,1
ordinarios,bronces,1
ordenamiento,territorial,1
ordenada,tableu,1
orden,sistemas,1
orden,rl,1
orden,respuesta,1
orden,rc,1
orden,circuitos,1
optimo,presentar,1
optimizacion,lineal,1
optimas,alternativas,1
opticas,intercambio,1
operaciones,naturaleza,1
operaciones,maquinas,1
operaciones,financieras,1
operacion,prensas,1
operacion,polarizacion,1
operacion,financiera,1
operacion,economica,1
operacion,depreciacion,1
op,amps,1
op,amp,1
ondas,sonoras,1
onda,rectificador,1
onda,interpretacion,1
onda,alterna,1
on,off,1
on,delay,1
oleo,neumaticos,1
olas,oceanicas,1
oidos,proteccion,1
oido,radiacion,1
off,delay,1
ocupacionales,factores,1
ocioso,balance,1
observaciones,planeadas,1
observacion,selectiva,1
observacion,completa,1
oblicuo,fuerza,1
nucleo,ferromagnetico,1
nucleares,aleaciones,1
nucleada,ebullicion,1
ntroduccion,normas,1
notacion,polar,1
notacion,fasorial,1
notables,amplificadores,1
norton,teorema,1
normativo,organismo,1
normas,regulatorias,1
normas,ntp,1
normas,formatos,1
normas,din,1
normas,basicas,1
normas,ashrae,1
normalizadas,velocidad,1
normalizadas,procedimiento,1
normalizadas,esfuerzos,1
normalizadas,alfabeto,1
normal,coordenadas,1
normal,confiabilidad,1
norma,asme,1
nor,oeste,1
nomenclatura,diagrama,1
nodales,sistemas,1
nodales,funciones,1
nichols,ralciones,1
neutro,aislado,1
neutra,formula,1
neumaticos,esquema,1
neumaticos,circuitos,1
neumaticos,automatizacion,1
neumaticas,elementos,1
neto,maximo,1
nerst,medicion,1
necesario,revisar,1
navier,stokes,1
naver,stokes,1
natural,vehicular,1
natural,gas,1
natural,exterior,1
natural,conversion,1
natural,control,1
natural,calculo,1
natural,analisis,1
n,polarizada,1
mutua,transformador,1
muros,cimentacion,1
multiples,sistemas,1
multiples,metodo,1
multiples,grados,1
multiples,etapas,1
multiples,diagrama,1
multiples,coeficiente,1
multiples,cilindros,1
multiples,ciclo,1
multiple,reaccion,1
multiple,efecto,1
multiparametricas,coeficiente,1
multigrado,aceites,1
muestra,curva,1
muerto,potencia,1
muerto,eficiencia,1
muerto,compresor,1
ms,project,1
movimientos,teorema,1
movimientos,simultaneos,1
movimientos,componentes,1
movimiento,sub,1
movimiento,promedio,1
movimiento,plano,1
movimiento,nomenclatura,1
movimiento,lineal,1
movimiento,indicaciones,1
movimiento,general,1
movimiento,criticamente,1
movimiento,arrastre,1
movimiento,armonico,1
movimiento,absoluto,1
movil,juegos,1
mover,entidades,1
motriz,termica,1
motores,sobrealimentados,1
motores,sincronos,1
motores,otto,1
motores,diesel,1
motores,alternativos,1
motor,trifasico,1
motor,tamano,1
motor,real,1
motor,modelo,1
motor,elemental,1
motor,aspecto,1
motor,asincrono,1
motocompresion,evaporacion,1
morfologica,elaboracion,1
montaje,perfiles,1
montaje,combinacion,1
monografias,cimentaciones,1
monografia,transporte,1
monografia,sistema,1
monofasicos,prueba,1
monofasicos,compresores,1
monofasico,transformador,1
monofasico,real,1
monofasico,conexiones,1
monofasico,conectado,1
monofasico,circuitos,1
momentum,momentum,1
momentum,lineal,1
momentum,angular,1
momentos,principales,1
momentos,inerciales,1
momento,polar,1
momento,maximo,1
momento,efectivo,1
momento,central,1
momento,axico,1
moldeo,rotacional,1
mol,cp,1
mohr,ejes,1
modo,ortogonal,1
modo,multiple,1
modernas,demostracion,1
modem,cableado,1
modelos,simples,1
modelos,planteados,1
modelos,metodo,1
modelo,matrices,1
modelo,general,1
modelo,fases,1
modelo,equivalente,1
modelo,circuital,1
modales,coordenadas,1
modal,varios,1
mixto,acotado,1
miscelanea,resortes,1
minerales,funciones,1
microprocesadores,desarrollo,1
micro,manometro,1
mezclas,gas,1
mezclas,bifasicas,1
mezcla,saturada,1
mezcla,estequiometrica,1
mezcla,curvas,1
metrados,presupuestos,1
metodos,registro,1
metodos,productividad,1
metodos,preparacion,1
metodos,industriales,1
metodos,generales,1
metodos,fases,1
metodos,creativos,1
metodos,analiticos,1
metodo,sistematico,1
metodo,simplex,1
metodo,paso,1
metodo,ingles,1
metodo,generalizado,1
metodo,empirico,1
metodo,elastico,1
metodo,cientifico,1
metodo,cascada,1
metodo,carga,1
metodo,americano,1
metodo,aleman,1
metalicos,limitaciones,1
metalicos,diseno,1
metalica,particulas,1
metales,maquinas,1
metales,corte,1
metales,antifriccion,1
metal,metal,1
metal,liquido,1
metal,fundido,1
metal,fases,1
metal,analisis,1
meta,dislocaciones,1
mercurio,diferencias,1
memoria,descriptiva,1
mejorado,diagrama,1
medidas,sistemas,1
medida,calidad,1
mediciones,estadisticas,1
medicion,seleccion,1
mci,estructura,1
mci,ciclos,1
maxwell,teoremas,1
maximo,material,1
maximo,esfuerzo,1
maxima,transferencia,1
maxima,potencia,1
maxima,energia,1
maxima,deformacion,1
matriz,ordenada,1
matriz,morfologica,1
matriz,metalica,1
matriz,global,1
matriz,foda,1
matlab,respuesta,1
matlab,evaluacion,1
materiales,vitreos,1
materiales,recepcion,1
materiales,plasticos,1
materiales,perfiles,1
materiales,miscelaneos,1
materiales,inflamables,1
materiales,i,1
materiales,fragiles,1
materiales,fibrosos,1
materiales,ferromagneticos,1
materiales,elastomeros,1
materiales,ductiles,1
materiales,dimensiones,1
materiales,demostracion,1
materiales,deformados,1
materiales,compuestos,1
materiales,cargas,1
materiales,aptos,1
materiales,antifriccion,1
materiales,abrasivos,1
maslow,motivacion,1
martens,determinacion,1
marginales,penalidades,1
maquinas,rotativas,1
maquinas,ii,1
maquinas,i,1
maquinas,herramientas,1
maquinado,ensamble,1
maquina,real,1
maquina,motor,1
maquina,frecuencia,1
maquina,elemental,1
maquina,dc,1
manufactura,lineas,1
manufactura,ii,1
manufactura,i,1
manufactura,fundamentos,1
manufactura,control,1
manuales,tablas,1
mantenimiento,soporte,1
mantenimiento,relaciones,1
mantenimiento,productivo,1
mantenimiento,presupuesto,1
mantenimiento,politicas,1
mantenimiento,planificado,1
mantenimiento,planificacion,1
mantenimiento,personal,1
mantenimiento,organizacion,1
mantenimiento,ordenes,1
mantenimiento,jerarquias,1
mantenimiento,graficos,1
mantenimiento,evaluacion,1
mantenimiento,estructura,1
mantenimiento,elevadores,1
mantenimiento,eleccion,1
mantenimiento,diferencias,1
mantenimiento,control,1
mantemiento,predictivo,1
manometria,manometros,1
mano,fijas,1
mano,escaleras,1
mano,alzada,1
manivela,directa,1
maniobras,detectores,1
manera,sencilla,1
mandos,neumaticos,1
mandos,hidraulicos,1
mando,sistemas,1
mando,cableado,1
mando,automatico,1
man,auto,1
magneticos,alimentados,1
magnetico,respuesta,1
magnetico,principal,1
magnetico,giratorio,1
magnetico,constante,1
magneticas,permeabilidad,1
magnetica,relativa,1
madera,materiales,1
macaw,fuentes,1
m,c,1
luego,desarrolla,1
lubricantes,sinteticos,1
lubricantes,basicos,1
lubricantes,aditivados,1
lubricante,normas,1
lubricante,monogrado,1
lubricacion,sistemas,1
lubricacion,procedimiento,1
lubricacion,pelicula,1
lubricacion,limite,1
lubricacion,hidrodinamica,1
lubricacion,determinacion,1
lotes,controladores,1
logicas,secuencias,1
logicas,elaboracion,1
logica,difusa,1
localizada,corrosion,1
localizacion,factores,1
localizacion,comparacion,1
local,remoto,1
llenado,deduccion,1
llama,laminar,1
llama,autoencendido,1
llama,adiabatica,1
listas,maestras,1
liquidos,reduccion,1
liquidos,inflamables,1
liquidos,combustibles,1
liquido,comprimido,1
liquida,corrosion,1
lineas,iso,1
lineas,indicadores,1
lineales,modelamiento,1
lineales,liberalizacion,1
lineales,control,1
lineal,constante,1
linea,piezometrica,1
linea,conexiones,1
linea,comandos,1
limpieza,filtracion,1
limites,permisibles,1
limite,turbulenta,1
limite,termica,1
limite,restringido,1
limite,movil,1
limitaciones,relacion,1
libres,comision,1
libre,vibracion,1
libre,funcionamiento,1
libre,exterior,1
libertad,nodales,1
libertad,modales,1
liberalizacion,analisis,1
leyes,experimentales,1
ley,calidad,1
leverage,financiero,1
levas,trayectorias,1
levas,sistemas,1
levas,leva,1
leva,polinomial,1
leva,parabolica,1
leva,cicloidal,1
leva,calculo,1
leva,armonica,1
lesiones,indice,1
lenguetas,designacion,1
lenguaje,matlab,1
lena,analisis,1
lazos,simples,1
lay,out,1
latones,principales,1
largo,plazo,1
laminar,lama,1
laminar,flujo,1
laminar,espesor,1
laminar,ejercicios,1
laminacion,extrusion,1
lamina,n,1
lama,turbulenta,1
ladder,diagram,1
l,c,1
l,apariencia,1
kirchhoff,reconocimiento,1
kirchhoff,metodos,1
kirchhoff,balance,1
kelvin,plank,1
kamban,operacion,1
kamban,determinacion,1
k,ley,1
juntas,terminales,1
juegos,maximo,1
joule,u,1
joule,thomson,1
joule,bryton,1
jit,metodo,1
jet,subsonico,1
isotermicos,eficiencia,1
isoentropicos,eficiencia,1
iso,representacion,1
iso,precedencia,1
iso,indicaciones,1
iso,acabados,1
irritantes,venenosas,1
irregulares,fuerzas,1
inyeccion,moldeo,1
inyeccion,diesel,1
inyeccion,common,1
involuta,comparacion,1
investigar,presentacion,1
investigar,eleccion,1
investigacion,exposicion,1
investigacion,cientifica,1
inverso,procesos,1
inversiones,industriales,1
inversiones,cinematicas,1
inversion,total,1
inversa,polarizacion,1
inventarios,sistema,1
inventarios,inventario,1
inventarios,analisis,1
inventarios,altos,1
introductorios,glosario,1
intrinsecos,portadores,1
interruptores,fusibles,1
interruptores,circuitos,1
interpretacion,analitica,1
interno,relativo,1
interno,ii,1
interno,i,1
interno,conveccion,1
interno,capa,1
interna,tour,1
interna,sistema,1
interna,grasas,1
interna,dimensionamiento,1
interna,determinacion,1
intermitente,proceso,1
intergranular,corrosion,1
interferencia,engranajes,1
interes,simple,1
interes,relacionado,1
interes,constante,1
interes,compuesto,1
interconectados,carga,1
intercambio,radiante,1
intensidad,maxima,1
inteligencia,artificial,1
integracion,grafica,1
integracion,energetica,1
instrumentos,principales,1
instrumentacion,terminologia,1
instrumentacion,simbologia,1
instrumentacion,requerido,1
instrumentacion,necesaria,1
instrumentacion,mediciones,1
instrumentacion,diseno,1
instrumentacion,calibracion,1
instalaciones,miscelaneas,1
instalaciones,hidraulicas,1
instalaciones,establecimiento,1
inspecciones,planeadas,1
inspecciones,generales,1
inspeccion,visual,1
inspeccion,partes,1
innovacion,tecnologica,1
inmersion,total,1
inicial,almacenada,1
informes,sistemas,1
informes,diseno,1
informe,sustentatorio,1
informe,observacion,1
informe,brundtland,1
inflamables,liquidos,1
inflacion,diagramas,1
inercia,ejes,1
industriales,subestacion,1
industriales,residuos,1
industriales,referentes,1
industriales,red,1
industriales,modos,1
industriales,instalaciones,1
industrial,ahorro,1
industrial,accidentes,1
inductores,energia,1
inductores,analisis,1
inductiva,pura,1
inducida,avisos,1
inducen,caras,1
induccion,velocidad,1
induccion,seleccion,1
induccion,mutua,1
induccion,frecuencia,1
induccion,determinacion,1
induccion,campo,1
indirectas,interrupcion,1
indices,prevencion,1
indicados,perdidas,1
indicadores,cotas,1
indicada,compresores,1
indicaciones,especiales,1
indicaciones,complementarias,1
indicaciones,adicionales,1
indeterminado,sistema,1
indeterminacion,isostatica,1
independientes,ramas,1
incompleta,aire,1
inclinado,manometro,1
incierta,calculo,1
incidentes,enfermedades,1
incendios,evacuacion,1
incendio,sistemas,1
incendio,extintores,1
incendio,equipos,1
inalambrico,desarrollo,1
impurezas,influencia,1
impulsiva,respuesta,1
imposiciones,conmocion,1
importantes,relacionados,1
importantes,referidas,1
importantes,primal,1
importantes,control,1
implementar,sistemas,1
implementacion,circuitos,1
impedancias,inductivas,1
impedancias,ganancias,1
impactos,control,1
impacto9s,determinacion,1
impacto,recepcion,1
iluminacion,instalaciones,1
iluminacion,industrial,1
iii,flujo,1
ii,armaduras,1
iguales,edicion,1
identificacion,esencial,1
hurwitz,respuesta,1
hurwitz,analisis,1
huecos,semiconductores,1
horizontal,formato,1
hooke,esfuerzos,1
hooke,calculo,1
hitos,sucesos,1
histeresis,perdidas,1
hirschhorn,metodo,1
hipotesis,basica,1
hiperestaticos,torsion,1
hiperestaticas,metodos,1
hilton,turbina,1
higiene,ocupacional,1
higiene,compensacion,1
hierros,fundidos,1
hierro,materiales,1
hierro,carbono,1
hidrodinamica,lubricacion,1
hidrodinamica,diagrama,1
hidrocarburos,naciones,1
hidraulicos,instalaciones,1
hidraulico,froude,1
hidraulicas,pelton,1
hidraulicas,mandos,1
hidraulicas,depresion,1
hidraulicas,basicas,1
hidraulica,tecnologias,1
hidraulica,potencia,1
hibrido,completo,1
herramientas,instrumentos,1
herramientas,fundamento,1
herramientas,fluido,1
herramientas,cinematica,1
herramientas,abrasivas,1
helicoidales,calculo,1
hazen,williams,1
haull,supervision,1
hall,ault,1
hacen,posible,1
hace,necesario,1
habilidades,resultantes,1
h,materiales,1
gtaw,fuentes,1
grupos,lay,1
gruesos,teorema,1
grubler,inversiones,1
grises,superficies,1
grietas,corrosion,1
grid,modo,1
granos,cristalinos,1
grano,regiones,1
gran,intensidad,1
grafico,t,1
goodman,metodo,1
gmaw,fuentes,1
global,vs,1
giro,teorema,1
giro,centro,1
giro,arranque,1
giratorio,producido,1
gestion,integral,1
gestion,financiera,1
gestion,empresarial,1
gerencial,acciones,1
geometricos,velocidades,1
geometria,parametros,1
geometria,cargas,1
generalizado,procesos,1
generalidades,tolerancias,1
generalidades,soldadura,1
generalidades,procesos,1
generalidades,orden,1
generalidades,magnitud,1
generalidades,factores,1
generalidades,extraccion,1
generalidades,conformacion,1
generalidades,cinetica,1
generales,planeadas,1
generales,mezcla,1
generales,elementos,1
general,proteccion,1
general,iso,1
general,absoluto,1
generador,sincrono,1
generador,shunt,1
generador,dc,1
generacion,interna,1
generacion,circuitos,1
gases,tiro,1
gases,reales,1
gases,protectores,1
gases,mezcla,1
gases,equipo,1
gases,combustibles,1
gases,atmosfera,1
gases,almacenamiento,1
gaseosas,calidad,1
gaseosa,corrosion,1
gas,vapor,1
gas,simples,1
gas,ram,1
gas,manipuleo,1
gas,licuado,1
gas,funcionamiento,1
gas,componentes,1
gas,ciclo,1
gantt,usos,1
gant,usos,1
ganado,valor,1
galvanicas,fenomenos,1
galerkin,concordancia,1
galerkin,calculo,1
futuro,comun,1
fusion,posterior,1
fusion,materiales,1
fundidos,ordinarios,1
fundidos,hierros,1
fundidos,especiales,1
fundidos,aleados,1
fundido,recubrimientos,1
fundicion,consideraciones,1
fundicion,centrifuga,1
fundamentos,recubrimiento,1
fundamentos,fosfatacion,1
fundamentos,estructura,1
fundaciones,aisladas,1
fundacion,resonancia,1
fundacion,calculo,1
funciones,singulares,1
funciones,logicas,1
funcionamiento,etapas,1
funcionamiento,economico,1
funcionamiento,dispositivos,1
funcionamiento,descripcion,1
funcionamiento,corrientes,1
funcionamiento,compresor,1
funcionamiento,comparacion,1
funcion,financiera,1
funcion,da,1
fugas,influencia,1
fuerzas,oscilatorias,1
fuerzas,distribuidas,1
fuerza,viscosa,1
fuerza,resultante,1
fuerza,motriz,1
fuerza,electromotriz,1
fuerza,contraelectromotriz,1
fuerza,arbitraria,1
fuentes,renovables,1
fuentes,independientes,1
fuentes,dependientes,1
fuente,sumidero,1
fuente,contaminadora,1
froude,manteniendo,1
frontal,dibujo,1
frio,sinterizado,1
frio,regiones,1
frio,influencia,1
frigorificas,cargas,1
friccion,lubricante,1
friccion,fluida,1
frias,capacidad,1
frias,calculo,1
fresadora,universal,1
freno,tacometro,1
freno,hidraulico,1
frecuentes,codigo,1
frecuencia,perturbaciones,1
frecuencia,indice,1
fre,proyectos,1
francis,generador,1
fraccion,mol,1
foucault,perdidas,1
fotovoltaicas,tecnologias,1
fotodiodos,diodos,1
fosforico,imprimaciones,1
fosfatado,conjunto,1
fosfatacion,decapado,1
forzadas,vibracion,1
forzada,generalizada,1
formulas,tarifarias,1
formulas,analiticas,1
formato,vertical,1
formato,tabular,1
formato,arquitectonico,1
formato,analitico,1
forja,aleaciones,1
fondos,netos,1
fondos,intereses,1
flujos,medicion,1
flujogramas,do,1
flujogramas,dif,1
flujo,viscoso,1
flujo,transversal,1
flujo,total,1
flujo,refrigerante,1
flujo,real,1
flujo,rayleigh,1
flujo,radial,1
flujo,potencial,1
flujo,normas,1
flujo,masico,1
flujo,magnetico,1
flujo,irrotacional,1
flujo,incompresible,1
flujo,fanno,1
flujo,estable,1
flujo,diagramas,1
flujo,diabatico,1
flujo,ciclo,1
flujo,adiabatico,1
fluidos,ii,1
fluidos,i,1
fluidos,estaticos,1
fluido,radial,1
fluido,comprimido,1
fluida,causas,1
fluctuantes,ensayo,1
flexion,combinados,1
flexibles,seleccion,1
flectores,vigas,1
flama,recubrimiento,1
fiscalizador,guia,1
financieros,fondo,1
financieras,interes,1
financiera,analisis,1
financiamiento,total,1
fin,rueda,1
filtracion,sistema,1
filete,intermitente,1
fijos,tangibles,1
fijo,aprietes,1
fijas,tablones,1
fija,polarizacion,1
fierros,fundidos,1
fierro,medicion,1
field,bus,1
ficheros,procesamiento,1
fibras,organicas,1
fibras,inorganicas,1
fibras,fibra,1
fibras,continuas,1
fibra,neutra,1
fibra,moderna,1
fet,amplificadores,1
ferrosos,metales,1
ferromagneticos,reluctancia,1
ferromagneticos,perdidas,1
ferromagnetico,determinacion,1
ferromagnetico,circuitos,1
fatiga,tecnologias,1
fatiga,simple,1
fatiga,limite,1
fatiga,combinada,1
fasoriales,potencia,1
fasorial,diagramas,1
fases,superficie,1
fases,metodo,1
fases,dispersas,1
fase,equilibrio,1
fallas,resistentes,1
fallas,informes,1
falla,tarifas,1
falla,curva,1
fajas,dentadas,1
factura,conformada,1
factura,comprobante,1
factores,modificatorios,1
factores,importantes,1
factores,financieros,1
factores,criticos,1
factores,asociados,1
factor,k,1
fabricar,maquinas,1
fabricacion,ventilacion,1
fabricacion,referencias,1
fabricacion,engranajes,1
fabricacion,componentes,1
fabricacion,cojinetes,1
fabricacion,actuales,1
fabricacion,acabado,1
extrusion,trefilado,1
extraccion,localizada,1
extraccion,diseno,1
extra,riesgosa,1
extintores,fijos,1
externo,flujo,1
externo,actuando,1
externa,discontinuidades,1
exterior,correlaciones,1
extensivas,planos,1
extendidas,eficiencias,1
extender,entidades,1
expresion,general,1
expositor,invitado,1
exposicion,permisibles,1
exposicion,oral,1
explosivos,gas,1
expertos,base,1
experimentos,ventilador,1
experimentos,compresor,1
experimentales,cinetica,1
expansion,termica,1
expansion,proceso,1
exigencias,basicas,1
excitacion,modelo,1
excitacion,armonica,1
excentricidad,maxima,1
excentricas,efectos,1
exacto,modelo,1
evitar,accidentes,1
evaporacion,simple,1
evaluar,alternativas,1
evaluacion,escrita,1
evaluacion,efectuar,1
euler,movimiento,1
etica,ambiental,1
etapas,turbina,1
etapas,refrigeracion,1
etapa,condicion,1
estructuras,simples,1
estructurada,programacion,1
estructura,general,1
estructura,funcional,1
estructura,financiera,1
estructura,documentacion,1
estructura,diagrama,1
estructura,corporativa,1
estrias,designacion,1
estriados,representacion,1
estrella,estrella,1
estrella,delta,1
estrategias,urbanas,1
estrategias,control,1
estime,conveniente,1
estequiometrico,mezcla,1
estequiometrica,relacion,1
estatoricas,arranque,1
estator,diagrama,1
estaticos,difusores,1
estaticos,degradacion,1
estaticas,comportamiento,1
estatica,duracion,1
estanque,ebullicion,1
estadistico,hipotesis,1
estadisticas,control,1
estacionario,respuesta,1
estacionario,error,1
estables,procesos,1
estable,energia,1
estable,capacitores,1
estabilidad,equilibrio,1
esquina,nor,1
esquemas,neumaticos,1
esquema,general,1
espesor,economico,1
especiales,secciones,1
especiales,oxidacion,1
especiales,monel,1
especiales,inspecciones,1
especiales,fajas,1
esparragos,designacion,1
espacios,requeridos,1
espacios,encerrados,1
espacios,comunes,1
espacios,cerrados,1
espacio,velocidad,1
espacio,proyectividad,1
espacio,momentum,1
espacio,energia,1
espacio,ejes,1
espaciales,metodo,1
esmeriladoras,sierras,1
esmeril,analisis,1
esfuerzos,uniones,1
esfuerzos,torsion,1
esfuerzos,termicos,1
esfuerzos,principales,1
esfuerzos,fluctuantes,1
esfuerzos,factor,1
esfuerzos,esfuerzos,1
esfuerzos,constantes,1
esfuerzos,combinados,1
esfuerzos,calculo,1
esfuerzos,adherencia,1
esfuerzo,localizacion,1
esfuerzo,efectivo,1
esfuerzo,deformacion,1
esfuerzo,admisibles,1
esfericas,transformacion,1
esferas,banco,1
esencial,abstracta,1
escape,parametros,1
escape,fases,1
escalon,turbinas,1
escalon,perdidas,1
escalon,escalones,1
escalon,axial,1
escaleras,escaleras,1
escalas,normalizadas,1
escala,termodinamica,1
escala,estrategia,1
escala,desconomia,1
errror,estacionario,1
error,estacionario,1
error,dinamico,1
equivalentes,velocidades,1
equivalentes,thevenin,1
equivalente,monofasico,1
equivalente,hibrido,1
equivalente,exacto,1
equivalente,divisor,1
equivalente,aproximado,1
equipos,puntos,1
equipos,miscelaneos,1
equipos,gmaw,1
equipos,compresores,1
equipos,asociados,1
equipo,vapor,1
equipo,sistema,1
equimolar,sistemas,1
equilibrio,termodinamico,1
equilibrio,relativo,1
equilibrio,estatico,1
equilibrio,dinamico,1
equilibradas,determinacion,1
epistemologia,exposicion,1
eolica,tecnologias,1
entropia,calculo,1
entropia,analisis,1
entrehierro,maquina,1
entrehierro,excitados,1
entramados,planos,1
entrada,contaminantes,1
entidades,uniformemente,1
entidades,simetricas,1
entidades,semejantes,1
entidades,rotadas,1
entidades,poligonos,1
entidades,mover,1
entidades,extender,1
entidades,copiar,1
entalpias,coeficientes,1
entalpias,calculo,1
entalpia,calores,1
entalladuras,esfuerzos,1
ensayos,destructivos,1
ensayos,demostracion,1
ensayo,compresion,1
ensayo,analisis,1
ensayar,materiales,1
enriquecimiento,estructura,1
engranajes,volantes,1
engranajes,planetarios,1
engranajes,levas,1
engranajes,geometria,1
enfriamiento,torres,1
enfriamiento,normas,1
enfriador,analisis,1
enfoque,psicologico,1
enfoque,coercitivo,1
enfermedades,ocupacionales,1
energizados,conexion,1
energia,vibracion,1
energia,relaciones,1
energia,reactiva,1
energia,potencial,1
energia,oferta,1
energia,limite,1
energia,inicial,1
energia,indicadores,1
energia,hidraulica,1
energia,geotermal,1
energia,flujo,1
energia,eolica,1
energia,energia,1
energia,elastica,1
energia,disponible,1
energia,demanda,1
energia,conservacion,1
energia,circuitos,1
energia,cinetica,1
energia,celdas,1
energia,bombas,1
energia,balance,1
energetico,relacion,1
energetico,eficiencia,1
energetico,datos,1
energetica,renovable,1
encerrados,proteccion,1
empuje,metodo,1
empuje,estabilidad,1
empresa,extra,1
empresa,evolucion,1
empresa,diferencias,1
empleando,construcciones,1
empernadas,uniones,1
empernadas,simples,1
empernadas,simetricas,1
empaquetaduras,generalidades,1
empaquetadura,anular,1
emisor,polarizacion,1
emisor,comun,1
emisiones,toxicas,1
emisiones,gaseosas,1
emergencia,brigadas,1
embrague,conico,1
em,reglamento,1
em,norma,1
em,direccion,1
em,dge,1
em,codigo,1
elevadores,calderas,1
elevada,aleaciones,1
elementos,sometidos,1
elementos,principales,1
elementos,pasivos,1
elementos,involucrados,1
elementos,funcionamiento,1
elementos,estaticos,1
elementos,curvos,1
elementos,continuos,1
elementos,cilindros,1
elementos,activos,1
elemento,normativo,1
elemento,fiscalizador,1
elemento,finito,1
elementales,enfoque,1
elemental,motor,1
elemental,dc,1
electroquimica,proteccion,1
electroquimica,componentes,1
electroquimica,causas,1
electronicos,sensores,1
electronico,contador,1
electronicas,amplificadores,1
electronica,sistemas,1
electroneumatica,asistida,1
electromotriz,inducida,1
electrolisis,fundamentos,1
electrogeno,cogeneracion,1
electrodos,rutilicos,1
electrodos,estructurales,1
electrodo,revestido,1
electrodo,potencial,1
electrocucion,riesgos,1
electrificacion,consumo,1
eleccion,condicional,1
elastomeros,sinteticos,1
elastomeros,elastomeros,1
ejes,principales,1
ejes,paralelos,1
ejes,materiales,1
ejes,inclinados,1
eje,potencia,1
eje,funcionamiento,1
eje,expresion,1
eje,eficiencia,1
eje,circular,1
eje,central,1
eje,base,1
eje,arbitrario,1
eje,analisis,1
efluentes,liquidos,1
eficiencia,vs,1
eficiencia,tratamiento,1
eficiencia,total,1
eficiencia,perdidas,1
eficiencia,maquina,1
eficiencia,isotermica,1
eficiencia,instrumentacion,1
eficiencia,indicada,1
eficiencia,flujo,1
eficiencia,efectiva,1
eficiencia,curvas,1
efectuar,auditorias,1
efectos,pruebas,1
efectos,matrices,1
efectos,evaluacion,1
efectos,determinacion,1
efectos,capacitivos,1
efecto,termico,1
efecto,invernadero,1
efecto,indicadores,1
efectivos,curvas,1
efectivo,uniaxial,1
efectividad,global,1
efectividad,funciones,1
efectividad,evaluar,1
editor,sistema,1
editor,entrada,1
economizadores,indicadores,1
economicos,ambientales,1
economico,financiero,1
economico,conduccion,1
economicas,hardware,1
economicamente,adaptado,1
economica,punto,1
economica,evaluacion,1
eco,sistema,1
ebullicion,pelicular,1
ebullicion,nucleada,1
duracion,metodo,1
ductos,perdidas,1
dual,optica,1
dual,metodo,1
documentos,analizar,1
doble,integracion,1
doble,efecto,1
dmlt,metodo,1
diversos,productos,1
diversas,profundidades,1
distribuidas,escalacion,1
distribucion,normal,1
distribucion,exponencial,1
distancia,medicion,1
distancia,centro,1
distancia,calculo,1
dispositivos,purificadores,1
dispositivos,demostracion,1
dispositivos,cmos,1
disposiciones,basicas,1
disposicion,general,1
disposicion,definitiva,1
dispersion,sistemas,1
dislocaciones,emergentes,1
disenos,preliminares,1
diseno,restricciones,1
diseno,procedimientos,1
diseno,factor,1
diseno,explicacion,1
diseno,disposicion,1
diseno,definir,1
diseno,aire,1
diseno,adecuado,1
disenar,sistemas,1
discretos,procesos,1
discreto,lenguaje,1
discreto,controladores,1
disco,embrague,1
disco,eje,1
disco,admision,1
discapacitados,iluminacion,1
directo,arranque,1
directas,perdidas,1
directa,corrosion,1
direccion,general,1
diodos,recta,1
diodos,emisores,1
diodo,zener,1
diodo,efectos,1
diodo,diodo,1
dinamicos,analisis,1
dinamico,transmision,1
dinamico,errror,1
dinamica,general,1
dinamica,critica,1
dinamica,comprende,1
dinamica,capacidad,1
din,flujogramas,1
dimensiones,normalizadas,1
dimensional,teorema,1
dimensional,perfiles,1
digital,visualizacion,1
difusores,toberas,1
difusores,eficiencia,1
difusiva,combustion,1
difusion,molecular,1
difusa,control,1
diferentes,teoremas,1
diferentes,temperaturas,1
diferentes,rpm,1
diferentes,relaciones,1
diferentes,radios,1
diferentes,excentricidades,1
diferentes,equipos,1
diferentes,diametros,1
diferentes,cargas,1
diferentes,alturas,1
diferencial,heterogeneidades,1
dif,modelo,1
diesel,sistema,1
diesel,combustibles,1
dicha,eficiencia,1
dicha,bomba,1
dibujos,fileteados,1
dibujo,partes,1
dibujo,linea,1
dibujo,comandos,1
diametro,economico,1
diagramas,topograficos,1
diagramas,fasoriales,1
diagramacion,simbolos,1
diagrama,unifilar,1
diagrama,t,1
diagrama,q,1
diagrama,polar,1
diagrama,p,1
diagrama,mejorado,1
diagrama,indicando,1
diagrama,horizontal,1
diagrama,causa,1
diagrama,bimanual,1
dge,reglamento,1
devanado,rotorico,1
determinacion,experimental,1
detalle,diagrama,1
destilacion,fraccionada,1
desplazamientos,exteriores,1
desplazamientos,elasticos,1
deslizamiento,comportamiento,1
designacion,juntas,1
designacion,elementos,1
deshechos,domesticos,1
desechos,industriales,1
descripcion,simbologia,1
describen,despues,1
desconcentracion,tratamiento,1
descarga,salidas,1
desbalanceados,circuitos,1
desarrollo,conceptual,1
desarrollar,planea,1
desarrollar,circuitos,1
desarrollado,fuerza,1
depresores,asfixiantes,1
depresion,dinamica,1
depreciacion,determinacion,1
dependientes,transformaciones,1
dependientes,simetria,1
dependientes,funciones,1
demostrar,fehacientemente,1
demanda,actual,1
delta,delta,1
delta,circuito,1
delgadas,productos,1
delgada,vigas,1
delgada,resistencia,1
delgada,lubricacion,1
deformaciones,tanques,1
deformacion,termica,1
deformacion,plastica,1
deformacion,homogenea,1
deformacion,circulo,1
deformacion,angular,1
defectos,superficiales,1
decreto,supremo,1
decreto,ley,1
decibeles,normas,1
dc,sistemas,1
dc,operando,1
dc,hardware,1
dc,expresion,1
dc,control,1
dc,autoexcitadas,1
dc,autoexcitacion,1
datos,termicos,1
datos,predeterminados,1
datos,hojas,1
datos,cursograma,1
darcy,weisbach,1
dalton,fraccion,1
cv,u,1
curvos,delgados,1
curvas,radio,1
curvas,intensidad,1
curvas,diversas,1
curva,s,1
curva,rayleigh,1
curva,b,1
curva,altura,1
cursograma,analitico,1
cuerpos,sumergidos,1
cuerpos,rodantes,1
cuerpos,irregulares,1
cuerpos,compuestos,1
cuerpo,real,1
cuerpo,libre,1
cuero,poleas,1
cuerda,comportamiento,1
cubos,estriados,1
cuarzo,abrasivos,1
cualquier,organizacion,1
critico,diagrama,1
criticas,sistema,1
criticas,inspecciones,1
criticas,control,1
criticamente,amortiguado,1
critica,ec,1
critica,altura,1
cristalinos,bordes,1
crc,desarrollo,1
cpm,pert,1
coulomb,morh,1
coulomb,coeficientes,1
cote,termico,1
cotas,simbolos,1
cota,terminacion,1
cota,indicacion,1
costuras,soldadas,1
cosenos,directores,1
cortocircuito,regulacion,1
cortocircuito,modelo,1
corto,plazo,1
cortes,simbolos,1
cortes,acotado,1
corte,vida,1
corte,torsion,1
corte,termico,1
corte,plasma,1
corte,plano,1
corte,ortogonal,1
corte,oblicuo,1
corte,lineas,1
corte,herramientas,1
cortante,transversal,1
corrosion,uniforme,1
corrosion,subterranea,1
corrosion,selectiva,1
corrosion,seca,1
corrosion,planeamiento,1
corrosion,perdidas,1
corrosion,modificando,1
corrosion,metales,1
corrosion,localizada,1
corrosion,liquida,1
corrosion,intergranular,1
corrosion,gaseosa,1
corrosion,galvanica,1
corrosion,erosion,1
corrosion,atmosferica,1
corriente,voltimetros,1
corriente,sinusoidal,1
corriente,real,1
corriente,natural,1
corriente,equivalencia,1
corriente,constante,1
correlaciones,empiricas,1
correcto,funcionamiento,1
correctivo,over,1
corporativa,recursos,1
coronas,flujo,1
coronas,coeficiente,1
coronas,alabeadas,1
cordones,traslapados,1
copiar,entidades,1
coordenadas,totales,1
coordenadas,tangencial,1
coordenadas,rectangulares,1
coordenadas,polares,1
coordenadas,moviles,1
coordenadas,esfericas,1
coordenadas,cilindricas,1
coordenadas,acotado,1
coordenadas,absolutas,1
conversion,directa,1
convencionales,intercambiadores,1
convencional,eficiencia,1
conveccion,natural,1
conveccion,libre,1
conveccion,forzada,1
controladores,secuenciales,1
controladores,p,1
controladores,controladores,1
controlador,pid,1
control,ubicacion,1
control,transformada,1
control,sustancia,1
control,sistemas,1
control,respuesta,1
control,obtencion,1
control,ms,1
control,modelos,1
control,man,1
control,liniales,1
control,l,1
control,inteligente,1
control,indices,1
control,financiero,1
control,estadistico,1
control,escrito,1
control,energia,1
control,discreto,1
control,diferentes,1
control,componentes,1
control,clasico,1
control,automatico,1
control,analogo,1
control,analisis,1
control,ambiental,1
contravolatje,modelo,1
contrapresion,pura,1
contradifusion,equimolar,1
continuos,discretos,1
continuos,analisis,1
continuo,balance,1
continuas,tratamiento,1
continua,seleccion,1
contenedores,implementacion,1
contaminacion,efectos,1
contaminacion,ambiental,1
contaminacion,almacenamiento,1
contactos,programacion,1
contacto,continuo,1
constructor,dif,1
constructivo,generico,1
constructivo,campo,1
construcciones,geometricas,1
constante,flujo,1
constante,circuitos,1
constante,ciclo,1
consigna,desarrollo,1
considerarse,adicionalmente,1
consideraciones,exposicion,1
consideraciones,economicas,1
consideraciones,acerca,1
conservacion,ambiental,1
conseguir,adherencia,1
consecuencias,irreversibles,1
conmutacion,transistores,1
conmocion,publica,1
conjunto,lavado,1
conjugada,involuta,1
conicos,rodamientos,1
conforman,valor,1
configuraciones,notables,1
configuraciones,leyes,1
configuraciones,basicas,1
configuracion,inversora,1
config,notables,1
confiabilidad,fallas,1
confiabilidad,diseno,1
conexion,mixta,1
conexion,formulas,1
conexion,estrella,1
conexion,delta,1
conductores,semiconductores,1
conduccion,unidimensional,1
conduccion,permanente,1
conduccion,operativa,1
condiciones,subsonicas,1
condiciones,subestandar,1
condensador,control,1
condensacion,trampas,1
condensacion,pelicular,1
condensacion,laminar,1
condensacion,intercambiadores,1
condensacion,condensacion,1
concreto,aceros,1
concentraciones,analisis,1
concentracion,pilas,1
comunicaciones,desarrollo,1
comunicacion,pc,1
comun,limites,1
compuestos,reforzados,1
compuestos,modernos,1
compuestos,materiales,1
compuesto,tasas,1
compuesto,clases,1
comprimido,produccion,1
comprimido,perdida,1
comprimido,fiabilidad,1
comprimido,componentes,1
comprimido,calculo,1
compresores,rotativos,1
compresores,reciprocantes,1
compresores,potencia,1
compresores,monofasicos,1
compresores,funcionamiento,1
compresores,ensayo,1
compresores,diseno,1
compresores,bifasicos,1
compresores,accesorios,1
compresor,sistemas,1
compresor,indice,1
compresor,economizadores,1
compresor,compresores,1
compresion,tensiones,1
compresion,proceso,1
compresion,presion,1
compresion,politropica,1
compresion,isotermicos,1
compresion,isoentropicos,1
compresion,fases,1
compresion,factores,1
compresion,eficiencia,1
compresible,unidimensional,1
compresible,fase,1
compresibilidad,generalizado,1
comprensor,centrifugo,1
comprension,diseno,1
comprension,adiabatica,1
composicion,combustion,1
comportamiento,global,1
componentes,sistemas,1
componentes,simetricas,1
componentes,radiales,1
componentes,proyectos,1
componentes,operaciones,1
componentes,neumeticos,1
componentes,neumaticos,1
componentes,leyes,1
componentes,hidraulicos,1
componentes,canteras,1
componentes,basicos,1
componentes,balance,1
complejidad,metodo,1
complejidad,determinacion,1
comparacion,simplex,1
compactos,sintetizados,1
common,rail,1
comisionamiento,desarrollo,1
comercial,conexiones,1
comercial,calidad,1
combustion,turbina,1
combustion,real,1
combustion,procesos,1
combustion,poder,1
combustion,modalidades,1
combustion,incompleta,1
combustion,hilton,1
combustion,factores,1
combustion,entalpia,1
combustion,emisiones,1
combustion,difusiva,1
combustion,diesel,1
combustion,compresor,1
combustion,comportamiento,1
combustion,completa,1
combustion,calculo,1
combustion,analizador,1
combustion,analisis,1
combustibles,liquidos,1
combustibles,explosivos,1
combustible,real,1
combustible,influencia,1
combustible,equipo,1
combustible,eficiencia,1
combustible,descripcion,1
comburente,combustibles,1
combinados,pandeo,1
combinados,esfuerzos,1
combinado,seleccion,1
combinada,desarrollo,1
comandos,snap,1
comandos,programacion,1
columna,liquida,1
columna,inclinada,1
colectores,planos,1
colectores,concentradores,1
colectores,calculo,1
colector,comun,1
cojinetes,fabricados,1
cojinetes,compactos,1
cogeneracion,relacion,1
cogeneracion,perdidas,1
cogeneracion,cogeneracion,1
cogeneracion,calculo,1
coercitivo,enfoque,1
coeficientes,tecnologicos,1
coeficiente,pelicular,1
coeficiente,joule,1
coeficiente,conductivo,1
cobre,latones,1
cmos,analisis,1
clientes,sistema,1
clientes,regulados,1
clientes,libres,1
clausius,rankine,1
clausius,analisis,1
circulares,seccion,1
circulares,cargadas,1
circular,hueco,1
circuitos,tipicos,1
circuitos,rl,1
circuitos,resistivos,1
circuitos,recortadores,1
circuitos,rc,1
circuitos,principales,1
circuitos,oleohidraulicos,1
circuitos,magneticos,1
circuitos,energizados,1
circuitos,elementos,1
circuitos,balanceados,1
circuito,rlc,1
circuito,monofasico,1
circuito,diferenciador,1
circuito,determinado,1
circuito,amplificador,1
circuitales,referidos,1
cinetica,plana,1
cinematicas,puntos,1
cimientos,fundaciones,1
cimientaciones,excentricidad,1
cimentaciones,sometidas,1
cimentaciones,requerimientos,1
cimentacion,generalidades,1
cilindros,presion,1
cilindros,neumaticos,1
cilindros,manivela,1
cilindricos,rodamientos,1
cicloidal,metodos,1
ciclo,simple,1
ciclo,regenerativo,1
ciclo,real,1
ciclo,predictivo,1
ciclo,joule,1
ciclo,inventario,1
ciclo,eficiencia,1
ciclo,dual,1
ciclo,clausius,1
ciclo,brayton,1
ciclo,binario,1
ciclo,abierto,1
choque,oblicuas,1
choque,normal,1
chispa,fases,1
chispa,factores,1
certeza,riesgo,1
cerrados,conveccion,1
cepilladoras,operaciones,1
cepilladora,maquinas,1
centro,instantaneo,1
centrifugo,compresor,1
centrifugas,descripcion,1
centrifuga,defectos,1
central,teorema,1
central,hidroelectrica,1
centrado,leva,1
cenizas,ducto,1
celdas,galvanicas,1
celda,electroquimica,1
causa,efecto,1
catodicas,potencial,1
catodica,modificando,1
castigliano,teorema,1
cascara,fundicion,1
cascada,disenos,1
cascada,ciclo,1
carter,metodo,1
carnot,invertido,1
carnot,inverso,1
carnot,escala,1
cargas,termicas,1
cargas,nodales,1
cargas,materiales,1
cargas,equilibradas,1
cargas,concentradas,1
cargas,combinadas,1
carga,variable,1
carga,transversal,1
carga,tarifas,1
carga,modelo,1
carga,maquina,1
carga,factor,1
carga,esfuerzos,1
carga,distancia,1
carga,dinamica,1
carga,curvas,1
carga,critica,1
carga,axila,1
carga,analisis,1
carga,acoplada,1
carcinogenos,teratogenos,1
carcaza,espiral,1
carbono,fibra,1
carbono,aceros,1
carbon,transportadores,1
carbon,pulverizado,1
carbon,mineral,1
capacitiva,pura,1
capacitacion,pruebas,1
capacidad,utilizacion,1
capacidad,planificacion,1
capacidad,metodo,1
capacidad,localizacion,1
capacidad,instalada,1
capacidad,incremento,1
capacidad,herramientas,1
capacidad,cuello,1
cantidad,economica,1
canteras,explotacion,1
campos,vectoriales,1
campo,relacion,1
campo,magnetico,1
campo,fet,1
campo,estructura,1
camisea,energias,1
caminos,bloque,1
cambios,climaticas,1
camaras,frigorificas,1
camaras,frias,1
calorimetro,universal,1
calorifico,entalpia,1
calores,absorbidos,1
calor,radiante,1
calor,metodo,1
calor,maximo,1
calor,latente,1
calor,juntas,1
calor,flujo,1
calor,especiales,1
calor,convencionales,1
calor,conduccion,1
calor,cogeneracion,1
calor,coeficiente,1
calor,calderas,1
calor,calculo,1
calor,bidimensional,1
calor,analisis,1
calificacion,explicita,1
caliente,influencia,1
caliente,calderas,1
calidad,utilizacion,1
calidad,diagrama,1
calidad,desarrollo,1
calidad,basicas,1
calidad,analisis,1
calibracion,seleccion,1
calentamiento,global,1
caldero,marcet,1
caldero,eficiencia,1
calderas,recuperadoras,1
calderas,metodologia,1
calderas,higiene,1
caldera,tratamiento,1
caldera,pirotubular,1
caldera,expansion,1
calculos,basados,1
calculo,variacional,1
calculo,uniones,1
calculo,termodinamico,1
calculo,termico,1
calculo,pro,1
calculo,pc1,1
cableados,cableados,1
cable,parabolico,1
cabeza,equipos,1
c,z,1
c,i,1
by,pass,1
busca,desarrollar,1
bryton,parametros,1
bronces,ordinarios,1
bronces,especiales,1
bronces,bronces,1
broca,helicoidal,1
brida,empaquetadura,1
breve,revision,1
breve,resena,1
breve,repaso,1
break,even,1
brayton,abierto,1
bourdon,calibrador,1
boro,hierro,1
bonos,elementos,1
bombeo,metodos,1
bombas,rotodinamicas,1
bombas,punto,1
bombas,centrifugas,1
bombas,bombas,1
bomba,turbina,1
bomba,calorimetrica,1
boltzmann,emitancia,1
bolas,rodamientos,1
bode,carta,1
bloques,rayado,1
bloques,calificacion,1
bloque,modos,1
bloque,diagramas,1
bloque,constructor,1
blassius,control,1
bjt,parametros,1
bjt,amplificador,1
bipolar,polarizacion,1
biomasa,tecnologias,1
bimetalica,corrosion,1
bimanual,diagrama,1
bifasicos,indicadores,1
bifasicas,tablas,1
bien,social,1
biela,manivela,1
bi,transfer,1
berilio,generalidades,1
beneficios,previstos,1
bedwort,estructura,1
bb,determinacion,1
basicos,origen,1
basicos,minerales,1
basicos,exposicion,1
basicos,etapa,1
basicos,automatismo,1
basicas,viscosidad,1
basicas,presentacion,1
basicas,modelo,1
basicas,compresores,1
basica,funcionamiento,1
basica,asignacion,1
base,sistema,1
base,seca,1
base,rotaciones,1
base,planificacion,1
base,designacion,1
base,comun,1
barras,inversion,1
barras,concurrentes,1
barra,pejes,1
bancadas,trifasicas,1
balances,economicos,1
balanceo,dinamico,1
balanceados,generacion,1
balance,general,1
b,h,1
azar,distribucion,1
axial,rendimiento,1
axial,prediccion,1
axial,esfuerzos,1
axial,elementos,1
axial,comparacion,1
axial,camara,1
auxiliares,arranque,1
automotor,fuente,1
automatizacion,industrial,1
automatizacion,desarrollo,1
automatismo,basicos,1
automatico,trifasico,1
autoinduccion,induccion,1
autoencendido,prematuro,1
autoencendido,llama,1
auto,transformadores,1
auditorias,internas,1
auditoria,exigidas,1
auditoria,elementos,1
auditores,decalogo,1
auditor,gestion,1
atomica,interpretacion,1
atmosferica,corrosion,1
aterramiento,compensacion,1
aspiracion,calculo,1
aspectos,importantes,1
aspecto,constructivo,1
asociaciones,astm,1
asme,norma,1
asincronos,controladores,1
ashrae,ahorro,1
asfixiantes,carcinogenos,1
artificiales,alumina,1
arrastre,lotes,1
arranque,regulacion,1
arranque,directo,1
arranque,automatico,1
arquitectonico,formato,1
armonica,sistemas,1
armonica,simple,1
armadura,efecto,1
armadura,aspectos,1
aproximado,modelos,1
aproximado,determinacion,1
aprietes,maximo,1
aprendizaje,usos,1
aprendizaje,efectos,1
aprendizaje,desarrollo,1
aprendizaje,competencias,1
antecedentes,exposicion,1
antecedentes,coeficiente,1
ansi,representacion,1
ansi,normas,1
angular,constante,1
analogas,sistemas,1
analogas,senales,1
analogas,control,1
analogas,conectividad,1
analizador,orsat,1
analiticos,velocidades,1
analitico,diagrama,1
analisis,preciso,1
analisis,post,1
analisis,modal,1
analisis,laminar,1
analisis,isoentropico,1
analisis,integral,1
analisis,fraccional,1
analisis,experimental,1
analisis,exacto,1
analisis,energetico,1
analisis,economico,1
analisis,diferencial,1
analisis,desconcentracion,1
analisis,cinematico,1
analisis,aproximado,1
analisis,aerotermodinamica,1
analisis,abc,1
amplificadores,operacionales,1
amplificadores,multietapa,1
amplificador,diferencial,1
amplificador,darlington,1
amplific,multietapa,1
amplif,conmutador,1
amortizaciones,constantes,1
amortizacion,depreciacion,1
amortizacion,amortizacion,1
amortiguamiento,vibracion,1
amortiguamiento,metodos,1
amortiguado,movimiento,1
ambos,departamentos,1
ambiente,riesgos,1
ambiente,reciclaje,1
ambiente,informe,1
ambiente,fuente,1
ambientales,valorizacion,1
ambientales,proyectos,1
ambiental,matriz,1
ambiental,innovacion,1
amagat,ley,1
aluminio,recubrimiento,1
aluminio,principales,1
alumina,cristalina,1
alumbrado,sustitucion,1
alumbrado,publico,1
alturas,hidraulicas,1
altura,estatica,1
altura,efectiva,1
altura,caudal,1
alterno,senoidal,1
alternativas,reevaluacion,1
alternativa,elegida,1
alterna,sinusoidal,1
alterna,ondas,1
alteraciones,ambientales,1
alteracion,ambiental,1
alta,frecuencia,1
alta,complejidad,1
almacenes,diseno,1
almacenada,expresiones,1
alimentacion,temperatura,1
alimentacion,optimizacion,1
alimentacion,auxiliar,1
algoritmos,simplex,1
algoritmos,pid,1
algebra,vectorial,1
algebra,topologica,1
algebra,booleana,1
aletas,conduccion,1
aleados,hierros,1
aleaciones,recubrimientos,1
aleaciones,principales,1
aleaciones,ligeras,1
aleaciones,industriales,1
aleaciones,hierro,1
aleaciones,generalidades,1
alcances,sistema,1
alcances,circuito,1
alambres,tubulares,1
alambre,caliente,1
alabes,radiales,1
alabes,directrices,1
alabes,calculo,1
alabes,axiales,1
alabeadas,escalon,1
ala,diagrama,1
ajustes,iso,1
ajustes,ajustes,1
ajuste,movil,1
ajuste,indeterminado,1
ajuste,fijo,1
ajuste,elementos,1
ajuste,constante,1
aislamiento,termico,1
aislados,metodo,1
aireacion,diferencial,1
aire,sistemas,1
aire,sicrometria,1
aire,panorama,1
aire,metodos,1
aire,limites,1
aire,estequiometrico,1
aire,combustion,1
aire,coeficiente,1
aire,atmosferico,1
aire,aire,1
agujero,base,1
agujas,rodamientos,1
agua,fuente,1
agua,dimensionamiento,1
agua,contaminacion,1
agua,caliente,1
agua,calculo,1
agregados,finos,1
agma,engranajes,1
agma,consideraciones,1
aforo,tubo,1
aerodinamica,transporte,1
aereas,sumergidas,1
aerea,rendimiento,1
aerea,compresor,1
adyacencia,factor,1
admision,proceso,1
administrativos,proteccion,1
aditivados,ensayos,1
adiabatico,reversible,1
adiabatico,irreversible,1
adiabatica,procesos,1
adherencia,momento,1
adherencia,esfuerzo,1
adecuado,operatividad,1
adecuacion,auditoria,1
acuerdos,concertados,1
actual,sistema,1
actuadores,senales,1
activos,fijos,1
activo,total,1
activo,financiero,1
actividades,pert,1
actividades,multiples,1
actividades,cpm,1
activacion,propagacion,1
acotado,tabular,1
acotado,progresivo,1
acotado,mixto,1
acotado,lineas,1
acotado,acotado,1
acotado,acabado,1
acoplo,conductivo,1
acoplamientos,rigidos,1
acido,fosforico,1
aceros,estructurales,1
aceros,aleados,1
aceleracion,sistemas,1
aceleracion,lineal,1
aceleracion,angular,1
aceites,lubricantes,1
aceites,basicos,1
acciones,correctivas,1
acciones,basicas,1
accion,escalones,1
accion,conjugada,1
accidentes,organizacion,1
accidentes,lesiones,1
accidentes,incidentes,1
accesorios,metodologia,1
acatamiento,ambientales,1
abstraccion,fijar,1
absorcion,atomica,1
abrasivos,naturales,1
abrasivos,herramientas,1
abrasivos,consideraciones,1
abrasivos,artificiales,1
abrasivos,abrasivos,1
abrasivas,operaciones,1
abraham,maslow,1
abiertas,pisos,1
abc,cantidad,1
