v,u,score
cuerpo,rigido,0.1617
realizar,ensayos,0.1137
uniones,soldadas,0.1002
capa,limite,0.0956
sistemas,neumaticos,0.0946
flujo,axial,0.0917
desarrollar,circuitos,0.0895
gas,natural,0.0891
programacion,lineal,0.0805
combustion,interna,0.0719
excitacion,armonica,0.0716
metodo,simplex,0.0715
analisis,dimensional,0.0700
maquinas,herramientas,0.0689
impacto,ambiental,0.0688
aire,acondicionado,0.0664
innovacion,tecnologica,0.0664
lamina,n,0.0594
flujo,interno,0.0589
ambiental,innovacion,0.0581
proyecto,preliminar,0.0552
flujo,viscoso,0.0543
placas,planas,0.0535
aire,comprimido,0.0508
uniones,roscadas,0.0504
tecnologica,instrumentacion,0.0498
torno,horizontal,0.0492
transformador,monofasico,0.0487
organizacion,beneficiada,0.0487
flujo,turbulento,0.0482
analisis,modal,0.0477
amortiguado,movimiento,0.0477
senales,analogas,0.0457
recubrimientos,protectores,0.0443
impactos,ambientales,0.0442
ram,jet,0.0439
normas,iso,0.0439
balance,termico,0.0434
plantas,termicas,0.0430
engranajes,cilindricos,0.0425
hierros,fundidos,0.0419
esfuerzos,permisibles,0.0417
slit,siso,0.0415
instalaciones,industriales,0.0411
navier,stokes,0.0407
circuitos,acoplados,0.0404
proceso,gmaw,0.0401
modelo,circuital,0.0399
maquina,dc,0.0399
uniones,atornilladas,0.0395
transmisiones,flexibles,0.0395
fajas,planas,0.0395
v,c,0.0386
sustancia,pura,0.0386
movimiento,relativo,0.0384
electroneumatica,asistida,0.0383
tecnologias,modernas,0.0379
transferencia,convectiva,0.0378
circuitos,trifasicos,0.0374
circuitos,transitorios,0.0374
limite,laminar,0.0374
ventilacion,industrial,0.0372
pequena,senal,0.0371
amortiguamiento,viscoso,0.0360
simplex,dual,0.0358
campo,magnetico,0.0354
deformacion,plastica,0.0353
turbina,pelton,0.0351
turbina,francis,0.0351
combustion,hilton,0.0351
ciclo,termico,0.0347
esfuerzo,cortante,0.0346
sistemas,hidraulicos,0.0343
resortes,helicoidales,0.0343
materiales,dimensiones,0.0343
dimensiones,normalizadas,0.0343
control,discreto,0.0343
dientes,rectos,0.0341
turbinas,hidraulicas,0.0339
acabado,superficial,0.0339
automatizacion,desarrollo,0.0332
cargas,estaticas,0.0331
flujo,adiabatico,0.0323
trifasicos,balanceados,0.0322
acoplados,magneticamente,0.0322
norma,iso,0.0322
procesos,industriales,0.0320
controladores,logicos,0.0320
sistemas,lineales,0.0311
logica,difusa,0.0311
motor,trifasico,0.0310
flujo,magnetico,0.0310
carga,axial,0.0308
rueda,dentada,0.0306
bombas,centrifugas,0.0306
valor,presente,0.0305
lay,out,0.0303
conveccion,forzada,0.0303
routh,hurwitz,0.0300
estacionario,coeficientes,0.0300
ciclos,termodinamicos,0.0299
ciclo,combinado,0.0296
perfiles,estructurales,0.0296
generalidades,materiales,0.0296
calentamiento,global,0.0295
ciclo,otto,0.0292
mantenimiento,predictivo,0.0288
arranque,directo,0.0285
vibraciones,libres,0.0283
orden,sistemas,0.0281
control,clasico,0.0281
uniones,empernadas,0.0281
fin,rueda,0.0280
circuito,equivalente,0.0280
eficiencia,volumetrica,0.0279
materiales,compuestos,0.0279
ciclo,termodinamico,0.0279
union,bipolar,0.0278
op,amp,0.0278
coeficiente,global,0.0276
flujo,irrotacional,0.0271
flujo,externo,0.0270
seccion,variable,0.0268
maximo,esfuerzo,0.0268
maxima,energia,0.0268
esfuerzos,fluctuantes,0.0268
elementos,curvos,0.0268
circuitos,magneticos,0.0266
rodadura,pura,0.0265
planos,simples,0.0265
alta,complejidad,0.0265
sistemas,equivalentes,0.0264
jet,subsonico,0.0264
planos,inclinados,0.0262
estructuras,simples,0.0262
esfuerzos,termicos,0.0262
esfuerzos,principales,0.0262
planta,termica,0.0259
eficiencia,adiabatica,0.0259
diagrama,t,0.0258
componentes,principales,0.0257
metodo,paso,0.0256
metodo,empirico,0.0256
circuitos,oleohidraulicos,0.0256
motor,dc,0.0255
vibracion,libre,0.0254
vibracion,forzada,0.0254
largo,plazo,0.0254
t,s,0.0248
fluido,radial,0.0244
elementos,estaticos,0.0244
diagramas,topograficos,0.0244
alabes,radiales,0.0244
circuitos,resistivos,0.0243
seccion,constante,0.0243
flujo,fanno,0.0243
circuitos,rectificadores,0.0242
libertad,nodales,0.0239
energia,elastica,0.0239
viscoso,movimiento,0.0239
varios,grados,0.0239
superposicion,modal,0.0239
sub,amortiguado,0.0239
sistemas,amortiguados,0.0239
simple,movimiento,0.0239
rotaciones,desbalanceadas,0.0239
respuesta,impulsiva,0.0239
respuesta,forzada,0.0239
pendulo,simple,0.0239
multiples,grados,0.0239
movimiento,sub,0.0239
movimiento,criticamente,0.0239
movimiento,armonico,0.0239
modal,varios,0.0239
impulsiva,respuesta,0.0239
fuerza,arbitraria,0.0239
frecuencias,naturales,0.0239
forzada,generalizada,0.0239
elementos,continuos,0.0239
disco,eje,0.0239
criticamente,amortiguado,0.0239
continuos,analisis,0.0239
base,rotaciones,0.0239
armonica,sistemas,0.0239
informe,sustentatorio,0.0237
exponente,politropico,0.0237
particulas,metalicas,0.0235
recierre,automatico,0.0234
cargas,excentricas,0.0233
armaduras,planas,0.0231
metodo,grafico,0.0230
vapor,multiples,0.0230
superficies,sumergidas,0.0230
rendimiento,interno,0.0230
propulsion,aerea,0.0230
interno,relativo,0.0230
equilibrio,relativo,0.0230
coronas,alabeadas,0.0230
uniones,remachadas,0.0229
transmisiones,rigidas,0.0229
esfuerzo,normal,0.0229
v,especiales,0.0228
torque,requerido,0.0228
terminologia,especializada,0.0228
perno,carga,0.0228
on,off,0.0228
instrumentacion,simbologia,0.0228
ajuste,constante,0.0228
bombas,hidraulicas,0.0228
calor,conduccion,0.0227
representacion,grafica,0.0223
ambiente,fuente,0.0221
resena,historica,0.0220
servicio,esfuerzo,0.0220
seguridad,factor,0.0220
diseno,esfuerzos,0.0220
eficiencia,termica,0.0218
stokes,velocidad,0.0217
particulas,dinamica,0.0217
particula,gases,0.0217
circuitos,tipicos,0.0217
flujo,compresible,0.0215
sistema,dual,0.0214
lubricantes,sinteticos,0.0214
limites,permisibles,0.0214
flujo,total,0.0214
aceites,basicos,0.0214
circuitos,equivalentes,0.0213
estructura,basica,0.0212
respuesta,transitoria,0.0211
frecuencia,diagramas,0.0211
parametros,indicados,0.0210
parametros,efectivos,0.0210
motores,diesel,0.0210
principales,aleaciones,0.0209
inercia,radio,0.0208
sistemas,slit,0.0207
sistemas,dinamicos,0.0207
respuesta,temporal,0.0207
metodos,graficos,0.0207
lineales,modelamiento,0.0207
estacionario,respuesta,0.0207
controladores,p,0.0207
vapor,analisis,0.0205
temperatura,medicion,0.0205
sub,sector,0.0205
presion,medicion,0.0205
flujos,medicion,0.0205
exposicion,oral,0.0205
decreto,supremo,0.0205
control,escrito,0.0205
axial,grado,0.0204
p,v,0.0204
curva,s,0.0202
termicas,dimensionamiento,0.0201
sistemas,suministro,0.0201
refrigerantes,principales,0.0201
presiones,multiples,0.0201
cascada,ciclo,0.0201
cargas,termicas,0.0201
camaras,frias,0.0201
aire,sicrometria,0.0201
aire,metodos,0.0201
potencia,indicada,0.0201
resortes,generalidades,0.0197
flexibles,generalidades,0.0197
atornilladas,generalidades,0.0197
corte,ortogonal,0.0197
consideraciones,economicas,0.0197
presion,constante,0.0197
desplazamiento,positivo,0.0195
consideraciones,generales,0.0194
t,v,0.0193
relaciones,termodinamicas,0.0193
vigas,curvas,0.0192
valores,picos,0.0191
osciloscopio,circuitos,0.0191
ensayar,materiales,0.0190
dispositivos,demostracion,0.0190
sistema,informativo,0.0189
productivo,total,0.0189
mantenimiento,productivo,0.0189
mantemiento,predictivo,0.0189
tolerancias,iso,0.0189
ansi,representacion,0.0189
aire,combustible,0.0189
corrosion,electroquimica,0.0188
higiene,industrial,0.0187
union,p,0.0185
transistor,bjt,0.0185
sistemas,electronicos,0.0185
p,n,0.0185
configuracion,inversora,0.0185
basica,funcionamiento,0.0185
amplificadores,operacionales,0.0185
energia,interna,0.0185
engranajes,conicos,0.0185
dientes,helicoidales,0.0185
coeficiente,pelicular,0.0183
bomba,turbina,0.0183
pura,rama,0.0182
fuentes,dependientes,0.0182
circuitos,rl,0.0182
ritz,galerkin,0.0179
nodales,sistemas,0.0179
elemento,finito,0.0179
cosenos,directores,0.0179
perdidas,internas,0.0179
externas,balance,0.0179
tablero,simplex,0.0179
optimizacion,lineal,0.0179
modelos,metodo,0.0179
modelo,general,0.0179
traslacion,pura,0.0178
traslacion,ejes,0.0178
rotacion,pura,0.0178
rotacion,ejes,0.0178
pura,rotacion,0.0178
energia,cinetica,0.0178
magnetico,giratorio,0.0177
magnetico,constante,0.0177
dc,operando,0.0177
aspecto,constructivo,0.0177
puntos,coincidentes,0.0177
polar,compleja,0.0177
notacion,polar,0.0177
multiples,cilindros,0.0177
metodos,analiticos,0.0177
balanceo,dinamico,0.0177
equilibrio,estatico,0.0176
ejes,principales,0.0176
evaluacion,financiera,0.0176
evaluacion,economica,0.0176
materiales,ii,0.0176
relaciones,aire,0.0176
manometro,diferencial,0.0176
interno,ii,0.0176
interno,i,0.0176
diferentes,relaciones,0.0176
ciclo,brayton,0.0176
consideraciones,basicas,0.0173
inspeccion,visual,0.0172
carga,variable,0.0172
carga,factor,0.0172
ciclo,diesel,0.0171
termico,indicadores,0.0171
perdidas,externas,0.0171
funcionamiento,descripcion,0.0171
analisis,energetico,0.0171
balanceo,estatico,0.0170
corriente,alterna,0.0170
poder,calorifico,0.0169
osmosis,inversa,0.0166
natural,vehicular,0.0166
natural,gas,0.0166
natural,conversion,0.0166
natural,calculo,0.0166
industrial,ahorro,0.0166
calor,cogeneracion,0.0166
caliente,calderas,0.0166
agua,caliente,0.0166
sustancias,toxicas,0.0165
materiales,inflamables,0.0165
control,ambiental,0.0165
momento,flector,0.0165
fuerza,cortante,0.0165
energia,almacenada,0.0164
engranajes,engranajes,0.0163
onda,completa,0.0162
red,interna,0.0162
red,externa,0.0162
limitaciones,relacion,0.0162
industriales,red,0.0162
flujo,rayleigh,0.0162
constante,flujo,0.0162
energias,renovables,0.0161
balance,energetico,0.0158
vapor,ciclo,0.0155
seguir,dinamica,0.0153
proyecto,planos,0.0153
presupuestos,cronograma,0.0153
precio,investigacion,0.0153
pre,factibilidad,0.0153
planta,determinacion,0.0153
planos,guias,0.0153
operacion,depreciacion,0.0153
metrados,presupuestos,0.0153
memoria,descriptiva,0.0153
financiera,analisis,0.0153
economica,evaluacion,0.0153
dinamica,general,0.0153
depreciacion,determinacion,0.0153
capacidad,instalada,0.0153
friccion,seca,0.0153
valor,futuro,0.0152
interes,simple,0.0152
estructura,financiera,0.0152
procesos,productivos,0.0152
superficies,extendidas,0.0151
radio,critico,0.0151
radiacion,volumetrica,0.0151
radiacion,termica,0.0151
permanente,unidimensional,0.0151
limite,termica,0.0151
generacion,interna,0.0151
difusion,molecular,0.0151
conveccion,natural,0.0151
conveccion,libre,0.0151
conduccion,permanente,0.0151
calculo,termico,0.0151
vapor,sobrecalentado,0.0151
mejora,continua,0.0149
seguidor,plano,0.0148
rodillo,leva,0.0148
componentes,basicos,0.0148
perdidas,indirectas,0.0148
valorizaciones,economicas,0.0147
parque,automotor,0.0147
oscurecimiento,global,0.0147
normas,regulatorias,0.0147
fuente,contaminadora,0.0147
etica,ambiental,0.0147
bien,social,0.0147
automotor,fuente,0.0147
eficiencia,energetica,0.0145
varias,secuencias,0.0142
transformadores,arranque,0.0142
sistema,cableados,0.0142
simultaneas,salto,0.0142
simultanea,eleccion,0.0142
senales,eleccion,0.0142
secuencias,simultaneas,0.0142
secuencias,simultanea,0.0142
secuencias,secuencias,0.0142
secuenciales,industriales,0.0142
salto,condicional,0.0142
salidas,programacion,0.0142
rotoricas,puesta,0.0142
resistencias,estatoricas,0.0142
resistencia,rotoricas,0.0142
reles,realizacion,0.0142
programacion,normalizados,0.0142
programacion,funciones,0.0142
programacion,estructurada,0.0142
procesos,secuenciales,0.0142
principales,direccionamiento,0.0142
plc,comparacion,0.0142
oleo,neumaticos,0.0142
neumaticos,circuitos,0.0142
motores,sincronos,0.0142
mandos,neumaticos,0.0142
mandos,hidraulicos,0.0142
mando,sistemas,0.0142
mando,cableado,0.0142
mando,automatico,0.0142
lotes,controladores,0.0142
logicas,secuencias,0.0142
logicas,elaboracion,0.0142
instalaciones,hidraulicas,0.0142
importantes,control,0.0142
hidraulicos,instalaciones,0.0142
hidraulicas,basicas,0.0142
giro,arranque,0.0142
funciones,logicas,0.0142
etapa,condicion,0.0142
estructurada,programacion,0.0142
estatoricas,arranque,0.0142
eleccion,condicional,0.0142
discretos,procesos,0.0142
directo,arranque,0.0142
controladores,secuenciales,0.0142
control,diferentes,0.0142
continuos,discretos,0.0142
contactos,programacion,0.0142
comprimido,produccion,0.0142
comprimido,componentes,0.0142
circuitos,principales,0.0142
cableados,cableados,0.0142
basicos,etapa,0.0142
basicos,automatismo,0.0142
basicas,sistemas,0.0142
automatismo,basicos,0.0142
auto,transformadores,0.0142
arranque,automatico,0.0142
flujo,laminar,0.0141
transitoria,perturbaciones,0.0141
sistemas,relaimentacion,0.0141
sistemas,realimentados,0.0141
sensitividad,respuesta,0.0141
realimentacion,influencia,0.0141
precision,error,0.0141
perturbaciones,sensitividad,0.0141
nichols,ralciones,0.0141
l,c,0.0141
errror,estacionario,0.0141
error,estacionario,0.0141
error,dinamico,0.0141
disenar,sistemas,0.0141
dinamico,errror,0.0141
controlador,pid,0.0141
control,obtencion,0.0141
control,liniales,0.0141
control,l,0.0141
control,componentes,0.0141
bode,carta,0.0141
acciones,basicas,0.0141
zapata,pivotante,0.0140
zapata,interior,0.0140
zapata,exterior,0.0140
velocidad,critica,0.0140
rodamiento,capacidad,0.0140
rectos,calculo,0.0140
pinon,interferencia,0.0140
materiales,cargas,0.0140
maquinas,ii,0.0140
helicoidales,calculo,0.0140
geometria,parametros,0.0140
geometria,cargas,0.0140
fabricacion,engranajes,0.0140
fabricacion,acabado,0.0140
estatica,duracion,0.0140
esfuerzos,calculo,0.0140
engranajes,geometria,0.0140
embrague,conico,0.0140
ejes,materiales,0.0140
duracion,metodo,0.0140
diseno,procedimientos,0.0140
disco,embrague,0.0140
dinamica,capacidad,0.0140
cargas,materiales,0.0140
carga,estatica,0.0140
carga,dinamica,0.0140
calculo,pro,0.0140
agma,engranajes,0.0140
agma,consideraciones,0.0140
parametros,basicos,0.0140
estructura,general,0.0140
constante,ciclo,0.0140
combustible,influencia,0.0140
breve,resena,0.0140
polvos,metalicos,0.0140
materiales,plasticos,0.0140
materiales,deformados,0.0140
fundidos,ordinarios,0.0140
fundidos,especiales,0.0140
fibras,organicas,0.0140
compuestos,reforzados,0.0140
aleaciones,ligeras,0.0140
aleaciones,industriales,0.0140
aceros,aleados,0.0140
termica,balance,0.0139
valor,analisis,0.0138
unitarios,estimar,0.0138
totales,evaluar,0.0138
situacion,actual,0.0138
proyecto,definitivo,0.0138
preliminar,optimo,0.0138
optimo,presentar,0.0138
morfologica,elaboracion,0.0138
metodos,creativos,0.0138
metodo,generalizado,0.0138
matriz,morfologica,0.0138
mano,alzada,0.0138
identificacion,esencial,0.0138
evaluar,alternativas,0.0138
evaluacion,efectuar,0.0138
estrategias,control,0.0138
esencial,abstracta,0.0138
efectividad,evaluar,0.0138
disposiciones,basicas,0.0138
disposicion,definitiva,0.0138
diseno,restricciones,0.0138
diseno,explicacion,0.0138
diseno,disposicion,0.0138
diseno,definir,0.0138
basicas,presentacion,0.0138
alternativas,reevaluacion,0.0138
alternativa,elegida,0.0138
abstraccion,fijar,0.0138
compresores,analisis,0.0136
viscoso,turbulento,0.0136
viscoso,laminar,0.0136
verticidad,flujo,0.0136
teorema,pi,0.0136
stokes,ejercicios,0.0136
rozamiento,superficial,0.0136
olas,oceanicas,0.0136
modelos,simples,0.0136
laminar,ejercicios,0.0136
fuerza,viscosa,0.0136
flujo,potencial,0.0136
flujo,incompresible,0.0136
dimensional,teorema,0.0136
turbinas,eolicas,0.0135
transformaciones,energeticas,0.0135
tecnologias,tecnologias,0.0135
sistemas,eolicos,0.0135
posibilidades,tecnologicas,0.0135
integracion,energetica,0.0135
hidraulica,tecnologias,0.0135
fuentes,renovables,0.0135
fuente,renovable,0.0135
fre,proyectos,0.0135
fotovoltaicas,tecnologias,0.0135
eolica,tecnologias,0.0135
energia,hidraulica,0.0135
energia,geotermal,0.0135
energia,eolica,0.0135
energetica,renovable,0.0135
colectores,planos,0.0135
colectores,concentradores,0.0135
biomasa,tecnologias,0.0135
inductancia,mutua,0.0135
combustion,energia,0.0134
wohler,factores,0.0134
winkler,bach,0.0134
soderberg,factor,0.0134
seguridad,transmision,0.0134
planas,flexion,0.0134
placas,circulares,0.0134
neutra,formula,0.0134
maxima,deformacion,0.0134
materiales,fragiles,0.0134
materiales,ductiles,0.0134
limite,restringido,0.0134
integracion,grafica,0.0134
gruesos,teorema,0.0134
fuerzas,distribuidas,0.0134
fluctuantes,ensayo,0.0134
fibra,neutra,0.0134
factores,modificatorios,0.0134
esfuerzos,factor,0.0134
esfuerzo,localizacion,0.0134
entalladuras,esfuerzos,0.0134
delgada,resistencia,0.0134
curvos,delgados,0.0134
coulomb,morh,0.0134
circulares,cargadas,0.0134
cilindros,presion,0.0134
cargadas,simetricamente,0.0134
voltaje,generado,0.0133
seccion,rectangular,0.0133
rotor,bloqueado,0.0133
real,dc,0.0133
nucleo,ferromagnetico,0.0133
generador,dc,0.0133
maquina,refrigeradora,0.0132
vigas,torsion,0.0131
vigas,relacion,0.0131
vigas,metodos,0.0131
vigas,hiperestaticas,0.0131
vigas,continuas,0.0131
transmiten,potencia,0.0131
torsion,flexion,0.0131
torsion,combinados,0.0131
termicos,esfuerzos,0.0131
simples,esfuerzos,0.0131
potencia,diagramas,0.0131
montaje,combinacion,0.0131
materiales,i,0.0131
hooke,esfuerzos,0.0131
hooke,calculo,0.0131
hiperestaticos,torsion,0.0131
hiperestaticas,metodos,0.0131
flexion,combinados,0.0131
esfuerzos,uniones,0.0131
esfuerzos,torsion,0.0131
esfuerzos,esfuerzos,0.0131
esfuerzos,esfuerzo,0.0131
empernadas,simples,0.0131
empernadas,simetricas,0.0131
elementos,sometidos,0.0131
eje,circular,0.0131
eje,circula,0.0131
doble,integracion,0.0131
delgada,vigas,0.0131
deformaciones,tanques,0.0131
deformacion,circulo,0.0131
deformacion,angular,0.0131
critica,ec,0.0131
corte,torsion,0.0131
continuas,teorema,0.0131
combinados,pandeo,0.0131
combinados,esfuerzos,0.0131
circular,hueco,0.0131
carga,simetrica,0.0131
carga,excentrica,0.0131
carga,esfuerzos,0.0131
carga,critica,0.0131
barras,concurrentes,0.0131
axial,esfuerzos,0.0131
modelos,lineales,0.0130
maquina,termica,0.0129
vapores,condensables,0.0129
v,analisis,0.0129
termodinamicas,generales,0.0129
t,p,0.0129
gases,reales,0.0129
energia,disponible,0.0129
diagramas,t,0.0129
diagrama,p,0.0129
volumen,muerto,0.0128
joule,bryton,0.0128
clausius,rankine,0.0128
ciclo,regenerativo,0.0128
ciclo,joule,0.0128
ciclo,clausius,0.0128
aire,combustion,0.0128
sistemas,oleohidraulicos,0.0128
sistemas,electrohidraulicos,0.0128
pc,plc,0.0128
metodo,cascada,0.0128
implementar,sistemas,0.0128
funcion,da,0.0128
electroneumaticas,asistidas,0.0128
comunicacion,pc,0.0128
componentes,neumeticos,0.0128
componentes,neumaticos,0.0128
componentes,hidraulicos,0.0128
motores,dc,0.0128
armaduras,espaciales,0.0128
cubos,estriados,0.0126
construcciones,geometricas,0.0126
mantenimiento,preventivo,0.0126
mantenimiento,mantenimiento,0.0126
indicada,potencia,0.0125
h,s,0.0125
ventilador,centrifugo,0.0122
pelicular,vs,0.0122
centrifugas,descripcion,0.0122
iv,ondas,0.0122
turbomaquinas,transferencia,0.0122
turbomaquinas,rotores,0.0122
turbomaquinas,nomenclatura,0.0122
turbomaquinas,i,0.0122
turbomaquinas,hidraulicas,0.0122
turbomaquinas,eficiencia,0.0122
turbomaquinas,curvas,0.0122
turbomaquinas,cavitacion,0.0122
turbomaquinas,analisis,0.0122
turbomaquinas,altura,0.0122
topograficos,velocidad,0.0122
topograficos,relaciones,0.0122
toberas,carcaza,0.0122
succion,npsh,0.0122
rotores,radiales,0.0122
rotores,axiales,0.0122
revoluciones,nq,0.0122
radiales,efectos,0.0122
radial,rotores,0.0122
radial,grado,0.0122
radial,efectos,0.0122
prediccion,analitica,0.0122
paralelo,ensayo,0.0122
hidraulicas,depresion,0.0122
generalidades,conformacion,0.0122
flujo,radial,0.0122
estator,diagrama,0.0122
estaticos,difusores,0.0122
estaticos,degradacion,0.0122
equilibrio,dinamico,0.0122
dinamica,critica,0.0122
difusores,toberas,0.0122
depresion,dinamica,0.0122
curva,altura,0.0122
critica,altura,0.0122
compresores,ensayo,0.0122
carcaza,espiral,0.0122
bombeo,metodos,0.0122
bombas,punto,0.0122
bombas,bombas,0.0122
axial,elementos,0.0122
analisis,aerotermodinamica,0.0122
altura,estatica,0.0122
altura,caudal,0.0122
alabes,calculo,0.0122
alabes,axiales,0.0122
procedimientos,documentados,0.0122
premisa,requiere,0.0122
organizaciones,empresariales,0.0122
crc,desarrollo,0.0122
valores,instantaneos,0.0121
sistemas,monofasicos,0.0121
notacion,fasorial,0.0121
metodos,generales,0.0121
fuentes,independientes,0.0121
alterna,sinusoidal,0.0121
corriente,continua,0.0121
energia,potencial,0.0119
elementos,finitos,0.0119
cargas,nodales,0.0119
calculo,variacional,0.0119
variables,exposicion,0.0119
redaccion,consideraciones,0.0119
metodo,cientifico,0.0119
investigar,presentacion,0.0119
investigar,eleccion,0.0119
investigacion,exposicion,0.0119
investigacion,cientifica,0.0119
epistemologia,exposicion,0.0119
control,modelos,0.0119
consideraciones,exposicion,0.0119
basicos,exposicion,0.0119
antecedentes,exposicion,0.0119
alcances,sistema,0.0119
circuito,abierto,0.0118
volumetrico,laminacion,0.0118
transferencia,moldeo,0.0118
termoformado,colado,0.0118
tecnologicos,descripcion,0.0118
soplado,moldeo,0.0118
solidificacion,diseno,0.0118
soldadura,oxiacetilenica,0.0118
rotacional,termoformado,0.0118
pulvimetalurgia,descripcion,0.0118
productos,ceramicos,0.0118
producto,extrusion,0.0118
procesos,tecnologicos,0.0118
presion,fundicion,0.0118
plasticidad,energia,0.0118
piezas,fundidas,0.0118
moldeo,rotacional,0.0118
metal,liquido,0.0118
manufactura,ii,0.0118
laminacion,extrusion,0.0118
inyeccion,moldeo,0.0118
fundicion,consideraciones,0.0118
fundicion,centrifuga,0.0118
fabricacion,actuales,0.0118
extrusion,trefilado,0.0118
deformacion,homogenea,0.0118
centrifuga,defectos,0.0118
cascara,fundicion,0.0118
valores,limites,0.0117
reles,instantaneos,0.0117
reles,direccionales,0.0117
reles,diferenciales,0.0117
politica,operacional,0.0117
neutro,aislado,0.0117
interruptores,fusibles,0.0117
generador,sincrono,0.0117
fallas,resistentes,0.0117
exigencias,basicas,0.0117
equipos,asociados,0.0117
curvas,intensidad,0.0117
componentes,simetricas,0.0117
automatico,trifasico,0.0117
alimentacion,auxiliar,0.0117
zapatas,aislados,0.0116
tension,normal,0.0116
suelos,cimentacion,0.0116
seccion,cuadrada,0.0116
resonancia,vibracion,0.0116
resonancia,frecuencia,0.0116
refuerzos,bulones,0.0116
reciprocantes,frecuencia,0.0116
profundidades,presentacion,0.0116
piedra,artificial,0.0116
peralte,efectivo,0.0116
muros,cimentacion,0.0116
monografias,cimentaciones,0.0116
momentos,inerciales,0.0116
momento,maximo,0.0116
metodo,elastico,0.0116
maquinas,reciprocantes,0.0116
maquina,frecuencia,0.0116
libre,vibracion,0.0116
inducen,caras,0.0116
fundaciones,aisladas,0.0116
fundacion,resonancia,0.0116
fundacion,calculo,0.0116
fuerzas,oscilatorias,0.0116
frecuencia,natural,0.0116
excentricidad,maxima,0.0116
excentricas,efectos,0.0116
estaticas,comportamiento,0.0116
esfuerzos,combinados,0.0116
esfuerzos,adherencia,0.0116
esfuerzo,admisibles,0.0116
diversas,profundidades,0.0116
diferentes,excentricidades,0.0116
concreto,aceros,0.0116
componentes,canteras,0.0116
cimientos,fundaciones,0.0116
cimientaciones,excentricidad,0.0116
cimentaciones,sometidas,0.0116
cimentaciones,requerimientos,0.0116
cimentacion,generalidades,0.0116
canteras,explotacion,0.0116
bloque,modos,0.0116
aislados,metodo,0.0116
agregados,finos,0.0116
adherencia,momento,0.0116
adherencia,esfuerzo,0.0116
seguridad,industrial,0.0115
viscosidad,presion,0.0115
velocidad,campos,0.0115
velocidad,angular,0.0115
vectoriales,lineas,0.0115
vapor,perdidas,0.0115
vapor,flujo,0.0115
turborreactor,turbofan,0.0115
turbohelice,intensificacion,0.0115
turbina,rendimiento,0.0115
turbina,refrigerada,0.0115
turbina,libre,0.0115
tobera,propulsiva,0.0115
terminales,valvulas,0.0115
teorema,teorema,0.0115
sumergidos,empuje,0.0115
sumergidas,planas,0.0115
sumergidas,flotacion,0.0115
sumergidas,curvas,0.0115
sistema,inercial,0.0115
reynolds,teorema,0.0115
rendimiento,relativo,0.0115
rendimiento,absoluto,0.0115
reaccion,diseno,0.0115
propulsiva,turborreactor,0.0115
presion,fuerzas,0.0115
paletas,eleccion,0.0115
naver,stokes,0.0115
multiples,coeficiente,0.0115
multiples,ciclo,0.0115
movimientos,teorema,0.0115
movimiento,lineal,0.0115
manometros,diferenciales,0.0115
manometria,manometros,0.0115
luego,desarrolla,0.0115
lineal,constante,0.0115
libre,funcionamiento,0.0115
juntas,terminales,0.0115
gases,atmosfera,0.0115
gas,simples,0.0115
gas,simple,0.0115
gas,funcionamiento,0.0115
fugas,influencia,0.0115
flujo,real,0.0115
fluidos,i,0.0115
fluidos,estaticos,0.0115
fluido,comprimido,0.0115
factores,importantes,0.0115
estabilidad,equilibrio,0.0115
escalon,turbinas,0.0115
escalon,perdidas,0.0115
escalon,escalones,0.0115
escalon,axial,0.0115
energia,bombas,0.0115
empuje,estabilidad,0.0115
elementos,funcionamiento,0.0115
eje,funcionamiento,0.0115
disco,admision,0.0115
dimensional,perfiles,0.0115
cuerpos,sumergidos,0.0115
cuerda,comportamiento,0.0115
coronas,flujo,0.0115
coronas,coeficiente,0.0115
continuidad,teorema,0.0115
comprimido,perdida,0.0115
compresor,centrifugo,0.0115
comprensor,centrifugo,0.0115
comportamiento,global,0.0115
combustion,turbina,0.0115
combustion,modalidades,0.0115
combustion,factores,0.0115
combustion,comportamiento,0.0115
centrifugo,compresor,0.0115
campos,vectoriales,0.0115
calor,juntas,0.0115
busca,desarrollar,0.0115
axial,rendimiento,0.0115
axial,prediccion,0.0115
axial,comparacion,0.0115
axial,camara,0.0115
angular,constante,0.0115
analisis,integral,0.0115
analisis,fraccional,0.0115
analisis,experimental,0.0115
analisis,diferencial,0.0115
alabeadas,escalon,0.0115
aereas,sumergidas,0.0115
aerea,rendimiento,0.0115
aerea,compresor,0.0115
aceleracion,lineal,0.0115
accion,escalones,0.0115
soldadura,oxigas,0.0115
sistema,alimentador,0.0115
gases,protectores,0.0115
gas,protector,0.0115
ensayos,destructivos,0.0115
tratamientos,termicos,0.0114
tratamientos,superficiales,0.0114
tornillo,sinfin,0.0114
semiesfericos,calculo,0.0114
rodillos,semiesfericos,0.0114
rodillos,conicos,0.0114
rodillos,cilindricos,0.0114
rodamientos,rodamientos,0.0114
rigidas,engranajes,0.0114
montaje,perfiles,0.0114
maquina,motor,0.0114
empaquetaduras,generalidades,0.0114
conicos,rodamientos,0.0114
cilindricos,rodamientos,0.0114
bolas,rodamientos,0.0114
agujas,rodamientos,0.0114
acoplamientos,generalidades,0.0114
volantes,generalidades,0.0114
velocidad,cordal,0.0114
v,generalidades,0.0114
uniones,union,0.0114
uniones,sometidas,0.0114
union,metal,0.0114
timers,on,0.0114
soldadura,electrodos,0.0114
soldadas,uniones,0.0114
soldadas,sometidas,0.0114
soderberg,cordones,0.0114
simbologia,sistemas,0.0114
simbologia,isa,0.0114
set,point,0.0114
senales,discretas,0.0114
senales,dicretas,0.0114
seleccion,pasadores,0.0114
ruedas,lubricacion,0.0114
rodillos,generalidades,0.0114
rigidez,uniones,0.0114
retentive,timer,0.0114
resorte,resortes,0.0114
remoto,sintonizacion,0.0114
ratio,lazos,0.0114
principales,instrumentos,0.0114
poleas,seleccion,0.0114
point,local,0.0114
planta,comisionamiento,0.0114
planas,tejidas,0.0114
permisibles,capacidad,0.0114
on,delay,0.0114
off,delay,0.0114
ntroduccion,normas,0.0114
normalizadas,velocidad,0.0114
normalizadas,procedimiento,0.0114
normalizadas,esfuerzos,0.0114
modem,cableado,0.0114
miscelanea,resortes,0.0114
microprocesadores,desarrollo,0.0114
metal,metal,0.0114
metal,analisis,0.0114
materiales,perfiles,0.0114
maquinas,i,0.0114
man,auto,0.0114
lubricacion,procedimiento,0.0114
local,remoto,0.0114
lazos,simples,0.0114
ladder,diagram,0.0114
instrumentos,principales,0.0114
instrumentacion,terminologia,0.0114
instrumentacion,mediciones,0.0114
instrumentacion,diseno,0.0114
instrumentacion,calibracion,0.0114
industriales,modos,0.0114
inalambrico,desarrollo,0.0114
flexibles,seleccion,0.0114
filete,intermitente,0.0114
field,bus,0.0114
fatiga,limite,0.0114
fajas,dentadas,0.0114
especiales,fajas,0.0114
empaquetadura,anular,0.0114
economicas,hardware,0.0114
diseno,factor,0.0114
discreto,lenguaje,0.0114
discreto,controladores,0.0114
cuero,poleas,0.0114
control,man,0.0114
control,automatico,0.0114
control,analogo,0.0114
comunicaciones,desarrollo,0.0114
compresion,tensiones,0.0114
comprension,diseno,0.0114
comisionamiento,desarrollo,0.0114
comandos,programacion,0.0114
cascada,disenos,0.0114
calculo,uniones,0.0114
brida,empaquetadura,0.0114
automatizacion,industrial,0.0114
analogas,sistemas,0.0114
analogas,senales,0.0114
analogas,control,0.0114
analogas,conectividad,0.0114
algoritmos,pid,0.0114
algebra,booleana,0.0114
acoplamientos,rigidos,0.0114
acoplamiento,generalidades,0.0114
transportes,neumaticos,0.0109
transporte,diseno,0.0109
sistemas,colectores,0.0109
sistema,variables,0.0109
ruido,balance,0.0109
proporcionalidad,seleccion,0.0109
particula,ley,0.0109
fabricacion,ventilacion,0.0109
fabricacion,referencias,0.0109
extraccion,localizada,0.0109
extraccion,diseno,0.0109
ductos,perdidas,0.0109
dinamico,transmision,0.0109
configuraciones,leyes,0.0109
colectores,calculo,0.0109
balance,estatico,0.0109
aspiracion,calculo,0.0109
aire,panorama,0.0109
norma,ansi,0.0108
viscosidad,indice,0.0107
tribologia,medida,0.0107
transmision,automotriz,0.0107
total,sistema,0.0107
sistema,flujo,0.0107
sistema,by,0.0107
servicio,automotriz,0.0107
seca,friccion,0.0107
pruebas,pruebas,0.0107
pelicula,delgada,0.0107
pass,sistema,0.0107
normas,basicas,0.0107
multigrado,aceites,0.0107
motores,otto,0.0107
minerales,funciones,0.0107
lubricantes,basicos,0.0107
lubricantes,aditivados,0.0107
lubricante,normas,0.0107
lubricante,monogrado,0.0107
lubricacion,pelicula,0.0107
lubricacion,hidrodinamica,0.0107
lubricacion,determinacion,0.0107
limpieza,filtracion,0.0107
iso,normas,0.0107
interna,tour,0.0107
interna,sistema,0.0107
interna,grasas,0.0107
interna,determinacion,0.0107
hidrodinamica,lubricacion,0.0107
friccion,lubricante,0.0107
friccion,fluida,0.0107
fluida,causas,0.0107
filtracion,sistema,0.0107
efectos,evaluacion,0.0107
delgada,lubricacion,0.0107
contaminacion,efectos,0.0107
contaminacion,almacenamiento,0.0107
campo,relacion,0.0107
by,pass,0.0107
basicos,sistemas,0.0107
basicos,origen,0.0107
basicos,minerales,0.0107
basico,mineral,0.0107
basicas,viscosidad,0.0107
atomica,interpretacion,0.0107
asociaciones,astm,0.0107
ambiente,reciclaje,0.0107
aditivados,ensayos,0.0107
aceites,lubricantes,0.0107
aceite,basico,0.0107
absorcion,atomica,0.0107
transitorio,respuesta,0.0104
sistema,pendulo,0.0104
sistema,analisis,0.0104
siso,respuesta,0.0104
siso,modelamiento,0.0104
siso,metodos,0.0104
raices,diseno,0.0104
programacion,evaluacion,0.0104
pid,estimacion,0.0104
pid,control,0.0104
pendulo,invertido,0.0104
orden,respuesta,0.0104
matlab,respuesta,0.0104
matlab,evaluacion,0.0104
lineales,liberalizacion,0.0104
lineales,control,0.0104
liberalizacion,analisis,0.0104
implementacion,circuitos,0.0104
hurwitz,respuesta,0.0104
hurwitz,analisis,0.0104
estacionario,error,0.0104
dinamicos,analisis,0.0104
difusa,control,0.0104
dc,sistemas,0.0104
dc,hardware,0.0104
dc,control,0.0104
controladores,controladores,0.0104
control,ubicacion,0.0104
control,transformada,0.0104
control,sistemas,0.0104
control,respuesta,0.0104
control,inteligente,0.0104
control,controladores,0.0104
control,analisis,0.0104
venturi,placa,0.0102
vaso,cerrado,0.0102
vapor,caldero,0.0102
universal,densimetro,0.0102
termocupla,bimetalico,0.0102
tacometro,electronico,0.0102
sensor,digital,0.0102
seguimiento,analisis,0.0102
reynolds,vertedero,0.0102
potencia,hidraulica,0.0102
peso,muerto,0.0102
pensky,martens,0.0102
orificio,tanque,0.0102
organismo,supervisor,0.0102
normativo,organismo,0.0102
martens,determinacion,0.0102
inmersion,total,0.0102
inclinado,manometro,0.0102
higiene,ocupacional,0.0102
hidraulica,potencia,0.0102
freno,tacometro,0.0102
elemento,normativo,0.0102
electronico,contador,0.0102
eje,potencia,0.0102
diferentes,temperaturas,0.0102
combustibles,liquidos,0.0102
columna,liquida,0.0102
calorimetro,universal,0.0102
calor,latente,0.0102
caldero,marcet,0.0102
bourdon,calibrador,0.0102
bomba,calorimetrica,0.0102
bb,determinacion,0.0102
base,seca,0.0102
aforo,tubo,0.0102
sistema,financiero,0.0102
palanqueo,financiero,0.0102
operaciones,financieras,0.0102
mediciones,estadisticas,0.0102
inversion,total,0.0102
interes,compuesto,0.0102
financieras,interes,0.0102
control,financiero,0.0102
balance,general,0.0102
datos,predeterminados,0.0101
cpm,pert,0.0101
carga,distancia,0.0101
cantidad,economica,0.0101
sistemas,principales,0.0101
refrigerante,ciclo,0.0101
refrigeracion,refrigerantes,0.0101
refrigeracion,balance,0.0101
plantas,frigorificas,0.0101
multiples,sistemas,0.0101
frigorificas,cargas,0.0101
frias,capacidad,0.0101
frias,calculo,0.0101
componentes,proyectos,0.0101
componentes,balance,0.0101
camaras,frigorificas,0.0101
torneado,taladradora,0.0098
torneado,operaciones,0.0098
tolerancias,estadisticas,0.0098
taylor,geometria,0.0098
sujetadores,roscados,0.0098
roscados,remolques,0.0098
remolques,metodos,0.0098
producto,capacidad,0.0098
produccion,maquinado,0.0098
produccion,automatizacion,0.0098
procesos,tolerancias,0.0098
parametros,operaciones,0.0098
panorama,general,0.0098
operaciones,maquinas,0.0098
oblicuo,fuerza,0.0098
metales,maquinas,0.0098
metales,corte,0.0098
maquinado,ensamble,0.0098
manufactura,lineas,0.0098
manufactura,i,0.0098
manufactura,fundamentos,0.0098
manufactura,control,0.0098
herramientas,instrumentos,0.0098
herramientas,fundamento,0.0098
herramientas,fluido,0.0098
herramientas,cinematica,0.0098
herramientas,abrasivas,0.0098
fresadora,universal,0.0098
fabricacion,componentes,0.0098
estadisticas,control,0.0098
esmeril,analisis,0.0098
corte,vida,0.0098
corte,oblicuo,0.0098
corte,herramientas,0.0098
control,estadistico,0.0098
cepilladoras,operaciones,0.0098
cepilladora,maquinas,0.0098
broca,helicoidal,0.0098
abrasivos,herramientas,0.0098
abrasivos,consideraciones,0.0098
abrasivas,operaciones,0.0098
calidad,revision,0.0097
visualizacion,grafica,0.0095
transitorios,rc,0.0095
transferencia,teorema,0.0095
terminales,circuitos,0.0095
rc,circuito,0.0095
rc,analisis,0.0095
osciloscopio,digital,0.0095
orden,rc,0.0095
norton,teorema,0.0095
monofasico,circuitos,0.0095
medicion,seleccion,0.0095
maxima,potencia,0.0095
linea,conexiones,0.0095
kirchhoff,reconocimiento,0.0095
kirchhoff,metodos,0.0095
impedancias,inductivas,0.0095
impedancias,inductiva,0.0095
equivalentes,thevenin,0.0095
digital,visualizacion,0.0095
desbalanceados,circuitos,0.0095
componentes,leyes,0.0095
circuitos,rc,0.0095
circuito,rc,0.0095
circuito,monofasico,0.0095
circuito,diferenciador,0.0095
circuito,determinado,0.0095
modernas,demostracion,0.0095
materiales,recepcion,0.0095
materiales,demostracion,0.0095
interes,relacionado,0.0095
impacto,recepcion,0.0095
fatiga,tecnologias,0.0095
fatiga,simple,0.0095
fatiga,combinada,0.0095
fabricar,maquinas,0.0095
estime,conveniente,0.0095
ensayos,demostracion,0.0095
ensayo,compresion,0.0095
cortante,transversal,0.0095
considerarse,adicionalmente,0.0095
combinada,desarrollo,0.0095
cargas,combinadas,0.0095
carga,axila,0.0095
tpm,evolucion,0.0095
tpm,contaminacion,0.0095
tpm,actividades,0.0095
sistemas,sistemas,0.0095
sistemas,evaluacion,0.0095
sistemas,efectividad,0.0095
sistemas,confiabilidad,0.0095
reparacion,directa,0.0095
relaciones,interdepartamentales,0.0095
preventivo,diagramas,0.0095
presupuestal,centros,0.0095
predictivo,industrial,0.0095
predictivo,fundamentos,0.0095
planta,contratacion,0.0095
planificacion,presupuestal,0.0095
planificacion,estrategica,0.0095
pert,cpm,0.0095
paralelo,parametros,0.0095
organizacion,estructural,0.0095
organigramas,reportes,0.0095
normal,confiabilidad,0.0095
mantenimiento,relaciones,0.0095
mantenimiento,presupuesto,0.0095
mantenimiento,politicas,0.0095
mantenimiento,planificado,0.0095
mantenimiento,planificacion,0.0095
mantenimiento,personal,0.0095
mantenimiento,organizacion,0.0095
mantenimiento,ordenes,0.0095
mantenimiento,jerarquias,0.0095
mantenimiento,jerarquia,0.0095
mantenimiento,graficos,0.0095
mantenimiento,evaluacion,0.0095
mantenimiento,estructura,0.0095
mantenimiento,eleccion,0.0095
mantenimiento,diferencias,0.0095
informes,diseno,0.0095
gantt,usos,0.0095
fundamentos,estructura,0.0095
flujo,ciclo,0.0095
ficheros,procesamiento,0.0095
fallas,informes,0.0095
falla,curva,0.0095
factores,asociados,0.0095
estructura,documentacion,0.0095
estructura,diagrama,0.0095
empresa,evolucion,0.0095
empresa,diferencias,0.0095
distribucion,normal,0.0095
distribucion,exponencial,0.0095
diseno,adecuado,0.0095
datos,hojas,0.0095
control,indices,0.0095
contaminacion,ambiental,0.0095
confiabilidad,fallas,0.0095
confiabilidad,diseno,0.0095
conduccion,operativa,0.0095
ciclo,predictivo,0.0095
azar,distribucion,0.0095
ambos,departamentos,0.0095
adecuado,operatividad,0.0095
zener,fotodiodos,0.0093
voltaje,polarizacion,0.0093
union,circuitos,0.0093
transistores,bjt,0.0093
transistor,funcionamiento,0.0093
senales,electronicas,0.0093
senal,configuraciones,0.0093
senal,circuitos,0.0093
semiconductores,semiconductores,0.0093
semiconductores,intrinsecos,0.0093
semiconductores,extrinsecos,0.0093
rectificadores,circuitos,0.0093
polarizacion,inversa,0.0093
polarizacion,fija,0.0093
polarizacion,directa,0.0093
p,densidad,0.0093
operacion,polarizacion,0.0093
op,amps,0.0093
onda,rectificador,0.0093
notables,amplificadores,0.0093
n,polarizada,0.0093
modelo,equivalente,0.0093
inversa,polarizacion,0.0093
intrinsecos,portadores,0.0093
impedancias,ganancias,0.0093
huecos,semiconductores,0.0093
hibrido,completo,0.0093
funcionamiento,dispositivos,0.0093
funcionamiento,corrientes,0.0093
fotodiodos,diodos,0.0093
fija,polarizacion,0.0093
fet,amplificadores,0.0093
equivalente,hibrido,0.0093
enriquecimiento,estructura,0.0093
emisor,polarizacion,0.0093
emisor,comun,0.0093
electronicos,sensores,0.0093
electronicas,amplificadores,0.0093
electronica,sistemas,0.0093
efectos,capacitivos,0.0093
dispositivos,cmos,0.0093
diodos,recta,0.0093
diodos,emisores,0.0093
diodo,zener,0.0093
diodo,efectos,0.0093
diodo,diodo,0.0093
conmutacion,transistores,0.0093
configuraciones,notables,0.0093
configuraciones,basicas,0.0093
config,notables,0.0093
conductores,semiconductores,0.0093
comun,limites,0.0093
colector,comun,0.0093
cmos,analisis,0.0093
circuitos,recortadores,0.0093
circuito,amplificador,0.0093
carga,analisis,0.0093
campo,fet,0.0093
campo,estructura,0.0093
c,i,0.0093
bjt,parametros,0.0093
bjt,amplificador,0.0093
bipolar,polarizacion,0.0093
basicas,modelo,0.0093
base,comun,0.0093
amplificadores,multietapa,0.0093
amplificador,multietapas,0.0093
amplificador,diferencial,0.0093
amplificador,darlington,0.0093
amplific,multietapa,0.0093
amplif,conmutador,0.0093
actuadores,senales,0.0093
procesos,politropicos,0.0093
foco,termico,0.0093
compresor,eficiencia,0.0093
volumetrica,real,0.0090
calor,transferido,0.0090
nociones,basicas,0.0089
variable,saliente,0.0089
variable,negativa,0.0089
valores,c,0.0089
teoremas,relacionados,0.0089
sistemas,construccion,0.0089
simplex,restriccion,0.0089
simplex,primal,0.0089
signos,variable,0.0089
s,r,0.0089
relacionados,algoritmos,0.0089
recursos,variacion,0.0089
r,s,0.0089
primal,dual,0.0089
post,optimo,0.0089
optimas,alternativas,0.0089
operaciones,naturaleza,0.0089
nor,oeste,0.0089
multiples,metodo,0.0089
modelo,fases,0.0089
importantes,primal,0.0089
fases,metodo,0.0089
esquina,nor,0.0089
dual,optica,0.0089
dual,metodo,0.0089
comparacion,simplex,0.0089
coeficientes,tecnologicos,0.0089
c,z,0.0089
analisis,post,0.0089
algoritmos,simplex,0.0089
viscoso,vibracion,0.0089
vector,movimiento,0.0089
trompos,simetricos,0.0089
traslacion,rotacion,0.0089
traslacion,angulos,0.0089
steiner,momentos,0.0089
rigido,trompos,0.0089
rigido,conservacion,0.0089
pura,alrededor,0.0089
plano,traslacion,0.0089
plano,general,0.0089
plano,fuerzas,0.0089
plano,ejes,0.0089
plano,analisis,0.0089
normal,coordenadas,0.0089
movimiento,plano,0.0089
movimiento,general,0.0089
movimiento,absoluto,0.0089
momentum,momentum,0.0089
momentum,lineal,0.0089
momentum,angular,0.0089
manera,sencilla,0.0089
interpretacion,analitica,0.0089
giro,teorema,0.0089
general,absoluto,0.0089
forzadas,vibracion,0.0089
euler,movimiento,0.0089
espacio,velocidad,0.0089
espacio,proyectividad,0.0089
espacio,momentum,0.0089
espacio,energia,0.0089
espacio,ejes,0.0089
esfericas,transformacion,0.0089
energia,vibracion,0.0089
energia,energia,0.0089
energia,conservacion,0.0089
eje,arbitrario,0.0089
eje,analisis,0.0089
dinamica,comprende,0.0089
cuerpos,rodantes,0.0089
coordenadas,tangencial,0.0089
coordenadas,rectangulares,0.0089
coordenadas,polares,0.0089
coordenadas,moviles,0.0089
coordenadas,esfericas,0.0089
coordenadas,cilindricas,0.0089
cinetica,plana,0.0089
analisis,cinematico,0.0089
amortiguamiento,vibracion,0.0089
amortiguamiento,metodos,0.0089
aceleracion,angular,0.0089
torque,desarrollado,0.0089
permeabilidad,magnetica,0.0089
nucleos,ferromagneticos,0.0089
maquina,real,0.0089
maquina,elemental,0.0089
equivalente,exacto,0.0089
equivalente,aproximado,0.0089
entrehierro,excitados,0.0089
devanado,rotorico,0.0089
volantes,balanceo,0.0088
velocidad,maquinas,0.0088
trayectorias,cinematicas,0.0088
tangenciales,metodo,0.0088
reversa,balanceo,0.0088
retorno,rapido,0.0088
relativo,determinacion,0.0088
rapido,aceleracion,0.0088
pura,velocidades,0.0088
puntos,muertos,0.0088
puntos,auxilares,0.0088
planos,fuerzas,0.0088
plano,balanceo,0.0088
percusion,centro,0.0088
oscilacion,determinacion,0.0088
movimientos,componentes,0.0088
manivela,directa,0.0088
levas,trayectorias,0.0088
leva,polinomial,0.0088
leva,parabolica,0.0088
leva,cicloidal,0.0088
leva,calculo,0.0088
leva,armonica,0.0088
irregulares,fuerzas,0.0088
involuta,comparacion,0.0088
inversiones,cinematicas,0.0088
inversion,cinematica,0.0088
interferencia,engranajes,0.0088
hirschhorn,metodo,0.0088
hall,ault,0.0088
grubler,inversiones,0.0088
goodman,metodo,0.0088
giro,centro,0.0088
geometricos,velocidades,0.0088
equivalentes,velocidades,0.0088
engranajes,volantes,0.0088
engranajes,planetarios,0.0088
efectos,determinacion,0.0088
determinacion,experimental,0.0088
cuerpos,irregulares,0.0088
conjugada,involuta,0.0088
componentes,radiales,0.0088
complejidad,metodo,0.0088
complejidad,determinacion,0.0088
cinematicas,puntos,0.0088
cilindros,manivela,0.0088
cicloidal,metodos,0.0088
centro,instantaneo,0.0088
carter,metodo,0.0088
biela,manivela,0.0088
barras,inversion,0.0088
armonica,simple,0.0088
analiticos,velocidades,0.0088
accion,conjugada,0.0088
sumatoria,momento,0.0088
rozamiento,seco,0.0088
rosca,cuadrada,0.0088
restriccion,completa,0.0088
planas,determinacion,0.0088
placas,delgadas,0.0088
pappus,guldinus,0.0088
momentos,principales,0.0088
momento,polar,0.0088
momento,central,0.0088
momento,axico,0.0088
mohr,ejes,0.0088
inercia,ejes,0.0088
indeterminacion,isostatica,0.0088
fuerzas,cortantes,0.0088
fuerza,resultante,0.0088
flectores,vigas,0.0088
espaciales,metodo,0.0088
entramados,planos,0.0088
ejes,paralelos,0.0088
ejes,inclinados,0.0088
eje,central,0.0088
delgadas,productos,0.0088
cuerpos,rigidos,0.0088
cuerpos,compuestos,0.0088
cuerpo,libre,0.0088
coulomb,coeficientes,0.0088
central,teorema,0.0088
cargas,concentradas,0.0088
carga,distribuida,0.0088
cable,parabolico,0.0088
breve,repaso,0.0088
algebra,vectorial,0.0088
vapor,camara,0.0088
tuberias,turbinas,0.0088
rpm,constante,0.0088
micro,manometro,0.0088
mercurio,diferencias,0.0088
maquinas,termicas,0.0088
linea,piezometrica,0.0088
hilton,turbina,0.0088
hidraulico,froude,0.0088
hidraulicas,pelton,0.0088
gas,ram,0.0088
froude,manteniendo,0.0088
freno,hidraulico,0.0088
francis,generador,0.0088
factor,k,0.0088
evaluacion,escrita,0.0088
diferentes,rpm,0.0088
diferentes,radios,0.0088
diferentes,equipos,0.0088
diferentes,diametros,0.0088
diferentes,cargas,0.0088
diferentes,alturas,0.0088
columna,inclinada,0.0088
central,hidroelectrica,0.0088
caldera,pirotubular,0.0088
brayton,abierto,0.0088
alturas,hidraulicas,0.0088
alabes,directrices,0.0088
variable,elementos,0.0086
vapor,distribucion,0.0086
vapor,dimensionamiento,0.0086
turbina,camara,0.0086
tuberias,velocidades,0.0086
tuberias,valvulas,0.0086
tuberias,tuberia,0.0086
tuberias,soportes,0.0086
tuberia,diseno,0.0086
tuberia,comercial,0.0086
transportadores,sistemas,0.0086
tiro,natural,0.0086
termico,determinacion,0.0086
termicas,balance,0.0086
termica,aislamiento,0.0086
superficie,calentada,0.0086
sistemas,interconectados,0.0086
sistemas,auxiliares,0.0086
seleccion,disenos,0.0086
rendimiento,economico,0.0086
relacion,q,0.0086
relacion,funcional,0.0086
regulacion,diagrama,0.0086
refrigeracion,sistema,0.0086
refrigeracion,operacion,0.0086
pulverizado,sistema,0.0086
precalentadores,aire,0.0086
plantas,potencia,0.0086
plantas,arreglos,0.0086
planta,vapor,0.0086
planta,termicas,0.0086
planta,sistema,0.0086
planta,relacion,0.0086
planta,factor,0.0086
origen,distribucion,0.0086
operativos,sistema,0.0086
natural,control,0.0086
motriz,termica,0.0086
motores,alternativos,0.0086
motor,tamano,0.0086
lubricacion,sistemas,0.0086
lubricacion,sistema,0.0086
interna,dimensionamiento,0.0086
interconectados,carga,0.0086
hacen,posible,0.0086
grupos,electrogenos,0.0086
gases,tiro,0.0086
gases,equipo,0.0086
gases,almacenamiento,0.0086
gas,manipuleo,0.0086
fuerza,motriz,0.0086
expansion,termica,0.0086
esquema,general,0.0086
equipo,vapor,0.0086
energia,limite,0.0086
elementos,principales,0.0086
efectos,pruebas,0.0086
diversidad,factor,0.0086
disenos,preliminares,0.0086
desconcentracion,tratamiento,0.0086
condensacion,trampas,0.0086
comprimido,fiabilidad,0.0086
compresor,sistemas,0.0086
comercial,conexiones,0.0086
combustion,compresor,0.0086
combustion,analisis,0.0086
combustible,equipo,0.0086
combinado,seleccion,0.0086
cogeneracion,relacion,0.0086
cenizas,ducto,0.0086
carbon,transportadores,0.0086
carbon,pulverizado,0.0086
calderas,recuperadoras,0.0086
caldera,expansion,0.0086
calculo,termodinamico,0.0086
auxiliares,arranque,0.0086
arranque,regulacion,0.0086
analisis,desconcentracion,0.0086
aislamiento,termico,0.0086
agua,dimensionamiento,0.0086
agua,contaminacion,0.0086
agua,calculo,0.0086
termica,mejoramiento,0.0086
sistemas,eficiencia,0.0086
reciprocante,parametros,0.0086
procesos,eficiencia,0.0086
multiples,etapas,0.0086
maquina,reciprocante,0.0086
energetico,eficiencia,0.0086
eficiencia,perdidas,0.0086
compresores,monofasicos,0.0086
compresores,bifasicos,0.0086
combustion,real,0.0086
ciclo,real,0.0086
ciclo,eficiencia,0.0086
vehicular,equipos,0.0083
vapor,sistemas,0.0083
tratamiento,ahorro,0.0083
tecnologica,hornos,0.0083
tecnologica,equipos,0.0083
tanques,pulmon,0.0083
refrigeracion,industrial,0.0083
reactiva,instrumentacion,0.0083
normas,ashrae,0.0083
inversiones,industriales,0.0083
industriales,subestacion,0.0083
industriales,referentes,0.0083
industriales,instalaciones,0.0083
iluminacion,industrial,0.0083
equipos,puntos,0.0083
enfriamiento,normas,0.0083
energia,reactiva,0.0083
eficiencia,tratamiento,0.0083
economica,punto,0.0083
diagrama,unifilar,0.0083
consigna,desarrollo,0.0083
comprimido,calculo,0.0083
compresores,diseno,0.0083
compresores,accesorios,0.0083
cogeneracion,perdidas,0.0083
cogeneracion,calculo,0.0083
carga,tarifas,0.0083
calor,calderas,0.0083
calderas,metodologia,0.0083
caldera,tratamiento,0.0083
aterramiento,compensacion,0.0083
ashrae,ahorro,0.0083
aire,sistemas,0.0083
accesorios,metodologia,0.0083
violaciones,frecuentes,0.0083
vigilancia,medica,0.0083
venenosas,sistemicos,0.0083
umbrales,limites,0.0083
teratogenos,vias,0.0083
tendencias,futuras,0.0083
suministro,codigo,0.0083
sonoras,decibeles,0.0083
sistemicos,depresores,0.0083
sistemas,expertos,0.0083
sistemas,automatizados,0.0083
sierras,bandas,0.0083
salud,funcion,0.0083
salud,capacitacion,0.0083
ruidos,medicion,0.0083
ruido,industrial,0.0083
ruido,controlos,0.0083
rostro,proteccion,0.0083
rociadores,automaticos,0.0083
riesgos,oficina,0.0083
riesgos,enfoque,0.0083
respiratoria,entrada,0.0083
reposicion,dispositivos,0.0083
registros,analisis,0.0083
recursos,accesibles,0.0083
razonable,seguridad,0.0083
purificadores,ruido,0.0083
publica,tendencias,0.0083
psicologico,enfoque,0.0083
prueba,violaciones,0.0083
proteccion,respiratoria,0.0083
proteccion,personal,0.0083
promedio,ponderado,0.0083
prensas,esmeriladoras,0.0083
poleas,maquinas,0.0083
plataformas,abiertas,0.0083
permisibles,medidas,0.0083
pasillos,escaleras,0.0083
operacion,prensas,0.0083
ondas,sonoras,0.0083
oidos,proteccion,0.0083
oido,radiacion,0.0083
mantenimiento,elevadores,0.0083
mano,fijas,0.0083
mano,escaleras,0.0083
liquidos,inflamables,0.0083
liquidos,combustibles,0.0083
irritantes,venenosas,0.0083
introductorios,glosario,0.0083
inteligencia,artificial,0.0083
instalaciones,miscelaneas,0.0083
informes,sistemas,0.0083
inflamables,liquidos,0.0083
incendios,evacuacion,0.0083
incendio,sistemas,0.0083
incendio,extintores,0.0083
incendio,equipos,0.0083
imposiciones,conmocion,0.0083
iluminacion,instalaciones,0.0083
higiene,compensacion,0.0083
general,proteccion,0.0083
gas,licuado,0.0083
frecuentes,codigo,0.0083
fijas,tablones,0.0083
extra,riesgosa,0.0083
extintores,fijos,0.0083
exposicion,permisibles,0.0083
explosivos,gas,0.0083
expertos,base,0.0083
estructura,corporativa,0.0083
espacios,encerrados,0.0083
esmeriladoras,sierras,0.0083
escaleras,escaleras,0.0083
equipos,miscelaneos,0.0083
entrada,contaminantes,0.0083
enfoque,psicologico,0.0083
enfoque,coercitivo,0.0083
encerrados,proteccion,0.0083
empresa,extra,0.0083
emergencia,brigadas,0.0083
elevadores,calderas,0.0083
electrocucion,riesgos,0.0083
dispositivos,purificadores,0.0083
diseno,aire,0.0083
discapacitados,iluminacion,0.0083
descarga,salidas,0.0083
depresores,asfixiantes,0.0083
decibeles,normas,0.0083
corporativa,recursos,0.0083
conmocion,publica,0.0083
combustibles,explosivos,0.0083
coercitivo,enfoque,0.0083
carcinogenos,teratogenos,0.0083
capacitacion,pruebas,0.0083
calderas,higiene,0.0083
cabeza,equipos,0.0083
asfixiantes,carcinogenos,0.0083
aire,limites,0.0083
administrativos,proteccion,0.0083
accidentes,organizacion,0.0083
abiertas,pisos,0.0083
von,karman,0.0081
variable,pc2,0.0081
tobera,supersonica,0.0081
tobera,subsonica,0.0081
reversible,flujo,0.0081
plano,h,0.0081
normas,ntp,0.0081
movimiento,arrastre,0.0081
monografia,transporte,0.0081
monografia,sistema,0.0081
limite,turbulenta,0.0081
laminar,espesor,0.0081
iii,flujo,0.0081
hazen,williams,0.0081
flujo,masico,0.0081
flujo,diabatico,0.0081
fluidos,ii,0.0081
difusores,eficiencia,0.0081
diametro,economico,0.0081
diagrama,polar,0.0081
darcy,weisbach,0.0081
curva,rayleigh,0.0081
condiciones,subsonicas,0.0081
compresible,unidimensional,0.0081
choque,oblicuas,0.0081
choque,normal,0.0081
calor,maximo,0.0081
calculo,pc1,0.0081
blassius,control,0.0081
ala,diagrama,0.0081
aerodinamica,transporte,0.0081
adiabatico,reversible,0.0081
adiabatico,irreversible,0.0081
volumetrica,conveccion,0.0076
vertical,efectos,0.0076
vertical,condensacion,0.0076
unidimensionales,asociados,0.0076
turbulento,ductos,0.0076
turbulencia,correlaciones,0.0076
transferencia,unidimensional,0.0076
termico,consideraciones,0.0076
termica,intensidad,0.0076
temperaturas,metodo,0.0076
superficies,rerradiantes,0.0076
superficies,radiacion,0.0076
superficies,negras,0.0076
superficies,intercambio,0.0076
superficies,grises,0.0076
stefan,boltzmann,0.0076
sistemas,unidireccionales,0.0076
sistemas,unidimensionales,0.0076
sistemas,bidimensionales,0.0076
seccion,anular,0.0076
rerradiantes,radiacion,0.0076
radiacion,ley,0.0076
plank,ley,0.0076
plana,capa,0.0076
pelicular,ebullicion,0.0076
opticas,intercambio,0.0076
nucleada,ebullicion,0.0076
natural,exterior,0.0076
natural,analisis,0.0076
modo,multiple,0.0076
libre,exterior,0.0076
laminar,flujo,0.0076
interno,conveccion,0.0076
interno,capa,0.0076
intercambio,radiante,0.0076
grises,superficies,0.0076
flujo,transversal,0.0076
externo,flujo,0.0076
exterior,correlaciones,0.0076
extendidas,eficiencias,0.0076
estanque,ebullicion,0.0076
espesor,economico,0.0076
espacios,cerrados,0.0076
esferas,banco,0.0076
equimolar,sistemas,0.0076
entalpias,coeficientes,0.0076
enfriamiento,torres,0.0076
energia,flujo,0.0076
economico,conduccion,0.0076
ebullicion,pelicular,0.0076
ebullicion,nucleada,0.0076
curvas,radio,0.0076
correlaciones,empiricas,0.0076
contradifusion,equimolar,0.0076
continuo,balance,0.0076
contacto,continuo,0.0076
consideraciones,acerca,0.0076
conduccion,unidimensional,0.0076
condensacion,pelicular,0.0076
condensacion,laminar,0.0076
condensacion,intercambiadores,0.0076
condensacion,condensacion,0.0076
concentraciones,analisis,0.0076
circulares,seccion,0.0076
cerrados,conveccion,0.0076
capas,limite,0.0076
calor,radiante,0.0076
calor,metodo,0.0076
calor,flujo,0.0076
calor,calculo,0.0076
calor,bidimensional,0.0076
boltzmann,emitancia,0.0076
analisis,laminar,0.0076
analisis,exacto,0.0076
analisis,aproximado,0.0076
aletas,conduccion,0.0076
usos,soportes,0.0074
tuberias,tuberias,0.0074
tuberias,planos,0.0074
tuberias,engranajes,0.0074
soldadura,cordon,0.0074
soldadas,sistemas,0.0074
soldadas,procedimientos,0.0074
sistema,neumatico,0.0074
simbolos,iso,0.0074
simbolos,basicos,0.0074
simbologia,iso,0.0074
simbologia,general,0.0074
simbologia,ansi,0.0074
seguidor,excentrico,0.0074
seguidor,basculante,0.0074
planos,esquematicos,0.0074
planos,dibujo,0.0074
plano,centrado,0.0074
plano,basculante,0.0074
nomenclatura,diagrama,0.0074
neumaticos,esquema,0.0074
neumaticas,elementos,0.0074
movimiento,nomenclatura,0.0074
levas,sistemas,0.0074
levas,leva,0.0074
iso,representacion,0.0074
indicaciones,complementarias,0.0074
generalidades,soldadura,0.0074
general,iso,0.0074
esquemas,neumaticos,0.0074
engranajes,levas,0.0074
elementos,cilindros,0.0074
disposicion,general,0.0074
diente,rectos,0.0074
designacion,juntas,0.0074
designacion,elementos,0.0074
descripcion,simbologia,0.0074
cilindros,neumaticos,0.0074
centrado,leva,0.0074
uniforme,corrosion,0.0074
u,oxidacion,0.0074
tungsteno,galvanoplastia,0.0074
tension,externa,0.0074
tension,corrosion,0.0074
temperatura,diferencias,0.0074
superficies,fundamentos,0.0074
superficie,segregaciones,0.0074
sobremedidas,perdida,0.0074
selectiva,corrosion,0.0074
segregaciones,anisotropia,0.0074
seca,u,0.0074
rendimiento,contaminacion,0.0074
regiones,deformadas,0.0074
recubrimientos,organicos,0.0074
recubrimientos,metalicos,0.0074
recubrimientos,electrolitico,0.0074
recubrimiento,electrolitico,0.0074
proyecto,d,0.0074
protectores,polarizacion,0.0074
proteccion,modificando,0.0074
proteccion,anodica,0.0074
productos,sobremedidas,0.0074
producto,perdida,0.0074
produccion,perdida,0.0074
pre,tratamiento,0.0074
polarizacion,electroquimica,0.0074
pistola,metodos,0.0074
pintado,requerimientos,0.0074
picaduras,corrosion,0.0074
perdidas,directas,0.0074
particulas,contaminantes,0.0074
oxidacion,directa,0.0074
oxi,acetileno,0.0074
organicos,generalidades,0.0074
metodos,preparacion,0.0074
metalica,particulas,0.0074
metal,fundido,0.0074
metal,fases,0.0074
meta,dislocaciones,0.0074
matriz,metalica,0.0074
localizada,corrosion,0.0074
liquida,corrosion,0.0074
l,apariencia,0.0074
intergranular,corrosion,0.0074
indirectas,interrupcion,0.0074
grietas,corrosion,0.0074
granos,cristalinos,0.0074
grano,regiones,0.0074
generalidades,magnitud,0.0074
generalidades,factores,0.0074
generalidades,cinetica,0.0074
gaseosa,corrosion,0.0074
fusion,posterior,0.0074
fundido,recubrimientos,0.0074
fundamentos,recubrimiento,0.0074
fundamentos,fosfatacion,0.0074
frio,regiones,0.0074
fosforico,imprimaciones,0.0074
fosfatado,conjunto,0.0074
fosfatacion,decapado,0.0074
flama,recubrimiento,0.0074
fases,dispersas,0.0074
externo,actuando,0.0074
externa,discontinuidades,0.0074
electroquimica,proteccion,0.0074
electroquimica,causas,0.0074
electrolisis,fundamentos,0.0074
dislocaciones,emergentes,0.0074
directas,perdidas,0.0074
directa,corrosion,0.0074
diferencial,heterogeneidades,0.0074
cristalinos,bordes,0.0074
corrosion,uniforme,0.0074
corrosion,subterranea,0.0074
corrosion,selectiva,0.0074
corrosion,seca,0.0074
corrosion,planeamiento,0.0074
corrosion,perdidas,0.0074
corrosion,modificando,0.0074
corrosion,localizada,0.0074
corrosion,liquida,0.0074
corrosion,intergranular,0.0074
corrosion,gaseosa,0.0074
corrosion,galvanica,0.0074
corrosion,erosion,0.0074
corrosion,atmosferica,0.0074
conseguir,adherencia,0.0074
conjunto,lavado,0.0074
concentracion,pilas,0.0074
catodica,modificando,0.0074
bimetalica,corrosion,0.0074
atmosferica,corrosion,0.0074
aluminio,recubrimiento,0.0074
aleaciones,recubrimientos,0.0074
aireacion,diferencial,0.0074
acido,fosforico,0.0074
valorizacion,economica,0.0074
urbanos,ubicacion,0.0074
toman,gobiernos,0.0074
tierra,responsabilidad,0.0074
tierra,preocupan,0.0074
tierra,mision,0.0074
social,tratados,0.0074
social,proyectos,0.0074
seguridad,defenza,0.0074
ruinas,arqueologicas,0.0074
responsabilidad,universal,0.0074
responsabilidad,compartida,0.0074
regulatorias,ambientales,0.0074
recursos,naturales,0.0074
puede,cuidar,0.0074
proyectos,viables,0.0074
proyectos,ambientales,0.0074
propuesta,agenda,0.0074
productos,lesivos,0.0074
plantas,industriales,0.0074
pacto,global,0.0074
organismos,reguladores,0.0074
ordenamiento,territorial,0.0074
informe,brundtland,0.0074
futuro,comun,0.0074
estructura,funcional,0.0074
estrategias,urbanas,0.0074
espacios,comunes,0.0074
efecto,invernadero,0.0074
economicos,ambientales,0.0074
eco,sistema,0.0074
deshechos,domesticos,0.0074
conservacion,ambiental,0.0074
consecuencias,irreversibles,0.0074
cambios,climaticas,0.0074
balances,economicos,0.0074
ambiente,riesgos,0.0074
ambiente,informe,0.0074
ambientales,valorizacion,0.0074
ambientales,proyectos,0.0074
alteraciones,ambientales,0.0074
alteracion,ambiental,0.0074
agua,fuente,0.0074
acuerdos,concertados,0.0074
acatamiento,ambientales,0.0074
temporizadores,procedimiento,0.0071
sincronos,dispositivos,0.0071
neumaticos,automatizacion,0.0071
hidraulicas,mandos,0.0071
asincronos,controladores,0.0071
volumen,constante,0.0070
viscosa,lubricacion,0.0070
velocidad,curvas,0.0070
vapor,reid,0.0070
turbulenta,combustion,0.0070
termodinamicos,combustibles,0.0070
suministro,mixto,0.0070
sankey,balance,0.0070
relacion,estequiometrica,0.0070
prematuro,proceso,0.0070
potencia,efectiva,0.0070
otto,ciclo,0.0070
multiparametricas,coeficiente,0.0070
motores,sobrealimentados,0.0070
momento,efectivo,0.0070
mezcla,curvas,0.0070
mci,estructura,0.0070
mci,ciclos,0.0070
lubricacion,limite,0.0070
llenado,deduccion,0.0070
llama,laminar,0.0070
llama,autoencendido,0.0070
laminar,lama,0.0070
lama,turbulenta,0.0070
inyeccion,diesel,0.0070
inyeccion,common,0.0070
indicados,perdidas,0.0070
hidrodinamica,diagrama,0.0070
hidrocarburos,naciones,0.0070
formulas,analiticas,0.0070
expansion,proceso,0.0070
escape,parametros,0.0070
escape,fases,0.0070
emisiones,toxicas,0.0070
eficiencia,indicada,0.0070
eficiencia,efectiva,0.0070
efectivos,curvas,0.0070
diversos,factores,0.0070
difusiva,combustion,0.0070
diesel,sistema,0.0070
diesel,proceso,0.0070
destilacion,fraccionada,0.0070
compresion,proceso,0.0070
compresion,fases,0.0070
compresion,factores,0.0070
common,rail,0.0070
combustion,procesos,0.0070
combustion,proceso,0.0070
combustion,emisiones,0.0070
combustion,difusiva,0.0070
combustion,diesel,0.0070
combustion,calculo,0.0070
chispa,fases,0.0070
chispa,factores,0.0070
carga,curvas,0.0070
calor,analisis,0.0070
autoencendido,prematuro,0.0070
autoencendido,llama,0.0070
admision,proceso,0.0070
activacion,propagacion,0.0070
young,carga,0.0070
vidrio,fibra,0.0070
usos,nucleares,0.0070
ultraligeras,generalidades,0.0070
transversal,factores,0.0070
sintonizacion,cojinetes,0.0070
seleccion,aluminio,0.0070
reacciones,anodicas,0.0070
principales,latones,0.0070
potencial,galvanico,0.0070
polvos,procesos,0.0070
polvos,polimeros,0.0070
polvos,obtencion,0.0070
polimeros,materiales,0.0070
polimerizacion,procesos,0.0070
polimerizacion,metodos,0.0070
polarizacion,proteccion,0.0070
plasticos,clases,0.0070
pilling,bedwort,0.0070
piezas,construidas,0.0070
particulas,compuestos,0.0070
oxidos,oxidos,0.0070
oxidacion,grado,0.0070
oxidacion,corrosion,0.0070
organicas,sinteticas,0.0070
organicas,naturales,0.0070
organica,reacciones,0.0070
ordinarios,hierros,0.0070
ordinarios,bronces,0.0070
nucleares,aleaciones,0.0070
nerst,medicion,0.0070
metodos,industriales,0.0070
metalicos,limitaciones,0.0070
metalicos,diseno,0.0070
metales,antifriccion,0.0070
materiales,vitreos,0.0070
materiales,miscelaneos,0.0070
materiales,fibrosos,0.0070
materiales,elastomeros,0.0070
materiales,antifriccion,0.0070
materiales,abrasivos,0.0070
madera,materiales,0.0070
leyes,experimentales,0.0070
latones,principales,0.0070
impurezas,influencia,0.0070
importantes,referidas,0.0070
hierro,materiales,0.0070
generalidades,procesos,0.0070
generalidades,extraccion,0.0070
galvanicas,fenomenos,0.0070
fusion,materiales,0.0070
fundidos,hierros,0.0070
fundidos,aleados,0.0070
frio,sinterizado,0.0070
frio,influencia,0.0070
forja,aleaciones,0.0070
fibras,inorganicas,0.0070
fibras,fibra,0.0070
fibras,continuas,0.0070
fibra,moderna,0.0070
ferrosos,metales,0.0070
fabricacion,cojinetes,0.0070
experimentales,cinetica,0.0070
especiales,oxidacion,0.0070
especiales,monel,0.0070
esfuerzo,deformacion,0.0070
elevada,aleaciones,0.0070
electroquimica,componentes,0.0070
electrodo,potencial,0.0070
elastomeros,sinteticos,0.0070
elastomeros,elastomeros,0.0070
diversos,productos,0.0070
dispersion,sistemas,0.0070
cuarzo,abrasivos,0.0070
corrosion,metales,0.0070
continuas,tratamiento,0.0070
compuestos,modernos,0.0070
compuestos,materiales,0.0070
compuesto,clases,0.0070
compactos,sintetizados,0.0070
cojinetes,fabricados,0.0070
cojinetes,compactos,0.0070
cobre,latones,0.0070
celdas,galvanicas,0.0070
celda,electroquimica,0.0070
catodicas,potencial,0.0070
carga,transversal,0.0070
carbono,fibra,0.0070
carbono,aceros,0.0070
caliente,influencia,0.0070
bronces,ordinarios,0.0070
bronces,especiales,0.0070
bronces,bronces,0.0070
breve,revision,0.0070
boro,hierro,0.0070
berilio,generalidades,0.0070
bedwort,estructura,0.0070
artificiales,alumina,0.0070
aluminio,principales,0.0070
alumina,cristalina,0.0070
aleados,hierros,0.0070
aleaciones,principales,0.0070
aleaciones,generalidades,0.0070
abrasivos,naturales,0.0070
abrasivos,artificiales,0.0070
abrasivos,abrasivos,0.0070
vapor,temperatura,0.0064
vapor,eficiencia,0.0064
valores,particulares,0.0064
uniformes,procesos,0.0064
trayectoria,fases,0.0064
thomson,grafico,0.0064
termodinamicas,razon,0.0064
termodinamica,i,0.0064
termodinamica,entropia,0.0064
termodinamica,calidad,0.0064
termico,fuente,0.0064
termica,eficiencia,0.0064
temperatura,desigualdad,0.0064
sustancia,simple,0.0064
sustancia,curva,0.0064
superficie,termodinamica,0.0064
sumidero,maquina,0.0064
simple,compresible,0.0064
saturacion,adiabatica,0.0064
reversibles,diagramas,0.0064
reversibilidad,factores,0.0064
relativa,punto,0.0064
reales,modelos,0.0064
pura,sustancia,0.0064
pura,punto,0.0064
pura,comportandose,0.0064
punto,triple,0.0064
punto,critico,0.0064
procesos,termodinamicos,0.0064
procesos,reversibles,0.0064
procesos,asimilables,0.0064
proceso,politropico,0.0064
proceso,isoentopico,0.0064
proceso,energia,0.0064
politropicos,exponente,0.0064
planteados,analisis,0.0064
planos,termodinamicas,0.0064
plano,p,0.0064
perfomance,reversibilidad,0.0064
perdido,relaciones,0.0064
particulares,diagrama,0.0064
p,t,0.0064
mol,cp,0.0064
modelos,planteados,0.0064
mezclas,gas,0.0064
mezclas,bifasicas,0.0064
mezcla,saturada,0.0064
m,c,0.0064
liquido,comprimido,0.0064
limite,movil,0.0064
kelvin,plank,0.0064
k,ley,0.0064
joule,u,0.0064
joule,thomson,0.0064
inverso,procesos,0.0064
grafico,t,0.0064
generalizado,procesos,0.0064
generales,mezcla,0.0064
gases,mezcla,0.0064
gas,vapor,0.0064
fuente,sumidero,0.0064
fraccion,mol,0.0064
flujo,estable,0.0064
fases,superficie,0.0064
fase,equilibrio,0.0064
extensivas,planos,0.0064
expresion,general,0.0064
estables,procesos,0.0064
estable,energia,0.0064
escala,termodinamica,0.0064
equilibrio,termodinamico,0.0064
entropia,calculo,0.0064
entropia,analisis,0.0064
entalpia,calores,0.0064
energia,relaciones,0.0064
energia,balance,0.0064
eficiencia,maquina,0.0064
efectividad,funciones,0.0064
dicha,bomba,0.0064
dalton,fraccion,0.0064
cv,u,0.0064
critico,diagrama,0.0064
control,sustancia,0.0064
control,energia,0.0064
compresible,fase,0.0064
compresibilidad,generalizado,0.0064
coeficiente,joule,0.0064
clausius,analisis,0.0064
carnot,inverso,0.0064
carnot,escala,0.0064
calor,coeficiente,0.0064
calidad,diagrama,0.0064
bifasicas,tablas,0.0064
amagat,ley,0.0064
almacenada,expresiones,0.0064
uniones,uniones,0.0063
uniformemente,distribuidas,0.0063
tornillos,uniones,0.0063
tolerancias,tolerancias,0.0063
tolerancias,geometricas,0.0063
tolerancias,geometicas,0.0063
tolerancia,proyectada,0.0063
tolerancia,diferencia,0.0063
superficial,tolerancia,0.0063
superficial,indicaciones,0.0063
simetricas,entidades,0.0063
simbolos,notas,0.0063
simbolos,indicaciones,0.0063
seleccion,ejercicios,0.0063
seccion,ejercicios,0.0063
seccion,corte,0.0063
rotulo,escalas,0.0063
roscas,designacion,0.0063
roscadas,sistema,0.0063
restrictivas,tolerancia,0.0063
relativas,limite,0.0063
regulares,entidades,0.0063
regen,comandos,0.0063
redondeos,biseles,0.0063
proyectada,condicion,0.0063
proyecciones,ortogonales,0.0063
proyeccion,sistemas,0.0063
proyeccion,lineas,0.0063
proyeccion,iso,0.0063
progresivo,acotado,0.0063
polilineas,edicion,0.0063
polilineas,division,0.0063
polilineas,construccion,0.0063
poligonos,regulares,0.0063
pasadores,uniones,0.0063
pasadores,representacion,0.0063
pasadores,designacion,0.0063
partes,iguales,0.0063
paralelo,acotado,0.0063
paralelas,entidades,0.0063
origen,lineas,0.0063
orientacion,tolerancias,0.0063
normas,formatos,0.0063
normalizadas,alfabeto,0.0063
movimiento,indicaciones,0.0063
movil,juegos,0.0063
mover,entidades,0.0063
modo,ortogonal,0.0063
mixto,acotado,0.0063
medidas,sistemas,0.0063
medida,calidad,0.0063
maximo,material,0.0063
lineas,iso,0.0063
lineas,indicadores,0.0063
linea,comandos,0.0063
lenguetas,designacion,0.0063
juegos,maximo,0.0063
iso,precedencia,0.0063
iso,indicaciones,0.0063
iso,acabados,0.0063
indicadores,cotas,0.0063
indicaciones,especiales,0.0063
indicaciones,adicionales,0.0063
indeterminado,sistema,0.0063
iguales,edicion,0.0063
grid,modo,0.0063
generalidades,tolerancias,0.0063
generales,elementos,0.0063
frontal,dibujo,0.0063
fijo,aprietes,0.0063
extender,entidades,0.0063
estrias,designacion,0.0063
estriados,representacion,0.0063
especiales,secciones,0.0063
esparragos,designacion,0.0063
escalas,normalizadas,0.0063
entidades,uniformemente,0.0063
entidades,simetricas,0.0063
entidades,semejantes,0.0063
entidades,rotadas,0.0063
entidades,poligonos,0.0063
entidades,mover,0.0063
entidades,extender,0.0063
entidades,copiar,0.0063
empleando,construcciones,0.0063
empernadas,uniones,0.0063
eje,base,0.0063
editor,sistema,0.0063
editor,entrada,0.0063
distribuidas,escalacion,0.0063
dibujos,fileteados,0.0063
dibujo,partes,0.0063
dibujo,linea,0.0063
dibujo,comandos,0.0063
cotas,simbolos,0.0063
cota,terminacion,0.0063
cota,indicacion,0.0063
cortes,simbolos,0.0063
cortes,acotado,0.0063
corte,plano,0.0063
corte,lineas,0.0063
copiar,entidades,0.0063
coordenadas,acotado,0.0063
coordenadas,absolutas,0.0063
comandos,snap,0.0063
bloques,rayado,0.0063
base,sistema,0.0063
base,designacion,0.0063
aprietes,maximo,0.0063
ajustes,iso,0.0063
ajustes,ajustes,0.0063
ajuste,movil,0.0063
ajuste,indeterminado,0.0063
ajuste,fijo,0.0063
ajuste,elementos,0.0063
agujero,base,0.0063
acotado,tabular,0.0063
acotado,progresivo,0.0063
acotado,mixto,0.0063
acotado,lineas,0.0063
acotado,acotado,0.0063
acotado,acabado,0.0063
acabados,superficiales,0.0063
williams,equipo,0.0061
vs,relacion,0.0061
ventilacion,centrifugo,0.0061
turbina,eficiencia,0.0061
turbina,curvas,0.0061
temperatura,vs,0.0061
rotodinamicas,curvas,0.0061
principales,usos,0.0061
presion,temperatura,0.0061
potencia,suministrada,0.0061
potencia,real,0.0061
potencia,isotermica,0.0061
potencia,aerodinamica,0.0061
paralelo,usos,0.0061
manuales,tablas,0.0061
global,vs,0.0061
funcionamiento,comparacion,0.0061
flujo,refrigerante,0.0061
experimentos,ventilador,0.0061
experimentos,compresor,0.0061
energetico,datos,0.0061
eficiencia,vs,0.0061
eficiencia,total,0.0061
diagrama,indicando,0.0061
datos,termicos,0.0061
comprension,adiabatica,0.0061
coeficientes,peliculares,0.0061
coeficiente,conductivo,0.0061
carnot,invertido,0.0061
calores,absorbidos,0.0061
bombas,rotodinamicas,0.0061
altura,efectiva,0.0061
requiere,desarrollar,0.0061
requiere,demostrar,0.0061
proyecto,requiere,0.0061
procedimiento,documentados,0.0061
previstos,revision,0.0061
poder,hacer,0.0061
planeamiento,estrategico,0.0061
pgc,sgc,0.0061
permitan,disenar,0.0061
necesario,revisar,0.0061
necesario,desarrollar,0.0061
mejoramiento,continua,0.0061
matriz,foda,0.0061
listas,maestras,0.0061
hace,necesario,0.0061
habilidades,resultantes,0.0061
gran,intensidad,0.0061
gestion,integral,0.0061
gestion,empresarial,0.0061
documentos,analizar,0.0061
diagrama,causa,0.0061
desarrollo,conceptual,0.0061
desarrollar,planea,0.0061
demostrar,fehacientemente,0.0061
cualquier,organizacion,0.0061
causa,efecto,0.0061
calificacion,explicita,0.0061
calidad,desarrollo,0.0061
calidad,basicas,0.0061
beneficios,previstos,0.0061
aprendizaje,competencias,0.0061
voltaje,real,0.0061
vatimetros,modelos,0.0061
vatimetros,circuitos,0.0061
valor,eficaz,0.0061
trifasicos,desbalanceados,0.0061
triangulo,secuencias,0.0061
topologica,analisis,0.0061
tensiones,comparaciones,0.0061
tension,alterna,0.0061
tecnologia,moderna,0.0061
superposicion,teoremas,0.0061
sistemas,trifasicos,0.0061
sistemas,trifasico,0.0061
sistemas,balanceados,0.0061
sistema,polifasico,0.0061
sinusoidal,corriente,0.0061
resistivos,conexion,0.0061
resistiva,pura,0.0061
representacion,fasorial,0.0061
real,fuentes,0.0061
rc,circuitos,0.0061
ramas,independientes,0.0061
rama,rl,0.0061
rama,resistiva,0.0061
rama,inductiva,0.0061
rama,capacitiva,0.0061
puntos,circuitos,0.0061
potencia,conexion,0.0061
potencia,activa,0.0061
polifasico,sistemas,0.0061
paralelo,impedancia,0.0061
orden,rl,0.0061
orden,circuitos,0.0061
onda,alterna,0.0061
mutua,transformador,0.0061
monofasico,conexiones,0.0061
maxima,transferencia,0.0061
magnetico,respuesta,0.0061
kirchhoff,balance,0.0061
interruptores,circuitos,0.0061
inicial,almacenada,0.0061
inductores,energia,0.0061
inductores,analisis,0.0061
inductiva,pura,0.0061
induccion,mutua,0.0061
independientes,ramas,0.0061
generacion,circuitos,0.0061
funciones,singulares,0.0061
fasoriales,potencia,0.0061
fasorial,diagramas,0.0061
estrella,estrella,0.0061
estrella,delta,0.0061
estable,capacitores,0.0061
equivalente,monofasico,0.0061
equivalente,divisor,0.0061
equilibradas,determinacion,0.0061
energia,inicial,0.0061
energia,circuitos,0.0061
elementos,pasivos,0.0061
elementos,activos,0.0061
diferentes,teoremas,0.0061
diagramas,fasoriales,0.0061
describen,despues,0.0061
dependientes,transformaciones,0.0061
dependientes,simetria,0.0061
dependientes,funciones,0.0061
delta,delta,0.0061
delta,circuito,0.0061
corriente,voltimetros,0.0061
corriente,sinusoidal,0.0061
corriente,real,0.0061
corriente,natural,0.0061
corriente,equivalencia,0.0061
circuitos,elementos,0.0061
circuitos,balanceados,0.0061
circuito,rlc,0.0061
cargas,equilibradas,0.0061
capacitiva,pura,0.0061
balanceados,generacion,0.0061
autoinduccion,induccion,0.0061
analisis,preciso,0.0061
alterna,ondas,0.0061
algebra,topologica,0.0061
alcances,circuito,0.0061
aire,coeficiente,0.0061
acoplo,conductivo,0.0061
acoplamiento,magnetico,0.0061
vectores,arbitrarios,0.0060
vector,carga,0.0060
unidimensionales,armaduras,0.0060
traccion,unidimensional,0.0060
traccion,simple,0.0060
teorema,lame,0.0060
rotacion,matriz,0.0060
rigidez,vector,0.0060
rigidez,esfuerzos,0.0060
punto,orientado,0.0060
potencial,elastica,0.0060
nodales,funciones,0.0060
modelo,matrices,0.0060
modales,coordenadas,0.0060
maxwell,teoremas,0.0060
matriz,global,0.0060
libertad,modales,0.0060
lenguaje,matlab,0.0060
ii,armaduras,0.0060
generalidades,orden,0.0060
galerkin,concordancia,0.0060
galerkin,calculo,0.0060
esfuerzos,normales,0.0060
esfuerzos,constantes,0.0060
esfuerzo,efectivo,0.0060
efectos,matrices,0.0060
efecto,termico,0.0060
efectivo,uniaxial,0.0060
desplazamientos,exteriores,0.0060
desplazamientos,elasticos,0.0060
deformacion,termica,0.0060
cuerpo,real,0.0060
coordenadas,totales,0.0060
componentes,operaciones,0.0060
castigliano,teorema,0.0060
cargas,distribuidas,0.0060
armadura,efecto,0.0060
voltaje,constante,0.0057
visual,guia,0.0057
v,i,0.0057
termico,condiciones,0.0057
tension,constante,0.0057
sub,superficiales,0.0057
stick,out,0.0057
soplo,magnetico,0.0057
soldadura,peligros,0.0057
soldadura,i,0.0057
soldadura,gtaw,0.0057
soldadura,fuerte,0.0057
soldadura,factores,0.0057
soldadura,cordones,0.0057
soldadura,blanda,0.0057
soldadura,aleaciones,0.0057
saw,fuentes,0.0057
regulacion,v,0.0057
proceso,saw,0.0057
proceso,gtaw,0.0057
proceso,fcaw,0.0057
oxigas,gases,0.0057
materiales,aptos,0.0057
macaw,fuentes,0.0057
hierro,carbono,0.0057
gtaw,fuentes,0.0057
gmaw,fuentes,0.0057
gases,combustibles,0.0057
fierros,fundidos,0.0057
expositor,invitado,0.0057
equipos,gmaw,0.0057
electrodos,rutilicos,0.0057
electrodos,estructurales,0.0057
electrodo,revestido,0.0057
defectos,superficiales,0.0057
cote,termico,0.0057
costuras,soldadas,0.0057
corte,termico,0.0057
corte,plasma,0.0057
corriente,constante,0.0057
cordones,traslapados,0.0057
alta,frecuencia,0.0057
aleaciones,hierro,0.0057
alambres,tubulares,0.0057
alambre,tubular,0.0057
alambre,caliente,0.0057
aceros,estructurales,0.0057
utilizacion,mundial,0.0051
ubicacion,verificacion,0.0051
toque,descarga,0.0051
tierra,temporal,0.0051
tierra,permanente,0.0051
tension,tension,0.0051
tension,inducida,0.0051
tension,frecuencia,0.0051
temporal,servidumbre,0.0051
suministro,calidad,0.0051
suministrador,facultades,0.0051
subestandar,requisitos,0.0051
sub,comites,0.0051
sistemas,especiales,0.0051
sistema,interconectado,0.0051
sistema,economicamente,0.0051
sistema,ampliacion,0.0051
sistema,alterno,0.0051
severidad,calculo,0.0051
servicio,comercial,0.0051
seguridad,secuencia,0.0051
seguridad,espacios,0.0051
seguridad,equipos,0.0051
ruido,radiaciones,0.0051
riesgos,control,0.0051
revision,gerencial,0.0051
resolucion,ministerial,0.0051
residuos,peligrosos,0.0051
requerido,funcion,0.0051
reportar,condiciones,0.0051
regulados,clientes,0.0051
radiaciones,electromagneticas,0.0051
publico,obligaciones,0.0051
proteccion,ambiental,0.0051
producto,tension,0.0051
presupuestos,efectividad,0.0051
potencia,cambio,0.0051
planeadas,sistema,0.0051
perturbaciones,calidad,0.0051
persona,recorrido,0.0051
persona,efectos,0.0051
permanente,conexion,0.0051
perdidas,comites,0.0051
peligrosos,control,0.0051
paso,tension,0.0051
partes,criticas,0.0051
over,haull,0.0051
operacion,economica,0.0051
ocupacionales,factores,0.0051
observaciones,planeadas,0.0051
observacion,selectiva,0.0051
observacion,completa,0.0051
marginales,penalidades,0.0051
mantenimiento,soporte,0.0051
mantenimiento,control,0.0051
maniobras,detectores,0.0051
liquidos,reduccion,0.0051
libres,comision,0.0051
ley,calidad,0.0051
lesiones,indice,0.0051
intensidad,maxima,0.0051
instrumentacion,requerido,0.0051
instrumentacion,necesaria,0.0051
inspecciones,planeadas,0.0051
inspecciones,generales,0.0051
inspeccion,partes,0.0051
informe,observacion,0.0051
industriales,residuos,0.0051
industrial,accidentes,0.0051
inducida,avisos,0.0051
indices,prevencion,0.0051
incidentes,enfermedades,0.0051
impactos,control,0.0051
impacto9s,determinacion,0.0051
haull,supervision,0.0051
gerencial,acciones,0.0051
generales,planeadas,0.0051
gaseosas,calidad,0.0051
frecuencia,perturbaciones,0.0051
frecuencia,indice,0.0051
formulas,tarifarias,0.0051
fiscalizador,guia,0.0051
falla,tarifas,0.0051
evitar,accidentes,0.0051
especiales,inspecciones,0.0051
espacios,requeridos,0.0051
equipo,sistema,0.0051
enfermedades,ocupacionales,0.0051
energizados,conexion,0.0051
energia,oferta,0.0051
energia,demanda,0.0051
emisiones,gaseosas,0.0051
em,reglamento,0.0051
em,norma,0.0051
em,direccion,0.0051
em,dge,0.0051
em,codigo,0.0051
elementos,involucrados,0.0051
elemento,fiscalizador,0.0051
electrificacion,consumo,0.0051
efluentes,liquidos,0.0051
eficiencia,instrumentacion,0.0051
efectuar,auditorias,0.0051
efectividad,global,0.0051
economicamente,adaptado,0.0051
direccion,general,0.0051
dge,reglamento,0.0051
desechos,industriales,0.0051
demanda,actual,0.0051
decreto,ley,0.0051
criticas,sistema,0.0051
criticas,inspecciones,0.0051
correctivo,over,0.0051
conexion,formulas,0.0051
condiciones,subestandar,0.0051
comercial,calidad,0.0051
clientes,sistema,0.0051
clientes,regulados,0.0051
clientes,libres,0.0051
circuitos,energizados,0.0051
camisea,energias,0.0051
calidad,utilizacion,0.0051
calidad,analisis,0.0051
calibracion,seleccion,0.0051
barra,pejes,0.0051
auditorias,internas,0.0051
auditoria,exigidas,0.0051
auditoria,elementos,0.0051
auditores,decalogo,0.0051
auditor,gestion,0.0051
antecedentes,coeficiente,0.0051
ambiental,matriz,0.0051
alumbrado,sustitucion,0.0051
alumbrado,publico,0.0051
adecuacion,auditoria,0.0051
actual,sistema,0.0051
acciones,correctivas,0.0051
accidentes,lesiones,0.0051
accidentes,incidentes,0.0051
valor,economico,0.0051
tasa,real,0.0051
tasa,pasiva,0.0051
tasa,activa,0.0051
simple,valor,0.0051
simple,interes,0.0051
saldos,negativos,0.0051
riesgos,analisis,0.0051
riesgo,potencial,0.0051
rentabilidad,financiera,0.0051
prestamo,bancario,0.0051
presente,valor,0.0051
presente,neto,0.0051
plazo,ponderacion,0.0051
plazo,incluyendo,0.0051
plazo,analisis,0.0051
plantacion,financiera,0.0051
palanqueo,total,0.0051
palanqueo,operativo,0.0051
pago,metodos,0.0051
operacion,financiera,0.0051
metodo,ingles,0.0051
metodo,americano,0.0051
metodo,aleman,0.0051
leverage,financiero,0.0051
interes,constante,0.0051
gestion,financiera,0.0051
funcion,financiera,0.0051
fondos,netos,0.0051
fondos,intereses,0.0051
financieros,fondo,0.0051
financiamiento,total,0.0051
fijos,tangibles,0.0051
factura,conformada,0.0051
factura,comprobante,0.0051
factores,financieros,0.0051
economico,financiero,0.0051
corto,plazo,0.0051
conforman,valor,0.0051
compuesto,tasas,0.0051
certeza,riesgo,0.0051
bonos,elementos,0.0051
analisis,economico,0.0051
amortizaciones,constantes,0.0051
amortizacion,depreciacion,0.0051
amortizacion,amortizacion,0.0051
activos,fijos,0.0051
activo,total,0.0051
activo,financiero,0.0051
activo,fijo,0.0051
vertical,diagrama,0.0051
varios,sitios,0.0051
variables,localizacion,0.0051
valor,planificado,0.0051
valor,ganado,0.0051
transito,reduccion,0.0051
trafico,distribucion,0.0051
tamano,pequeno,0.0051
tabular,formato,0.0051
sucesos,actividades,0.0051
sistemas,kamban,0.0051
sistemas,aditivos,0.0051
servicios,diagramacion,0.0051
seguridad,sistema,0.0051
seguridad,inventarios,0.0051
s,valor,0.0051
s,diagrama,0.0051
rutas,criticas,0.0051
revision,continua,0.0051
representaciones,graficas,0.0051
representacion,alternativa,0.0051
relaciones,ral,0.0051
recursos,planificacion,0.0051
recurso,curva,0.0051
recorridos,diagrama,0.0051
real,analisis,0.0051
ral,desarrollo,0.0051
puntaje,carga,0.0051
proyectos,inflacion,0.0051
proyectos,hitos,0.0051
proyectos,herramientas,0.0051
proyectos,fracasos,0.0051
proyectos,fases,0.0051
proyectos,factores,0.0051
proyectos,descomposicion,0.0051
proyectos,ciclo,0.0051
proyecto,lay,0.0051
proximidad,grafico,0.0051
producto,proceso,0.0051
producto,lay,0.0051
producto,diagrama,0.0051
productivos,lay,0.0051
productivos,diseno,0.0051
productividad,descomposicion,0.0051
produccion,existentes,0.0051
procesos,representacion,0.0051
proceso,productivo,0.0051
proceso,lineal,0.0051
proceso,lay,0.0051
proceso,intermitente,0.0051
prevision,inventarios,0.0051
predeterminados,tablas,0.0051
precedencia,tasa,0.0051
planta,organizacion,0.0051
planta,lay,0.0051
planificacion,holguras,0.0051
planificacion,actividades,0.0051
pert,estadistico,0.0051
pert,diferencia,0.0051
pert,analisis,0.0051
pequeno,estandarizacion,0.0051
pedido,calculo,0.0051
ordenada,tableu,0.0051
operaciones,sistema,0.0051
ocioso,balance,0.0051
normas,din,0.0051
norma,asme,0.0051
necesario,desarrollas,0.0051
multiples,diagrama,0.0051
muestra,curva,0.0051
ms,project,0.0051
movimientos,simultaneos,0.0051
movimiento,promedio,0.0051
metodos,registro,0.0051
metodos,productividad,0.0051
metodos,fases,0.0051
metodo,sistematico,0.0051
metodo,carga,0.0051
mejorado,diagrama,0.0051
matriz,ordenada,0.0051
maslow,motivacion,0.0051
localizacion,factores,0.0051
localizacion,comparacion,0.0051
kamban,operacion,0.0051
kamban,determinacion,0.0051
jit,metodo,0.0051
iso,norma,0.0051
inventarios,sistema,0.0051
inventarios,inventario,0.0051
inventarios,analisis,0.0051
inventarios,altos,0.0051
intermitente,proceso,0.0051
instalaciones,establecimiento,0.0051
inflacion,diagramas,0.0051
incierta,calculo,0.0051
horizontal,formato,0.0051
hitos,sucesos,0.0051
hipotesis,basica,0.0051
grupos,lay,0.0051
gant,usos,0.0051
ganado,valor,0.0051
formato,vertical,0.0051
formato,tabular,0.0051
formato,arquitectonico,0.0051
formato,analitico,0.0051
flujogramas,do,0.0051
flujogramas,dif,0.0051
flujo,normas,0.0051
flujo,diagramas,0.0051
factores,criticos,0.0051
estadistico,hipotesis,0.0051
escala,estrategia,0.0051
escala,desconomia,0.0051
empuje,metodo,0.0051
elementales,enfoque,0.0051
distancia,medicion,0.0051
distancia,centro,0.0051
distancia,calculo,0.0051
din,flujogramas,0.0051
dif,modelo,0.0051
diagramacion,simbolos,0.0051
diagrama,mejorado,0.0051
diagrama,horizontal,0.0051
diagrama,bimanual,0.0051
detalle,diagrama,0.0051
datos,cursograma,0.0051
curvas,diversas,0.0051
cursograma,analitico,0.0051
criticas,control,0.0051
control,ms,0.0051
continua,seleccion,0.0051
contenedores,implementacion,0.0051
constructor,dif,0.0051
componentes,sistemas,0.0051
ciclo,inventario,0.0051
capacidad,utilizacion,0.0051
capacidad,planificacion,0.0051
capacidad,metodo,0.0051
capacidad,localizacion,0.0051
capacidad,incremento,0.0051
capacidad,herramientas,0.0051
capacidad,cuello,0.0051
caminos,bloque,0.0051
break,even,0.0051
bloques,calificacion,0.0051
bloque,diagramas,0.0051
bloque,constructor,0.0051
bimanual,diagrama,0.0051
basica,asignacion,0.0051
base,planificacion,0.0051
asme,norma,0.0051
arrastre,lotes,0.0051
arquitectonico,formato,0.0051
aprendizaje,usos,0.0051
aprendizaje,efectos,0.0051
aprendizaje,desarrollo,0.0051
ansi,normas,0.0051
analitico,diagrama,0.0051
analisis,abc,0.0051
almacenes,diseno,0.0051
adyacencia,factor,0.0051
actividades,pert,0.0051
actividades,multiples,0.0051
actividades,cpm,0.0051
aceleracion,sistemas,0.0051
abraham,maslow,0.0051
abc,cantidad,0.0051
voltaje,alterno,0.0044
vacio,prueba,0.0044
vacio,flujo,0.0044
transformadores,trifasicos,0.0044
transformadores,monofasicos,0.0044
tensiones,trifasicas,0.0044
shunt,flujo,0.0044
rotor,requisitos,0.0044
rotor,libre,0.0044
rotor,conexion,0.0044
reluctancia,magnetica,0.0044
polos,colector,0.0044
permanente,generador,0.0044
perdidas,totales,0.0044
paralelo,excitados,0.0044
onda,interpretacion,0.0044
multiple,reaccion,0.0044
motor,real,0.0044
motor,modelo,0.0044
motor,elemental,0.0044
motor,aspecto,0.0044
motor,asincrono,0.0044
monofasicos,prueba,0.0044
monofasico,transformador,0.0044
monofasico,real,0.0044
monofasico,conectado,0.0044
modelos,circuitales,0.0044
materiales,ferromagneticos,0.0044
maquinas,rotativas,0.0044
maquinas,dc,0.0044
magneticos,alimentados,0.0044
magnetico,principal,0.0044
magneticas,permeabilidad,0.0044
magnetica,relativa,0.0044
induccion,velocidad,0.0044
induccion,seleccion,0.0044
induccion,frecuencia,0.0044
induccion,determinacion,0.0044
induccion,campo,0.0044
importantes,relacionados,0.0044
histeresis,perdidas,0.0044
h,materiales,0.0044
giratorio,producido,0.0044
generadores,dc,0.0044
generador,shunt,0.0044
fuerza,electromotriz,0.0044
fuerza,contraelectromotriz,0.0044
foucault,perdidas,0.0044
fierro,medicion,0.0044
ferromagneticos,reluctancia,0.0044
ferromagneticos,perdidas,0.0044
ferromagnetico,determinacion,0.0044
ferromagnetico,circuitos,0.0044
excitacion,modelo,0.0044
exacto,modelo,0.0044
entrehierro,maquina,0.0044
elemental,motor,0.0044
elemental,dc,0.0044
electromotriz,inducida,0.0044
eje,expresion,0.0044
eficiencia,flujo,0.0044
eficiencia,curvas,0.0044
deslizamiento,comportamiento,0.0044
desarrollado,fuerza,0.0044
dc,expresion,0.0044
dc,autoexcitadas,0.0044
dc,autoexcitacion,0.0044
curva,b,0.0044
cortocircuito,regulacion,0.0044
cortocircuito,modelo,0.0044
correcto,funcionamiento,0.0044
contravolatje,modelo,0.0044
constructivo,generico,0.0044
constructivo,campo,0.0044
constante,circuitos,0.0044
conexion,mixta,0.0044
conexion,estrella,0.0044
conexion,delta,0.0044
circuitales,referidos,0.0044
carga,modelo,0.0044
carga,maquina,0.0044
carga,acoplada,0.0044
bancadas,trifasicas,0.0044
b,h,0.0044
aspectos,importantes,0.0044
armadura,aspectos,0.0044
aproximado,modelos,0.0044
aproximado,determinacion,0.0044
alterno,senoidal,0.0044
volumetrica,convencional,0.0043
vapor,factor,0.0043
vapor,componentes,0.0043
vapor,cogeneracion,0.0043
vapor,calentadores,0.0043
turbojet,balance,0.0043
turbohelice,turbojet,0.0043
turbina,ciclo,0.0043
tubos,termicos,0.0043
transferido,diagrama,0.0043
tobera,turbohelice,0.0043
termodinamicos,ciclo,0.0043
termodinamico,elementos,0.0043
termodinamicas,relacion,0.0043
termodinamica,ii,0.0043
termica,foco,0.0043
temperatura,maxima,0.0043
t,temperatura,0.0043
sistemas,bi,0.0043
sistemas,balance,0.0043
sistema,convencional,0.0043
simple,real,0.0043
simple,efecto,0.0043
secos,calculos,0.0043
s,temperaturas,0.0043
relacion,aire,0.0043
refrigeradora,coeficiente,0.0043
recalentamiento,analisis,0.0043
real,combustion,0.0043
reaccion,entalpia,0.0043
reaccion,calor,0.0043
rankine,parametros,0.0043
q,t,0.0043
productos,secos,0.0043
productos,combustion,0.0043
proceso,controlado,0.0043
presion,optima,0.0043
politropica,procesos,0.0043
politropia,procesos,0.0043
planta,balance,0.0043
planos,p,0.0043
placas,termicas,0.0043
oxigeno,combustion,0.0043
otto,procesos,0.0043
orsat,procedimiento,0.0043
neto,maximo,0.0043
multiple,efecto,0.0043
muerto,potencia,0.0043
muerto,eficiencia,0.0043
muerto,compresor,0.0043
motocompresion,evaporacion,0.0043
monofasicos,compresores,0.0043
mezcla,estequiometrica,0.0043
llama,adiabatica,0.0043
lena,analisis,0.0043
isotermicos,eficiencia,0.0043
isoentropicos,eficiencia,0.0043
indicada,compresores,0.0043
incompleta,aire,0.0043
grupo,electrogeno,0.0043
gas,componentes,0.0043
gas,ciclo,0.0043
funcionamiento,etapas,0.0043
funcionamiento,economico,0.0043
funcionamiento,compresor,0.0043
evaporacion,simple,0.0043
etapas,turbina,0.0043
etapas,refrigeracion,0.0043
estequiometrico,mezcla,0.0043
estequiometrica,relacion,0.0043
equipos,compresores,0.0043
entalpias,calculo,0.0043
ensayo,analisis,0.0043
enfriador,analisis,0.0043
energia,indicadores,0.0043
energia,celdas,0.0043
energetico,relacion,0.0043
electrogeno,cogeneracion,0.0043
eje,eficiencia,0.0043
eficiencia,isotermica,0.0043
efecto,indicadores,0.0043
economizadores,indicadores,0.0043
doble,efecto,0.0043
diesel,procesos,0.0043
diesel,combustibles,0.0043
dicha,eficiencia,0.0043
diagrama,q,0.0043
conversion,directa,0.0043
convencionales,intercambiadores,0.0043
convencional,eficiencia,0.0043
contrapresion,pura,0.0043
condensador,control,0.0043
compresores,rotativos,0.0043
compresores,reciprocantes,0.0043
compresores,potencia,0.0043
compresores,funcionamiento,0.0043
compresores,centrifugos,0.0043
compresor,potencia,0.0043
compresor,indice,0.0043
compresor,economizadores,0.0043
compresor,compresores,0.0043
compresion,presion,0.0043
compresion,politropica,0.0043
compresion,isotermicos,0.0043
compresion,isoentropicos,0.0043
compresion,eficiencia,0.0043
composicion,combustion,0.0043
combustion,poder,0.0043
combustion,incompleta,0.0043
combustion,entalpia,0.0043
combustion,completa,0.0043
combustion,analizador,0.0043
combustible,real,0.0043
combustible,eficiencia,0.0043
combustible,descripcion,0.0043
comburente,combustibles,0.0043
cogeneracion,cogeneracion,0.0043
ciclos,otto,0.0043
ciclo,simple,0.0043
ciclo,dual,0.0043
ciclo,binario,0.0043
ciclo,abierto,0.0043
carbon,mineral,0.0043
calorifico,entalpia,0.0043
calor,especiales,0.0043
calor,convencionales,0.0043
caldero,eficiencia,0.0043
calculos,basados,0.0043
bryton,parametros,0.0043
bifasicos,indicadores,0.0043
bi,transfer,0.0043
basicas,compresores,0.0043
analizador,orsat,0.0043
analisis,isoentropico,0.0043
alimentacion,temperatura,0.0043
alimentacion,optimizacion,0.0043
aire,estequiometrico,0.0043
aire,atmosferico,0.0043
aire,aire,0.0043
adiabatica,procesos,0.0043
